__TIMESTAMP__,TS_AVG_GF1_0.05_2,DNTP_iDL__BOX1_0_1,SV_iDL_SD_BOX1_0_1,TS_AVG_GF1_0.04_1,TS_SD_GF1_0.15_1,T_RAD_AVG_T1_2_1,SW_OUT_AVG_T1_2_1,TS_AVG_GF1_0.2_2,WS_CUP_SCALAR_AVG_T1_2_1,PPFD_IN_SD_T1_2_1,SDP_AVG_GF1_0.05_1,TS_SD_GF1_0.1_2,SWC_SD_GF1_0.25_1,LW_OUT_RAW_AVG_T1_2_1,TS_SD_GF1_0.02_1,RH_AVG_T1_2_1,SWC_SD_GF1_0.3_2,TS_SD_GF1_0.07_1,SWC_AVG_GF1_1_2,RH_SD_T1_2_1,SDP_SD_GF1_0.95_1,WD_VANE_VECTOR_SD_T1_2_1,TS_SD_GF1_0.2_2,SDP_SD_GF1_0.25_1,SWC_SD_GF1_0.05_1,SV_iDL_AVG_BOX1_0_1,T_iDL_SD_BOX1_0_1,TS_AVG_GF1_0.3_2,TS_AVG_GF1_0.01_1,TS_AVG_GF1_0.5_2,TS_AVG_GF1_0.95_1,TS_SD_GF1_0.95_1,SW_IN_SD_T1_2_1,SW_IN_AVG_T1_2_1_CORRECTED,SWC_AVG_GF1_0.2_2,SWC_SD_GF1_0.4_2,SWC_SD_GF1_0.6_2,LW_IN_SD_T1_2_1,SDP_AVG_GF1_0.4_1,SDP_SD_GF1_0.4_1,TA_SD_T1_2_1,SWC_SD_GF1_0.95_1,TS_SD_GF1_1_2,TS_SD_GF1_0.5_2,TS_AVG_GF1_1_2,SWC_AVG_GF1_0.25_1,SWC_AVG_GF1_0.4_1,SWC_AVG_GF1_0.4_2,NETRAD_AVG_T1_2_1,PPFD_IN_AVG_T1_2_1,TS_SD_GF1_0.01_1,SWC_AVG_GF1_0.3_2,SDP_AVG_GF1_0.25_1,TS_SD_GF1_0.25_1,LW_IN_RAW_AVG_T1_2_1,LW_OUT_SD_T1_2_1,SWC_SD_GF1_1_2,SWC_AVG_GF1_0.05_1,PPFD_IN_AVG_T1_2_1_CORRECTED,WS_CUP_VECTOR_SD_T1_2_1,SDP_SD_GF1_0.05_1,G_AVG_GF1_0.06_2,SWC_SD_GF1_0.2_2,SWC_AVG_GF1_0.6_2,SWC_SD_GF1_0.4_1,TS_AVG_GF1_0.07_1,T_RAD_SD_T1_2_1,TS_SD_GF1_0.4_1,SW_OUT_SD_T1_2_1,TS_SD_GF1_0.04_1,BV_iDL_AVG_BOX1_0_1,TA_AVG_T1_2_1,SWC_SD_GF1_0.1_2,BV_iDL_SD_BOX1_0_1,SWC_AVG_GF1_0.95_1,TS_SD_GF1_0.02_2,SDP_AVG_GF1_0.95_1,TS_SD_GF1_0.1_1,TS_AVG_GF1_0.25_1,TS_SD_GF1_0.05_2,WS_CUP_SCALAR_SD_T1_2_1,G_SD_GF1_0.06_2,TS_SD_GF1_0.3_2,TS_AVG_GF1_0.1_1,PREC_SD_M1_1_1,SDI12_MAX_PWR__,TS_AVG_GF1_0.4_1,TS_AVG_GF1_0.15_1,SW_IN_AVG_T1_2_1,PPFD_OUT_SD_T1_2_1,SWC_AVG_GF1_0.15_1,PREC_TOT_M1_1_1,SDP_SD_GF1_0.15_1,SWC_SD_GF1_0.15_1,TS_AVG_GF1_0.1_2,SWC_AVG_GF1_0.1_2,G_AVG_GF1_0.06_1,SDP_AVG_GF1_0.15_1,PPFD_OUT_AVG_T1_2_1,LW_OUT_AVG_T1_2_1,LW_IN_AVG_T1_2_1,WD_VANE_SCALAR_SD_T1_2_1,G_SD_GF1_0.06_1,T_iDL_AVG_BOX1_0_1,WS_CUP_VECTOR_AVG_T1_2_1,WD_VANE_VECTOR_AVG_T1_2_1
2018-06-05 18:00:00,16.817,-895.0,0.0010655166825698562,16.907591333333336,0.005128530962164786,21.303060666666667,13.759343311011905,15.185666666666664,1.167741572,1.2812907103772782,13.916783666666664,0.0,0.007796570108019927,-19.36293896329365,NAN,77.81850933333334,0.004798415282870182,0.004683704178991538,28.98575,0.7732895805173294,0.005766005126461287,0.0,0.0,0.004399064117475303,0.008176752133258745,12.028116000000006,0.00774957644216164,14.452,17.219980666666668,13.75,12.802467000000004,0.010204044993451405,0.6749294853828378,87.7628577906193,10.340188666666668,0.009607394903142068,0.011685875598370069,0.5855200237702801,22.139102,0.006085625852036694,0.016052173476756856,0.008629654459545286,0.0,0.0,12.008666666666663,38.952933333333334,46.689001999999995,21.80009333333333,10.201579082341274,186.18456000000003,0.012166669091452684,11.056849666666666,17.501702000000005,0.003976336417437971,-64.71556596726191,0.1447128811519009,0.016507393180024494,32.23605833333333,186.18456000000003,0.18459369308550225,0.004114419173804439,NAN,0.0030481000172613106,24.835659333333336,0.009588842836926664,16.702161333333333,0.01521624997123411,0.005120294816427953,0.16602229724724188,0.005156892676379669,3.541800566666666,19.067733666666673,0.001699056878352961,0.00018259807399245752,50.379722333333326,NAN,24.543316000000004,0.004501639456237028,15.212448666666667,0.0,0.18459369308550225,NAN,0.0,15.667393000000002,0.0,-1.0,14.260486333333327,16.766683000000008,79.88194572668652,0.1291165017224225,33.357039,0.0,0.0027275132760355477,0.005313000221080697,16.234333333333336,6.995703633333333,14.714423,14.486541999999996,9.2529894,402.38613333333336,346.46511000000004,0.2640409,0.025013412115669,26.622569666666664,0.15755939011598005,290.06012189667285
2018-06-05 18:30:00,16.746000000000002,-895.0,0.0011687491220754788,16.853994000000004,0.0047209876941460395,21.41275,13.670447755456347,15.219000000000012,1.1259993600000002,1.1105538537239195,13.919360333333328,0.0,0.00936186483313379,-22.21101029017857,NAN,75.75544133333332,0.005061397804541732,0.004144468956166637,28.99529933333334,0.6035667928548204,0.005886461168413141,0.013983315,0.0,0.005282398993365792,0.009374688663273172,12.029153,0.007561832492063239,14.488,17.114259999999998,13.749,12.805957333333332,0.009042966252442303,0.6919438598907631,85.9545289527539,10.346366666666666,0.009645261286277684,0.014758929344940502,0.37347214119504146,22.137102333333328,0.006114964979341226,0.017557820738630648,0.008808757746102899,0.0,0.0,12.009666666666664,38.953008000000004,46.685852,21.782288333333337,-7.310330887896819,184.72026666666665,0.009092479509796409,11.054094333333333,17.501743666666666,0.00433306121861901,-80.36317775297617,0.14859035150589356,0.017897797740865588,32.24117766666667,184.72026666666665,0.19311562416922406,0.0047175632850733965,NAN,0.0034109770102616686,24.83824299999999,0.00963573471429622,16.668319333333333,0.010909098337384534,0.004648362873873596,0.1952199798306589,0.004299170203065577,3.541017133333332,19.282132666666666,0.0021756894752066624,0.0003141895573953177,50.384627,NAN,24.546595333333325,0.004671662556033311,15.250371666666663,0.0,0.19311562416922406,NAN,0.0,15.706024333333335,0.0,-1.0,14.268062333333335,16.748913,78.06334020089285,0.10300553523399922,33.35671933333334,0.0,0.0028549362456406183,0.005561306343880664,16.22933333333334,6.995319800000002,12.685812,14.486378333333334,9.3995359,399.5100266666666,327.8068033333333,0.014156018100044769,0.017931976806635583,26.29018466666667,0.3011218075962247,339.3658478813124
2018-06-05 19:00:00,16.670333333333343,-895.0,0.0011046266641039312,16.80448266666667,0.0042693296054346795,21.201443666666663,13.756642641369057,15.253999999999992,1.680962033333333,1.165389823274283,13.921719666666666,0.0,0.009995388061081075,-21.630117336309528,NAN,78.06469733333333,0.005221386268917917,0.004414711395182269,29.003487333333332,0.6211824576101048,0.006239063649800118,NAN,0.0,0.005640022502376913,0.009934436728694457,12.03105466666667,0.007823688020635792,14.515666666666663,17.018063666666663,13.75,12.812969,0.010851426249268397,0.7299255712845808,85.82698849534488,10.347066000000002,0.010106627768351199,0.013308317346403205,0.3872094556630808,22.135258333333333,0.005621138919937394,0.03521880924511992,0.009335077043265165,0.0,0.0,12.013666666666662,38.95358133333334,46.682945666666654,21.786887666666665,-10.342676252480151,184.53753,0.010859789170545071,11.051416000000001,17.502069000000002,0.004590669294992415,-82.05988818948413,0.20720079543074596,0.018748193648011204,32.24586866666666,184.53753,0.3548682194420281,0.004999781506196026,NAN,0.002772200741518027,24.84560366666667,0.008857535337575112,16.63802533333333,0.01104257986718942,0.005382529227527638,0.24305721896095994,0.004067610129732481,3.540053466666665,18.955234000000004,0.002045980728383048,0.0001959937198779789,50.392791,NAN,24.552050333333334,0.004412734615584717,15.289852333333334,0.0,0.3548682194420281,NAN,0.0,15.734035333333336,0.0,-1.0,14.283255,16.72566433333333,77.92552305555556,0.1231191290445692,33.356911999999994,0.0,0.0030094049791541235,0.0058622472937585,16.21866666666666,6.993455233333334,11.224271666666665,14.486476333333336,9.174625099999998,399.0029133333333,324.4913566666666,NAN,0.013227610669833053,25.903828666666662,0.11760671140175835,243.17647352952886
2018-06-05 19:30:00,16.593,-895.0,0.0009653712439102746,16.754661000000002,0.004455390630764669,20.652188333333335,7.15022632450397,15.28333333333334,2.6983956,1.1766858366324922,13.92158233333333,0.0,0.011159945125079783,-22.962984853670637,NAN,74.13766433333333,0.00452010904183965,0.004453381518752358,29.015988333333333,0.4087705141749276,0.005903583609637861,NAN,0.0,0.006296471778139281,0.009040497360219715,12.03172666666666,0.010199233925532675,14.542666666666669,16.932883666666665,13.75,12.81877866666667,0.007903694526572776,1.071081136941111,58.183721879701736,10.349521666666666,0.009667032415367396,0.012284239982799565,0.3427388827126042,22.129592333333328,0.005157599527761441,0.025643749658303197,0.00883340377486169,0.0,0.0,12.013999999999994,38.944807000000004,46.674016,21.79668766666667,-29.87623657251984,123.85150733333336,0.008066505581547164,11.055211666666668,17.497118333333333,0.0038822094476880487,-82.16523106646825,0.233282759774201,0.015715060175339662,32.245594,123.85150733333336,0.47915095948439046,0.004549795753909656,NAN,0.0029576867530772028,24.850338333333333,0.008128065728868086,16.600917,0.01119019124818029,0.0034952602991766986,0.560649820174355,0.004136678547935176,3.539351966666666,18.834939666666667,0.0019292740895925154,0.0002846061807043761,50.392217333333335,NAN,24.551668,0.0046050767878915945,15.322817999999996,0.0,0.47915095948439046,NAN,0.0,15.754115000000002,0.0,-1.0,14.295713000000001,16.696255999999998,50.27197975198414,0.16520525552611268,33.35516266666666,0.0,0.0028749284623521853,0.005600190575806289,16.208999999999993,6.992429166666668,10.005631433333331,14.485578666666663,6.587445533333335,394.1910900000001,321.1930999999999,NAN,0.015360168460178533,25.353324000000004,0.22955838864056666,73.5046561049995
2018-06-05 20:00:00,16.497,-895.0,0.0008404885194605576,16.69161133333333,0.004440012014647126,20.092759333333337,-3.9008451814413263,15.307333333333332,2.4473497333333336,0.6879009472681666,13.920388666666659,0.0,0.020878769002314394,-24.943000672123024,NAN,68.89505933333334,0.005441109284437936,0.004057328553052816,29.027199000000003,0.49363240119279783,0.006206428424451753,NAN,0.0,0.011832198462026357,0.009897694160316777,12.031949333333328,0.011839486459643707,14.565999999999995,16.83713366666667,13.75,12.824131999999999,0.008106140585252674,0.4410008236096847,12.904076085576461,10.353778666666665,0.009846548161184021,0.0163002560788101,0.4192270435270948,22.118821,0.005569131813141039,0.03201078296197413,0.009286582346925294,0.0,0.0,12.020999999999995,39.07207066666667,46.65703766666668,21.808171,-46.99997631949405,32.121083,0.00836842774102293,11.050733666666666,17.569134333333334,0.004573418221143408,-69.44218200644842,0.3030081856615687,0.017883666533274462,32.243219333333336,32.121083,0.42383160339091164,0.00498110492944797,NAN,0.003055045332141058,24.87281066666667,0.008780049092766149,16.556892666666663,0.008346115081542937,0.002347300148762493,0.17883896502113267,0.004068309185981827,3.537877833333333,18.480477000000004,0.0021296454185384716,0.00028537288730681477,50.388401,NAN,24.54911966666666,0.004353012681411779,15.356354999999997,0.0,0.42383160339091164,NAN,0.0,15.767984,0.0,-1.0,14.309832999999996,16.66266966666667,4.982057269930555,0.10735693799949451,33.350370999999996,0.0,0.002315705915794735,0.00451112627325937,16.181666666666672,6.993389733333335,8.235663333333331,14.483120000000001,1.468984546666667,388.54059666666666,333.6718866666667,NAN,0.019989791342799035,24.572177000000007,0.13981688866894643,293.9328086677554
2018-06-05 20:30:00,16.398000000000003,-895.0,0.0010630332309669347,16.60250033333333,0.004293764331822177,19.93047933333333,-5.034345287946428,15.318666666666662,1.6921195999999994,0.19755572254620404,13.919284000000001,0.0,0.009337212258232194,-27.935541604662696,NAN,67.845755,0.005919279866773998,0.00429918149860824,29.051093333333334,0.4271965189910232,0.007126542438444506,NAN,0.0,0.005270959542788846,0.008092216831811053,12.032225333333331,0.011688438541927661,14.577999999999994,16.716725333333333,13.752666666666665,12.822612666666664,0.007394914725031307,0.09751860006253085,2.571663770935308,10.357227666666667,0.009590423055363352,0.013497998584086977,0.29195706314253755,22.109440666666668,0.006377186435987822,0.0318565227783462,0.010664267257788282,0.0,0.0,12.027000000000003,38.981205,46.64224666666665,21.81175466666667,-44.879268511532736,6.2920823,0.006995230107088311,11.057672,17.51765766666667,0.004547265285185779,-61.926867470238115,0.22588886856428522,0.01629531586305576,32.24102666666667,6.2920823,0.1944593706926332,0.004072299240936967,NAN,0.002877284304497733,24.870999333333337,0.010055377727984283,16.490080333333328,0.009019248952656246,0.004226775039898241,0.08512938269092162,0.005077692036499025,3.5359240666666674,18.068071,0.0018712357045637448,0.0002646782423583737,50.377553999999996,NAN,24.541866333333328,0.0059242907039702844,15.378380666666665,0.0,0.1944593706926332,NAN,0.0,15.76671633333334,0.0,-1.0,14.317904333333331,16.60465433333333,-5.36063173263889,0.08352347600389971,33.346101333333344,0.0,0.0025418842061204518,0.004953211791165677,16.155666666666658,6.992344666666667,6.245883633333333,14.480926000000004,0.32114800666666665,383.92323666666675,342.01100666666673,NAN,0.01750889760644713,23.734897,0.48877354194800876,127.85440546925611
2018-06-05 21:00:00,16.293,-895.0,0.0017943870785122387,16.50557233333333,0.004212731665947547,19.488378333333337,-5.354084730902778,15.322999999999992,1.3441420666666666,0.09054955247454291,13.919957666666665,0.0,0.008862885818933294,-30.424694747023807,NAN,69.39619333333333,0.005348724474250202,0.004627564108174735,29.057882333333335,0.41375453971904247,0.0068356782835544225,2.108098,0.0,0.005003689634572971,0.009100983190768122,12.032922666666668,0.01112342461624087,14.602666666666675,16.59320766666666,13.75533333333333,12.823167333333332,0.006487969056410879,0.0998426528128153,0.19457181789880656,10.360206000000002,0.009628884361747525,0.013203307022078347,0.3841587185924025,22.10058233333333,0.005930243829267888,0.04187579250069965,0.010230493191654028,0.0,0.0,12.025999999999994,38.976331,46.628279,21.82000433333333,-51.40552575719246,0.552169252,0.006722802163781444,11.055866000000002,17.51491533333333,0.003765593567970854,-69.77177291914681,0.25888313679014674,0.01755754413677607,32.242365,0.552169252,0.1710285215996506,0.0045802102570470645,NAN,0.0036437481990704667,24.885077000000003,0.009352509325798073,16.412650333333332,0.014189733656684949,0.005193643472480718,0.0710312028703041,0.004146716639465397,3.5344314000000012,17.469750666666673,0.001995848976078957,0.00025986965511674566,50.373657666666666,NAN,24.539264333333332,0.003421320708697701,15.395869000000003,0.0,0.1710285215996506,NAN,0.0,15.759611000000001,0.0,-1.0,14.329203,16.537111666666664,-8.243603821428572,0.0,33.34464233333333,0.0,0.002655044710441383,0.005173337557574678,16.113000000000003,6.9934046333333315,4.662949833333333,14.480176666666665,0.0,378.33647333333323,329.82046666666685,2.0524169999999997,0.015042248592935166,22.98201566666667,0.2385592321949156,79.04491248876245
2018-06-05 21:30:00,16.188999999999997,-895.0,0.0023405604162369583,16.409154333333337,0.007280938220636494,18.611428999999998,-5.592413284970237,15.330999999999994,1.0756623499999998,0.0,13.924489333333335,0.0,0.006804398860562315,-32.28944063244048,NAN,74.52215900000002,0.004768743445168118,0.004399603148209598,29.078771333333343,0.4665660903465924,0.006494986080673737,3.2182100421964037,0.0,0.003837977588175498,0.010002767886785342,12.036264000000001,0.01068658442396213,14.611333333333341,16.47562966666666,13.757999999999997,12.822992000000001,0.008405831269465872,0.1229086334499568,0.0,10.360027333333337,0.011566890372040627,0.014003666546809505,0.6552924043088004,22.097149666666663,0.005363654151780028,0.06054024844956148,0.009719898253665621,0.0,0.0,12.025666666666668,38.93054399999999,46.62286633333335,21.815482666666664,-76.63621933407737,0.0,0.007861320029336078,11.061834000000001,17.489072000000004,0.004787610047618527,-90.90422091021827,0.2684037718367992,0.018577117024928057,32.25136833333334,0.0,0.12828205880256358,0.005034775792639135,NAN,0.0029368477032514244,24.90495433333333,0.008459136668752644,16.331826333333332,0.021806401915753178,0.004987262656633557,0.06157764365137206,0.004602761269411331,3.5327361333333327,16.233605666666666,0.002208452210776267,0.00025983582258650177,50.38160666666668,NAN,24.544576000000003,0.004601849047623174,15.40956866666667,0.0,0.12828205880256358,NAN,0.0,15.741688333333336,0.0,-1.0,14.34104466666667,16.465158,-9.954995952380957,0.0,33.350358666666665,0.0,0.002564406015344755,0.004995898857071964,16.044666666666668,6.995913599999999,3.2113701333333333,14.483112333333333,NAN,371.0786666666666,298.80502999999993,3.186306828076666,0.016144814357777648,22.23181833333333,0.2657276640821592,169.99565563432887
2018-06-05 22:00:00,16.061666666666667,-895.0,0.0024191791533177943,16.309878,0.004987075631274125,16.52230833333333,-5.51381257936508,15.332666666666661,1.2716176666666668,0.0,13.927941000000002,0.0,0.008321737455984994,-30.01928611607143,NAN,82.83351999999998,0.005019873150646761,0.004385513613720968,29.10657666666667,0.30621480467346995,0.005450088423159493,3.5250709687095356,0.0,0.004694123208488368,0.010649002788646325,12.039791666666671,0.013625799622094845,14.628333333333329,16.353563666666666,13.759666666666666,12.831285666666666,0.008094103707144555,0.14443483309233282,0.0,10.36674866666667,0.010447184005280335,0.012065399525545391,0.35201395514586253,22.09619,0.005516622159032925,0.0628988913324995,0.008156316461354177,0.0,0.0,12.030666666666667,38.93340933333334,46.621353333333325,21.832666000000003,-84.89238350198413,0.0,0.007567973725414224,11.069483,17.490687666666666,0.0035019451830730648,-94.78809231150794,0.17134144623805822,0.016250152391925725,32.25822633333333,0.0,0.1299206124840159,0.005360503057020417,NAN,0.003076704914522651,24.922049999999995,0.00870147574129319,16.25198266666667,0.02446844436205065,0.003901646565025962,0.06083456515641553,0.003941802508657312,3.5310524333333317,13.966189333333327,0.0018060023030726608,0.0003228534057971884,50.38195133333333,NAN,24.544806,0.003469041950251712,15.427643999999997,0.0,0.1299206124840159,NAN,0.0,15.726373999999996,0.0,-1.0,14.356565000000002,16.392671,-10.544479414682538,0.0,33.351840333333335,0.0,0.0026079056742048207,0.005080475090134857,15.989333333333343,6.998363666666666,0.981853531,14.483872999999999,NAN,362.2388666666667,282.37715000000003,3.5890947747031507,0.028314892148765165,21.303593000000003,0.20890870548158502,207.83893869668938
2018-06-05 22:30:00,15.899666666666665,-895.0,0.0009947198428741967,16.190629333333334,0.004758024269017163,15.515486999999998,-4.7586729608134934,15.326999999999991,0.9851404886666665,0.0,13.929102666666667,0.0,0.0078786159091982,-26.682990758928575,NAN,83.83288199999998,0.005198027155636306,0.004602741205525651,29.12152566666667,0.3987652180725273,0.005435325446557535,3.667344357943581,0.0,0.004443961314766984,0.010562690730640782,12.041375333333328,0.012726030802300064,14.63999999999999,16.206474999999998,13.77666666666666,12.837946333333337,0.007329457381594245,0.12995782885791549,0.11859850161210315,10.378299666666669,0.009027016059553932,0.012209895664930099,0.3336425767757921,22.08861633333333,0.006515443996226929,0.06644542597934631,0.008135079646962607,0.0,0.0,12.038999999999998,38.932683999999995,46.60940700000001,21.838010333333333,-83.3994265811012,0.0,0.006954751673647284,11.069004999999999,17.490278999999997,0.0024977745064234903,-91.03815438988094,0.22376435269741096,0.017581614279694357,32.26053466666668,0.0,0.12539219949663669,0.005317228340723768,NAN,0.0034920421263065714,24.934838666666664,0.010277896550902943,16.155099666666672,0.01562992378161367,0.003481318161697088,0.08278754253644842,0.004459775313680202,3.5286442666666664,13.710999666666664,0.0020764432560365677,0.00027942326912440977,50.37505199999999,NAN,24.540194666666665,0.004066533378537677,15.438853,0.0,0.12539219949663669,NAN,0.0,15.70585666666667,0.0,-1.0,14.371353000000001,16.308266,-8.806406208581352,0.0,33.351346,0.0,0.0025634417046335573,0.004994170310998101,15.934666666666674,7.0009225000000015,-1.7104001533333333,14.483618333333336,NAN,360.82291666666663,281.4712233333333,3.698675819306613,0.02333838419465381,20.23111433333333,0.2648379246278006,270.20189396657287
2018-06-05 23:00:00,15.726666666666668,-895.0,0.0005347369376359786,16.055398666666672,0.004313970697456034,15.537767666666664,-4.787432659474206,15.31933333333333,1.8113665333333333,0.0,13.932131666666667,0.0,0.008397510515929373,-28.588633541666677,NAN,83.99912033333334,0.0055396769614760935,0.004448553657052633,29.125477333333336,0.4230855553864947,0.005824452508857191,NAN,0.0,0.004737202546946451,0.010134358746875311,12.042747333333333,0.01167362074367349,14.64266666666666,16.052078666666667,13.78133333333333,12.83568966666667,0.0071453228799724655,0.17881734895203896,0.01572037090773808,10.377260666666668,0.010321988705438153,0.013031449610402635,0.5201092875824596,22.08841533333333,0.005777800607180276,0.08884622288580861,0.008716778395531052,0.0,0.0,12.039000000000003,38.935492999999994,46.60909,21.848139000000003,-80.37265750148808,0.0,0.006078937698047587,11.069094666666667,17.491861999999994,0.00411860211106265,-90.52220753968253,0.25502690789552174,0.016903624990928012,32.266550333333335,0.0,0.15013279432321996,0.005102150907778066,NAN,0.002754254433469973,24.93799933333333,0.009114681599518904,16.040906333333336,0.014041535749719825,0.0049508164242358125,0.08658325891154413,0.003943308503537239,3.5262781000000007,13.942278333333332,0.0019968366943069523,0.0002890576066709085,50.37673266666666,NAN,24.541318666666662,0.004477033505693658,15.441363666666664,0.0,0.15013279432321996,NAN,0.0,15.670081000000003,0.0,-1.0,14.380499999999993,16.203364000000004,-8.794296827628967,0.0,33.352975666666666,0.0,0.002793831468664523,0.00544239961795523,15.855333333333325,7.003029733333333,-3.4992542666666666,14.484455999999998,NAN,358.59403333333324,282.22824,NAN,0.014585707335588899,19.304194999999996,0.09858327219162838,200.39524426296796
2018-06-05 23:30:00,15.594333333333333,-895.0,0.0019411613545802211,15.927376000000002,0.004430062060621356,15.712330666666668,-4.659708097718254,15.31733333333333,1.2444268833333332,0.0,13.937750666666664,0.0,0.007756815551435795,-29.124602383432542,NAN,79.31488166666665,0.004912212191343801,0.004244570802915126,29.13855966666667,0.5940813198753403,0.005931771703692473,4.697227584525845,0.0,0.004376467396678349,0.008746675687772267,12.046451666666666,0.011055174894858,14.657666666666675,15.90213333333333,13.792666666666669,12.838085666666666,0.006642947736174684,0.1841304539259917,0.11362870176091272,10.379938999999998,0.01042731482486105,0.012443392826905654,0.7543191554433404,22.092185999999995,0.004990701680197298,0.09419650174584963,0.008876145624479416,0.0,0.0,12.038333333333336,38.943819,46.61503666666667,21.843510999999996,-74.98488460664683,0.0,0.006390846043389704,11.069356666666664,17.496560000000002,0.005618158991970232,-87.00679993303571,0.2992876145309018,0.016079453165291222,32.27771066666667,0.0,0.17525766559452982,0.004404328731514338,NAN,0.0029355880763346663,24.932026666666665,0.007871692213702963,15.926897,0.016485644740153325,0.004670931627955823,0.10094494889037876,0.006030649286926608,3.5244027000000018,14.143016333333332,0.0022261702516191344,0.00041395250098432183,50.38805266666665,NAN,24.548883999999997,0.005278197498356801,15.441010333333333,0.0,0.17525766559452982,NAN,0.0,15.62590533333333,0.0,-1.0,14.386093000000004,16.098187000000003,-8.274269371031746,0.0,33.356976333333336,0.0,0.0025487828267802275,0.004964491598413827,15.772333333333334,7.0032936,-4.442759333333333,14.486509666666668,NAN,358.8870799999999,287.5167566666667,4.562782683464906,0.011996305629690967,18.596796999999995,0.259697965690149,324.6776080716846
2018-06-06 00:00:00,15.48033333333333,-898.8,0.00240275109923588,15.815221333333337,0.00439070370154826,16.403466,-5.073338578125,15.29700000000001,1.0700834899999998,0.0,13.939185,0.0,0.007504075578502189,-29.497138809523808,NAN,73.44631899999999,0.004895878787696815,0.0042548710040079705,29.127893666666672,0.4537264335660457,0.005854056732151848,5.467614781811234,0.0,0.004233758396028333,0.007832201721892428,12.04739566666667,0.007691735333725535,14.674333333333333,15.782689999999997,13.795999999999998,12.844144666666667,0.005297678813590183,0.13370252844202266,1.081561664434524,10.380711666666667,0.00891675905555254,0.012174566891249825,0.7161309856168595,22.086967,0.005140042274158935,0.06898532211935249,0.008759277439710408,0.0,0.0,12.036999999999997,38.94279833333334,46.60681033333336,21.850110666666673,-50.504491345982125,0.0,0.005396543138400404,11.06694966666667,17.495984333333336,0.004785486722666601,-69.0038781919643,0.2753412787600286,0.01657641239922287,32.280564999999996,0.0,0.12986446493549791,0.003944418696645697,NAN,0.002582339997294979,24.942048333333332,0.00810987833703788,15.826572999999996,0.016953026950474466,0.004588144963872647,0.08659966680389214,0.003577865189929932,3.523273566666668,14.557071333333335,0.0020027371415615226,0.00018488975853822462,50.38433566666665,NAN,24.54640066666667,0.004317214649577778,15.444934333333334,0.0,0.12986446493549791,NAN,0.0,15.586247666666663,0.0,-1.0,14.40619166666667,16.003411666666665,-6.864949924107146,0.0,33.35593000000001,0.0,0.002983527282684625,0.005811985305768194,15.696666666666667,7.004545299999999,-5.387385333333335,14.485971666666668,NAN,362.22018999999995,313.50731,5.423780208893927,0.01027831417800613,18.081575333333333,0.2082936268435151,284.71280786712214
2018-06-06 00:30:00,15.375666666666666,-1009.0,0.0025401472916215637,15.714058,0.003995525852528136,16.393196999999997,-5.167389411954364,15.28433333333333,0.9773939500000001,0.0,13.940043,0.0,0.007318563124503229,-28.704522817460322,NAN,76.02087566666664,0.005010523073941196,0.0043497731956344335,29.132109666666672,0.5477085787254505,0.0055326396074893225,2.2325709301356933,0.0,0.004128969228478544,0.006186345328060545,12.048624000000006,0.005742567120909782,14.680000000000005,15.685592000000002,13.801000000000005,12.846253666666668,0.004917189530719948,0.14847326397529934,0.9029925090525792,10.381644333333332,0.009178691269549608,0.012139362486790147,0.47727912994485855,22.083468333333332,0.005244473642711796,0.05382100293874753,0.008279096231557153,0.0,0.0,12.039333333333333,38.94060766666667,46.60128633333333,21.842132666666664,-54.084863347966284,0.0,0.004814378960284857,11.064399666666667,17.494749999999996,0.004180087390695017,-71.01779106398811,0.19460613714601277,0.016590836857663514,32.282268,0.0,0.1167477469197909,0.003115756591252489,NAN,0.002842497899474545,24.95103266666666,0.008274861013442172,15.730955,0.01359127741979343,0.004746052672176743,0.09695232942954744,0.003743649507223036,3.522785900000001,14.307022666666667,0.0019785432290399165,0.000254083201260366,50.37976600000001,NAN,24.543343333333336,0.003922823927922499,15.440876666666671,0.0,0.1167477469197909,NAN,0.0,15.542371333333334,0.0,-1.0,14.420512000000002,15.912909333333333,-7.078836093253969,0.0,33.35413233333333,0.0,0.002784106472410475,0.005424168324278954,15.620000000000008,7.003906433333333,-5.9213903666666665,14.485048,NAN,363.14023,310.96681333333333,2.25975996567362,0.007079788999987092,17.828012333333337,0.4218136726908728,289.74871478706245
2018-06-06 01:00:00,15.293666666666663,-1009.0,0.002556804249542835,15.616246666666667,0.004071741063446044,16.329201,-5.028267348462303,15.257999999999997,0.9648011266666666,0.0,13.94203466666667,0.0,0.0070584785974470215,-27.2339214186508,NAN,77.67029266666667,0.004273056213813555,0.004346234510734921,29.133415666666664,0.5231091833632078,0.005879143841950524,2.85267671575937,0.0,0.003982225629687152,0.006289074462864385,12.048654666666668,0.003967204765275861,14.680333333333339,15.59485266666667,13.81333333333333,12.849864333333334,0.005849728698969645,0.11540915715114401,1.2599077509920638,10.382655666666667,0.009013429750903745,0.012752986522731316,0.5345226563713946,22.080364,0.005689837730456326,0.056728559607949154,0.008798715921153331,0.0,0.0,12.039666666666669,38.94086633333333,46.59638433333334,21.83650466666667,-52.06950315575396,0.0,0.004978552786169343,11.063043666666665,17.494895333333332,0.003596436069319199,-68.11798663938492,0.27393854896874603,0.017442793580620876,32.28622333333333,0.0,0.16039584278878802,0.0031675893690626326,NAN,0.0030055741098179395,24.960355000000003,0.008977696659457359,15.638892333333336,0.01306712196069962,0.0022615422441926384,0.07999611892934788,0.003833646308217034,3.5220996,14.249845000000002,0.001901926667804039,0.0002549505332769444,50.379172666666676,NAN,24.542946666666673,0.004238018802580948,15.431150999999996,0.0,0.16039584278878802,NAN,0.0,15.492080666666663,0.0,0.0,14.42819266666667,15.825418666666668,-6.686603837549604,0.0,33.35390733333333,0.0,0.002627084143955563,0.005118263812655766,15.538999999999993,7.003910800000001,-6.19786703333333,14.484932333333331,NAN,364.6013433333333,314.1901766666667,2.869665444863013,0.0053705985268390835,17.692722333333325,0.11190497929509949,249.22627274289732
2018-06-06 01:30:00,15.208620689655168,-1009.0,0.0025623324592005427,15.528576333333337,0.004254744409467926,16.609578333333335,-5.379768883184524,15.22551724137932,0.9279171633333332,0.0,13.943971,0.0,0.007216049306289383,-27.45927243055556,NAN,81.40860586206897,0.0043897259365081424,0.0038979197102339477,29.132880357142852,0.2936359928013524,0.006198243617541894,4.5420445685768165,0.0,0.004071186634829228,0.005556523338365402,12.048746666666668,0.005580979612894219,14.680344827586211,15.512331999999999,13.825517241379305,12.851893666666665,0.005366917734513228,0.15503541569490262,0.7106545207093254,10.381738214285715,0.00943199706482011,0.01287166784373272,0.5927959571129111,22.07642,0.00549315692471579,0.06054028147222285,0.00927731480210679,0.0,0.0,12.040000000000001,38.94176866666667,46.59015999999999,21.834505000000004,-68.17765153472222,0.0,0.004888594697577532,11.060702142857144,17.495404,0.00424897466956562,-80.88826011160714,0.36312507423026663,0.016538105409970204,32.290068,0.0,0.19610734215437323,0.0027986030989602473,NAN,0.003150992519345379,24.953470714285714,0.0086675449627323,15.551778666666666,0.01289293390432135,0.004775089889332273,0.12021736684727237,0.003842403151030355,3.5222458000000003,14.687305172413794,0.002034214143934367,0.00022784609542175906,50.37662733333333,NAN,24.54124666666667,0.004008169504384423,15.415640666666668,0.0,0.19610734215437323,NAN,0.0,15.443564000000002,0.0,0.0,14.434386666666663,15.741211333333332,-7.678010417906745,0.0,33.35368233333333,0.0,0.0029751345586120637,0.005796496228744292,15.473103448275857,7.004826571428571,-6.197964733333333,14.484818,NAN,365.86819,299.9887799999999,3.9057485416427884,0.005911916398554477,17.62570599999999,0.15245982851358805,79.31777388481383
2018-06-06 02:00:00,15.135999999999997,-1009.0,0.002256980142361196,15.45120833333333,0.004573200308779564,16.070767333333336,-6.263014752728174,15.204333333333329,1.35742076,0.0,13.945686333333326,0.0,0.007797182243302358,-28.848867256944445,NAN,83.87055833333332,0.005664365536350071,0.004188506749929251,29.141214666666666,0.26735526118438085,0.006798638320946873,5.986610660195509,0.0,0.0043991134941545485,0.004308640287700854,12.049482333333334,0.00507271832395783,14.680000000000005,15.439271666666665,13.836666666666666,12.853986,0.005868399526847199,0.1223631638962644,0.0043344396081349025,10.382134333333335,0.009898481921662984,0.012718801110221148,0.35199464026555477,22.074299333333332,0.0061020420440456805,0.055914180521183306,0.010176575311653982,0.0,0.0,12.044000000000004,38.943444666666664,46.58681666666665,21.831893666666666,-78.72114628645835,0.0,0.003811437368863196,11.063255333333332,17.49634866666667,0.003249506276344008,-90.77028797123018,0.42226714799454146,0.016443209749931242,32.29347533333333,0.0,0.18533253151703818,0.00216999743248044,NAN,0.0028852027719747635,24.958916000000006,0.009628917079917542,15.476147333333335,0.013971321476233534,0.0039895857928198926,0.13047684975482687,0.0034541613947213293,3.521885866666667,14.072537999999998,0.0019212627851959716,0.0002333373304959246,50.374508999999996,NAN,24.53983,0.004303043587195301,15.401644,0.0,0.18533253151703818,NAN,0.0,15.388313666666667,0.0,-1.0,14.441969333333331,15.665800666666666,-8.633357705853173,0.0,33.35626966666666,0.0,0.00290727251776231,0.005663226401948699,15.415666666666665,7.004142466666668,-5.865893766666667,14.486145999999998,NAN,361.1905666666667,284.83976333333334,NAN,0.004741916163561155,17.48691566666666,0.777829587885385,127.12466286404158
2018-06-06 02:30:00,15.040999999999993,-1009.0,0.002231761710993328,15.375397333333334,0.004058444844323492,16.276428333333328,-5.770183155293369,15.173000000000005,1.6544685933333334,0.0,13.947069999999998,0.0,0.008149775434995605,-20.09342901041667,NAN,89.01261766666667,0.0049996325556520855,0.0056367825677306384,29.137549,0.28016331309894743,0.005831146413340591,NAN,0.0,0.0045982119951817535,0.005685712482535017,12.049727999999993,0.005016223070953052,14.680000000000005,15.364946,13.843333333333339,12.85545366666667,0.0061393488879244815,0.14172556918169155,0.5068771959325397,10.384828,0.011791712749741659,0.014887486425710913,2.289817785528819,22.077603666666672,0.005637411692209398,0.024804872897951295,0.008730071579628813,0.0,0.0,12.047333333333338,38.948666666666675,46.59202766666667,21.838827,-64.12015904230441,0.0,0.0052904947985441585,11.061822666666666,17.499293,0.004302140670541694,-67.9574784623016,0.4567010079315317,0.019372594720129515,32.296224333333335,0.0,0.4067269499050372,0.0028636319011738865,NAN,0.0033663750139168638,24.95396066666667,0.008895125553762517,15.402537666666667,0.00935395336017444,0.001956992746389138,0.11699030162850707,0.0039004164870244176,3.521289733333332,14.720372666666668,0.00222256840339587,0.00039620164929973973,50.370182,NAN,24.53694000000001,0.004991609129092585,15.380554666666667,0.0,0.4067269499050372,NAN,0.0,15.339117666666661,0.0,-1.0,14.448811666666671,15.594202999999997,-7.570677506944446,0.0,33.35525700000001,0.0,0.0028287523133515183,0.0055106480251203484,15.354666666666667,7.004034766666666,-5.979803266666668,14.485626333333332,NAN,373.1161766666666,314.09848,NAN,0.005973628385266439,17.30799499999999,0.14687929176554562,41.17755969758113
2018-06-06 03:00:00,14.984000000000005,-1009.0,0.0021804499371791517,15.308548,0.004116012395882553,16.747817333333334,-6.653019375000002,15.151666666666658,1.5861224133333336,0.0,13.950809666666668,0.0,0.0062662063895842016,-15.45598021577381,NAN,93.57781666666665,0.005195855930834057,0.004756541018245166,29.10038266666667,0.08121150174577922,0.0061051488515472254,NAN,0.0,0.0035356869829671995,0.00837137849425729,12.049727999999998,0.007377766788112704,14.68066666666667,15.315180000000005,13.848666666666672,12.857548,0.005343745691545966,0.2005828890757788,2.199679582341269,10.381088666666665,0.0102817072863471,0.013017668399312394,1.4663334135563066,22.08440333333333,0.004355414617880813,0.009570114612397413,0.009139344676960358,0.0,0.0,12.052666666666672,38.95343433333334,46.602764,21.811404333333332,-55.340569575892836,0.0,0.004464883560934241,11.05073366666667,17.501986666666667,0.004145247844411795,-31.83125621279763,0.16234322264635478,0.020993208025244094,32.303639,0.0,0.42215881844495856,0.004217110941544258,NAN,0.0029981748664397634,24.928627,0.006872084057993495,15.334892,0.008217042797034616,0.0020283364176824892,0.14775452150182525,0.00369148607184091,3.521383333333333,14.719588333333329,0.0019918321377669942,0.0002333136945213268,50.371538666666666,NAN,24.53784666666667,0.00412720691419098,15.361013333333334,0.0,0.42215881844495856,NAN,0.0,15.290185333333335,0.0,-1.0,14.449564000000006,15.526748000000001,-5.746832006200396,0.0,33.35655100000001,0.0,0.0028506680537138717,0.005552925325053248,15.296999999999997,7.002830899999998,-4.948208366666668,14.48629133333333,NAN,381.43182333333334,361.2406666666667,NAN,0.018225160340058465,17.553437999999996,0.08704862738550773,323.7090188703271
2018-06-06 03:30:00,14.971333333333337,-1009.0,0.0025177666944541945,15.278569333333333,0.0039201124880863135,16.427581666666665,-6.009839328125002,15.12566666666667,1.1956819966666672,0.0,13.957345333333334,0.0,0.006045216326443825,-19.185603640873016,NAN,93.31014533333332,0.004648193388285952,0.004000185426722766,29.095219999999998,0.09143177747650992,0.0057644198005666804,1.1890476351395185,0.0,0.0034116901334463683,0.010726542174701982,12.04886933333333,0.005644501119519888,14.673000000000009,15.285726666666669,13.847333333333337,12.860429000000003,0.004429520157853889,0.16947182005589623,0.2782820282738095,10.384267333333337,0.008676372965157504,0.012923673150187068,0.7654261364588979,22.086475333333333,0.004569272242808122,0.014816227433641707,0.008629579861601231,0.0,0.0,12.050333333333338,38.958592999999986,46.60603300000001,21.807843333333327,-63.66281618551588,0.0,0.004555250928720627,11.051279000000001,17.50489766666667,0.0034915232779850736,-69.25203161458334,0.3167873874609055,0.01691492504541067,32.31660733333334,0.0,0.39411722276890027,0.005404573317536569,NAN,0.002862677273900526,24.917927000000002,0.007209381818581804,15.291358666666667,0.009687231739967815,0.004609931960607279,0.15483778578360194,0.004051471926667249,3.5224596333333342,14.293111000000003,0.001914904702908994,0.00027863533554503637,50.37306733333334,NAN,24.538866666666667,0.0037688422280719625,15.341518666666662,0.0,0.39411722276890027,NAN,0.0,15.244748000000005,0.0,-1.0,14.455518000000001,15.47879333333333,-7.939378846974207,0.0,33.35756366666667,0.0,0.0033806595854391297,0.006585144747699554,15.25066666666667,7.004444700000002,-3.3445378000000003,14.486811666666666,NAN,375.0667,313.3334233333334,1.440123,0.012758476300551179,17.89483599999999,0.022170720149306454,79.3952225749257
2018-06-06 04:00:00,14.969000000000001,-1009.0,0.0025678487742573355,15.255168333333337,0.004829795495844866,16.348619,-5.674170740041209,15.097333333333323,1.0561771733333336,0.0,13.957455000000003,0.0,0.0058035529250451915,-18.524904412202385,NAN,92.87500066666665,0.004709954827171395,0.004652553034008138,29.101138,0.07516206063861773,0.006299017952940106,2.1844419999999998,0.0,0.0032755181331809123,0.013148519351678385,12.048409,0.003271613844648642,14.67100000000001,15.263316,13.850000000000005,12.860289333333334,0.005275200940076275,0.11725095740514381,2.5260912030865925,10.386211,0.008405641430395216,0.01251834965279966,0.7957893746554473,22.083122666666668,0.00506709682942876,0.01444936190289349,0.009429409128251002,0.0,0.0,12.052333333333332,38.96071999999999,46.600741333333325,21.813416333333336,-42.77850460336539,0.0,0.005524144383097813,11.052055333333332,17.506096333333332,0.004059681452979236,-42.29927612847222,0.19737380090250586,0.018680162212545516,32.31682800000001,0.0,0.2555681111139939,0.006625061930170391,NAN,0.002823255260013725,24.92942133333333,0.007994980661736546,15.261673666666669,0.009232518586735194,0.00437256193792355,0.12360672512311681,0.002887635863589464,3.5227858333333346,14.207016666666666,0.002137696058888,0.00015778637346369195,50.37332033333334,NAN,24.539036666666675,0.004044240914505011,15.319259999999998,0.0,0.2555681111139939,NAN,0.0,15.202092999999998,0.0,-1.0,14.455907666666668,15.444767333333333,-5.419828221478174,0.0,33.359252000000005,0.0,0.003290750421284802,0.006409764221020159,15.21366666666667,7.004630299999999,-2.926307566666667,14.487678333333324,NAN,375.4462866666666,346.1318433333334,1.86608,0.0033890711027913813,18.003267333333334,0.19603509524540788,197.91296998037342
2018-06-06 04:30:00,14.951333333333327,-1009.0,0.002489508187464792,15.230149666666666,0.004620742144620124,16.745303,NAN,15.05633333333334,1.617503133333333,0.14722017794421438,13.961635,0.0,0.00670191013482372,-16.54209952380953,NAN,89.78782899999997,0.004397323341838097,0.0035739354255093256,29.08897166666667,0.1986115517393049,0.00652449136616908,NAN,0.0,0.003782894893078122,0.008762725332530865,12.04779566666667,0.006152009052622658,14.652999999999997,15.236943999999998,13.855666666666673,12.860921,0.006032583300751936,0.14085547431840018,3.422796151185485,10.386950333333335,0.008763763467404711,0.012964537937980088,0.35607638774383193,22.081448333333338,0.005664543100782075,0.01613476610310882,0.009766930394822447,0.0,0.0,12.06033333333333,38.963299666666664,46.59809600000002,21.806493999999997,NAN,1.3697169120000001,0.006088747595113831,11.047672666666667,17.507552999999998,0.003266720643694776,-27.253906374007936,0.15880354607530583,0.016309933143979227,32.325126999999995,1.3697169120000001,0.2300937702865305,0.004415780847308522,NAN,0.002791729009706213,24.923626666666674,0.008937629882769934,15.235187666666667,0.012066395618111805,0.0047084137305197235,0.1373342042264095,0.003738463627657868,3.523217333333334,14.720361,0.004988116071285402,0.00019703363288302837,50.372302,NAN,24.53835666666667,0.004214208959731857,15.295739999999997,0.0,0.2300937702865305,NAN,0.0,15.166385,0.0,-1.0,14.456193000000004,15.41391366666667,-4.502989698164684,0.0,33.360601333333335,0.0,0.003214305411922971,0.006260244105119325,15.188,7.018754133333333,-2.6835043666666665,14.488371666666668,0.0,380.0788800000001,366.8709366666666,NAN,0.008830123182658231,18.175923666666662,0.551687073160797,178.96063128153955
2018-06-06 05:00:00,14.944666666666661,-1009.0,0.0019032528469823623,15.209543666666667,0.004891255270834065,16.987084666666664,-2.099073473508185,15.036999999999999,1.1495814300000002,0.5096109173399896,13.964102666666667,0.0,0.008008140849957842,-17.348658702876985,NAN,87.63478600000002,0.004910421647200669,0.004649548742646258,29.088354333333335,0.2688984466960248,0.005847466414991733,4.861904771942828,0.0,0.004520459226005411,0.005746473262771218,12.046780666666667,0.0073415424615199815,14.64566666666666,15.217334666666666,13.859333333333334,12.862293333333334,0.007823388932364762,0.365678437511757,12.861010516055762,10.386755333333333,0.009313433354812835,0.011899756608019419,0.33935086855263263,22.083418333333327,0.0052510909452464375,0.01488410016423483,0.008753961494096747,0.0,0.0,12.052666666666669,38.967685999999986,46.601209000000004,21.79305966666666,-7.623148785829622,15.671654633333334,0.00717449296754578,11.046738666666668,17.510028666666667,0.003450135542565833,-31.459380761408735,0.12625589558962536,0.01738654857950383,32.330020000000005,15.671654633333334,0.16779924919148548,0.0028959635200636073,NAN,0.0026126562575891077,24.919349333333336,0.008285294552760922,15.208373333333334,0.011086760045715969,0.0049983468112242725,0.14182619698926968,0.004005964970368278,3.523397400000001,14.864483333333334,0.0026625810152136466,0.0002646900573824525,50.37306666666666,NAN,24.53886666666667,0.004671387665527275,15.271245666666665,0.0,0.16779924919148548,NAN,0.0,15.133352666666669,0.0,-1.0,14.455773333333335,15.38625233333333,4.964832865550595,0.09055088024306257,33.36273799999999,0.0,0.0028160899122178077,0.005484616253200574,15.151666666666658,7.015935199999999,-2.083856266666667,14.489466333333331,0.6967602133333333,380.42204,363.0231299999999,5.218308423731918,0.008302285312675073,18.455092666666676,0.4878301459551904,200.86830435494954
2018-06-06 05:30:00,14.94233333333333,-1009.0,0.0014471295041532854,15.187352666666667,0.004191067539637312,17.203993,1.0870576834126986,15.021333333333327,1.1670500886666666,0.8014575350257129,13.967121666666669,0.0,0.00863792211177402,-18.23874048363096,NAN,86.22026966666665,0.00504275619721782,0.004822227214082333,29.07331566666666,0.26892707023424955,0.005070245306364131,0.0,0.0,0.004876046321560807,0.005939858167303082,12.04622633333333,0.007252801840986971,14.637999999999993,15.198296666666664,13.869666666666669,12.859567333333334,0.00918064330697344,0.6411063529240191,33.39681113816811,10.38875033333333,0.009604901799710014,0.013071992083760177,0.7572894201371152,22.081989666666672,0.005339948053317488,0.012539933039088933,0.007588249249130801,0.0,0.0,12.059000000000001,38.97103766666667,46.59895233333335,21.78870566666667,-7.511402663571419,59.235097333333336,0.0088440774573281,11.048245,17.511920666666665,0.0037801825100907236,-44.154293385416665,0.153798748362126,0.01592840931031698,32.336014999999996,59.235097333333336,0.23754468854198915,0.0029941399702127208,NAN,0.0026511380031983374,24.910759999999996,0.008425480306330526,15.18196466666666,0.012930160810992278,0.005621602766183393,0.18883462559572972,0.004215497625276358,3.5244254333333345,15.009884,0.0018424015764993743,0.0002465221033796706,50.377139333333325,NAN,24.54158666666667,0.005231897324235595,15.246559666666666,0.0,0.23754468854198915,NAN,0.0,15.097334666666667,0.0,-1.0,14.449085,15.358038000000002,25.530241686507942,0.13038725975317023,33.36425533333333,0.0,0.003155809286817467,0.006146205772565911,15.127,7.002683633333334,-1.5720968333333332,14.490246333333335,2.7485169999999997,380.52718,348.5725933333333,0.0,0.009035419317968175,18.805276666666664,0.26813933543567064,184.06066176473698
2018-06-06 06:00:00,14.933,-1009.0,0.0006535659484952095,15.172816333333333,0.004490403474047096,17.386554,10.615527031249998,14.988333333333339,0.8156379833333333,2.4749682192317985,13.969361,0.0,0.008937268167491904,-15.724344055059525,NAN,87.49444433333332,0.005312008304180155,0.003919983566448821,29.067983000000005,0.3361165606747722,0.004796185270418978,0.508530553649809,0.0,0.005044888591190438,0.007654183320144948,12.045602333333333,0.008455720718637023,14.635999999999994,15.184111333333336,13.875,12.859204666666669,0.01074195265218262,1.310457678913255,71.77344755737867,10.387366666666663,0.010066220130921776,0.012332825169208772,0.6377027055255995,22.080628666666673,0.005863894149329777,0.014671837898585324,0.007177357652739361,0.0,0.0,12.075999999999997,38.97458633333333,46.596803333333334,21.786348666666672,12.950075939980167,142.96076133333332,0.010498527667655128,11.042084333333328,17.513924333333332,0.0048681176914493855,-48.46560780009921,0.15749794549235627,0.016953286036977787,32.340453999999994,142.96076133333332,0.16776744909132615,0.0038587359408867733,NAN,0.002960233298585136,24.911154333333332,0.00925226549031237,15.160647333333335,0.017257250158311293,0.004004028763041494,0.5034295316132553,0.004883131558925068,3.5252092000000017,15.214327333333332,0.0017012130707794763,0.0003369324843389038,50.37892166666666,NAN,24.542780666666665,0.003838984304158924,15.220113333333336,0.0,0.16776744909132615,NAN,0.0,15.066126999999996,0.0,-1.0,14.443542666666668,15.334874333333335,63.936486304563495,0.2097898318688131,33.365358666666665,0.0,0.0030230892861010487,0.005887758767975824,15.116000000000007,7.002879066666665,-1.0519687866666663,14.490813666666668,6.9564725,384.64273666666656,344.2718533333334,0.5020742100923185,0.010851051184044506,19.238751999999998,0.21369286809191385,254.9930833250018
2018-06-06 06:30:00,14.948333333333325,-1009.0,0.0005363144504349612,15.172952333333326,0.004089250683614516,17.705732000000005,16.607414367559524,14.967666666666664,1.02479072,1.723014172195105,13.970338666666665,0.0,0.010312194273366037,-15.445167264384919,NAN,86.67188466666668,0.0050087036481018055,0.0034362534619831486,29.058866333333324,0.4617238002250941,0.0054617797096875725,0.011417326739829833,0.0,0.005820329981674929,0.011807487073385381,12.043539666666666,0.010021665852894119,14.622333333333334,15.188691666666669,13.884333333333327,12.862254,0.009923164299085976,1.0214771204323203,107.69920870377175,10.386561333333331,0.01034263810956834,0.012509044566095555,0.5488285611554938,22.07193466666666,0.00548769781189894,0.011998566767239064,0.008174350703723137,0.0,0.0,12.074999999999996,38.96959733333333,46.58308499999999,21.779293666666664,22.38146128224207,219.02311999999998,0.009625614012581924,11.038555333333335,17.511106666666663,0.005159813631013365,-64.83823286954365,0.12468579827829274,0.015957832287484118,32.34239,219.02311999999998,0.1915829037515751,0.005952620955339373,NAN,0.0028433053031102083,24.883309999999998,0.00866075543497519,15.153650333333333,0.013061458277468152,0.001846141113851598,0.2599275496884754,0.00409275313185511,3.5266605333333345,15.450133000000001,0.0018770397905553194,0.00032089082356913384,50.370335999999995,NAN,24.537047333333337,0.004289017062641096,15.20139166666667,0.0,0.1915829037515751,NAN,0.0,15.040918666666665,0.0,-1.0,14.442725000000001,15.323333333333334,99.89185564980158,0.14366271120866492,33.36019533333332,0.0,0.0027391964844500627,0.005335328197976479,15.091666666666658,7.002232500000001,-0.09772157699999999,14.488162,10.29925566666667,386.76478000000014,325.8618,0.0011758035500689164,0.012687100687647874,19.927783999999996,0.20506338795866014,239.89337670128702
2018-06-06 07:00:00,14.974000000000002,-1009.0,0.0020090240999769706,15.183761333333338,0.0055289891068799795,18.088284333333334,26.722023950892858,14.95066666666666,0.8915793433333334,2.3544471764974664,13.969143333333331,0.0,0.011521661627679187,-13.507215119047624,NAN,85.35936333333333,0.0052973439203797025,0.0036540488164188774,29.05578633333334,0.61170363286276,0.005284363868377054,9.67028,0.0,0.00650253222023533,0.01248936615535488,12.040597666666667,0.010683830701795275,14.609666666666675,15.209559666666662,13.881666666666664,12.86549833333333,0.010261779263741937,1.4209266334325545,152.2232823799268,10.386855000000002,0.009733669399102847,0.011555097691227204,0.2499397686728243,22.065255,0.00547054122475869,0.020531836572704864,0.007910335346000014,0.0,0.0,12.078333333333335,38.96504033333333,46.572543666666675,21.772743999999996,65.35559024057541,310.69709333333327,0.009926114693653622,11.036182666666665,17.508534666666666,0.003624618203306287,-55.978235183531744,0.23789090522640652,0.016362928127380116,32.34002066666666,310.69709333333327,0.1754885439598168,0.006296089850265645,NAN,0.002845380807813752,24.87699266666666,0.008634435077540262,15.156503999999996,0.017120828376214987,0.003336214969664979,0.33258752960766547,0.0034206583341441065,3.5285842999999986,15.76572266666667,0.002041766436787362,0.00023694485543508854,50.361187999999984,NAN,24.530935000000003,0.0038740666201276274,15.185165666666661,0.0,0.1754885439598168,NAN,0.0,15.023918000000004,0.0,-1.0,14.441713666666669,15.323249333333333,144.44553752480158,0.16249841913989502,33.35648200000001,0.0,0.0029017249967315767,0.005652239317071306,15.089999999999991,6.999338100000002,0.9775656266666666,14.48625533333333,14.157491333333336,391.2940433333333,338.92611999999997,8.656564,0.013407772331867927,20.709547666666666,0.055771447197115714,239.5421648106721
2018-06-06 07:30:00,15.017333333333333,-1009.0,0.0019247580460680942,15.212595333333336,0.005289944071090888,19.878953,79.74120839781745,14.934,1.1447522633333336,47.06016849203166,13.971341999999998,0.0,0.01090623179419412,-11.026997868055556,NAN,78.44013666666667,0.004932299123607428,0.004819268315980748,29.034787666666663,1.0553562180753764,0.006048827206152801,3.5604444527439023,0.0,0.006155118396779361,0.012504101147518685,12.037991000000002,0.026888921856369773,14.609666666666675,15.246561999999999,13.884666666666662,12.870421666666665,0.009676535537364472,33.31038718563723,402.33423816917707,10.379449666666668,0.010379655947287075,0.01324770559914671,0.6676509530357958,22.065046666666667,0.006285457249786553,0.060770704817482826,0.009054205263645088,0.0,0.0,12.07833333333333,38.96117533333333,46.572214999999986,21.755716333333332,246.51956644841275,807.5188833333333,0.009214526828261878,11.02946666666667,17.50635366666667,0.004676490577767937,-66.43965589533731,0.8401614639705777,0.014971484497727248,32.34438166666667,807.5188833333333,0.28341213861989223,0.006303660355748564,NAN,0.002845919870976498,24.855082000000007,0.00992052622784031,15.171103666666662,0.03611813125500972,0.003993097650319936,7.497462974984447,0.004631799282815459,3.530752066666666,17.22480533333334,0.002262283347807883,0.0003369032612409958,50.367735,NAN,24.535307333333332,0.004531843520713828,15.171160000000002,0.0,0.28341213861989223,NAN,0.0,15.011470999999998,0.0,-1.0,14.441590999999997,15.332028666666666,394.58610151289685,2.4696400486913843,33.35485800000001,0.0,0.0022571193114477744,0.004397174711408576,15.090333333333323,6.993575733333334,2.4960450666666665,14.485421333333337,39.29434400000001,404.49575666666664,336.17042999999995,4.189633841481198,0.022446347471499307,22.04984933333333,0.06469123804844254,359.6023212787891
2018-06-06 08:00:00,15.128333333333329,-1009.0,0.0013568683487499183,15.266048666666666,0.0047372011281238855,20.690318,80.95471010168653,14.920666666666673,0.9816130786666667,61.968826925058195,13.966159,0.0,0.010761005342917036,-13.058340710565478,NAN,76.83549366666668,0.004936458491794092,0.004378614795031079,29.002542666666674,1.2348680400138792,0.005876644978380523,0.1590249540004021,0.0,0.00607139916954088,0.013089278113502861,12.032590666666668,0.024825611017152093,14.594666666666662,15.325903,13.88866666666666,12.87095,0.010782142152436327,33.01702436881752,418.7487695288636,10.36846666666667,0.009196820884471062,0.012806042509245557,0.6842694923160287,22.062511666666673,0.0049325551143913245,0.06550670053893431,0.008795577933052356,0.0,0.0,12.08,38.94537366666666,46.568215666666674,21.735991999999996,246.3429209697421,856.0082966666669,0.00924591569481275,11.018422333333332,17.49743833333333,0.004566903379635942,-80.96649248263891,0.9024641230462248,0.017439833762309776,32.33409666666667,856.0082966666669,0.28304773543490447,0.0065976307813999215,NAN,0.00301943867294107,24.836999333333335,0.007786018058801471,15.207429333333334,0.021969589044225243,0.0029422133456964363,7.570426404368569,0.004092581038058741,3.536426533333332,17.552916666666672,0.0018539521524844611,0.00022505323282018413,50.36508066666668,NAN,24.533534999999997,0.004247801095925751,15.153662333333333,0.0,0.28304773543490447,NAN,0.0,14.998421666666667,0.0,-1.0,14.439410666666667,15.357393666666667,411.0302410714286,3.1799284905584444,33.34560233333333,0.0,0.0026088520035522102,0.005083110045639817,15.090333333333325,6.982534266666667,5.289722733333332,14.480670666666667,40.836818,406.6242366666667,322.8916266666667,0.43877034915504104,0.02676070014647904,24.788838,0.10899903288185431,336.4053989948453
2018-06-06 08:30:00,15.26266666666667,-1009.0,0.0023032705989202915,15.35176666666667,0.005147975624186836,21.965069000000003,105.31125725198415,14.908000000000005,1.2283819433333332,24.165661696895334,13.960454333333331,0.0,0.010276075099522119,-13.727479734623019,NAN,73.85538700000001,0.005220700848741683,0.004497193940946827,28.986715666666672,1.288984250501668,0.006553550042039648,NAN,0.0,0.005796369838519037,0.011685464073903662,12.033542333333333,0.030395305787211727,14.574333333333334,15.431246666666663,13.888666666666659,12.871476000000001,0.008654312404394621,15.24192302586938,536.3991487060109,10.359489333333334,0.008840269708685029,0.012330776402771198,0.7385789400701634,22.057548333333333,0.005358789843147428,0.1022164010534243,0.009809942176321015,0.0,0.0,12.08,38.927386000000006,46.56037700000001,21.715116000000005,330.0321411954365,1092.8914499999998,0.008736089359946759,11.009578666666666,17.487291000000003,0.004731361440438627,-89.4490965922619,0.73387299561652,0.01506666770351394,32.322778666666665,1092.8914499999998,0.3448393721844926,0.005889007003578863,NAN,0.00271620102496739,24.825882666666665,0.008459843005993683,15.267703333333339,0.029719488799105367,0.004672721264826647,3.4081965472927025,0.0037640079536159277,3.5424160333333337,18.176649333333334,0.001935842678608873,0.0003431082926663189,50.36317333333332,NAN,24.53225866666667,0.00579300889673679,15.13862333333333,0.0,0.3448393721844926,NAN,0.0,14.993367000000001,0.0,-1.0,14.434225666666668,15.407461666666666,528.7102284474207,1.1486816066725927,33.331324333333335,0.0,0.0029618841836812483,0.005772870287181097,15.120666666666668,6.972719833333334,7.487714066666666,14.473344333333328,51.931409000000016,413.1853633333333,319.81853333333333,NAN,0.019631494677208695,27.376784999999995,0.07500716152975902,344.556784515067
2018-06-06 09:00:00,15.377000000000004,-1009.0,0.0014843374125473212,15.442413333333333,0.005234520742004886,21.052473666666664,72.11396989335319,14.907000000000002,1.1042827633333336,53.29898859704574,13.952645000000002,0.0,0.008762233442259291,-12.619559074900792,NAN,78.523803,0.004767963693580437,0.004573681214516671,28.986393333333336,1.3183281874264676,0.005493998981081816,0.0,0.0,0.004940049515712098,0.009868205283796774,12.052497333333337,0.016967232435073004,14.569999999999995,15.536174999999997,13.889999999999992,12.866579000000002,0.009636020929006436,30.146612801501107,373.6429917472452,10.356244666666665,0.009493355833341825,0.01342632360576344,0.6138066518959227,22.044562999999997,0.0053145755883567515,0.057184933733421275,0.008225380293849126,0.0,0.0,12.08,38.902069000000004,46.53987700000001,21.70829933333333,234.04904646081349,778.5439633333333,0.008836817434305009,11.003999666666667,17.473012666666666,0.0044546067310548025,-61.1348108060516,0.8095935059875722,0.01661737290001146,32.30728066666668,778.5439633333333,0.3163253103487159,0.004971956847270361,NAN,0.0028010988118594283,24.82417733333333,0.008392501199334256,15.338013666666665,0.018112869388391642,0.009273915125578108,6.59294822358853,0.004200065141801266,3.544358666666667,17.505961,0.0016684805842678032,0.00021450366058847032,50.34759299999999,NAN,24.521852999999997,0.004581726270758862,15.117019000000003,0.0,0.3163253103487159,NAN,0.0,14.988402666666666,0.0,-1.0,14.419328666666667,15.463560999999999,365.98367968749994,2.404274067943915,33.31241766666666,0.0,0.003647965319306997,0.007111223351559196,15.165000000000003,6.963266433333334,9.372683666666667,14.463643999999997,35.49934199999999,409.25169666666665,349.4310333333333,2.274646e-05,0.01682786623918701,26.978566333333337,0.2877701398709601,96.93875727946326
2018-06-06 09:30:00,15.485666666666663,-1009.0,0.0016888423236976467,15.535290666666665,0.005653931187570349,20.792578,68.27209728422619,14.901333333333337,1.4438688933333332,36.60127850162434,13.94838833333334,0.0,0.012411106347722365,-11.385638794642858,NAN,81.87495366666667,0.004363944376271078,0.004578644461870382,28.98198733333334,0.9118061736895261,0.0064284550087093245,NAN,0.0,0.006995592880432883,0.00707532745255811,12.03143333333333,0.011015694759995696,14.567999999999996,15.641032333333332,13.890333333333327,12.868229666666672,0.008349543866190284,20.031523746391578,361.71984530435265,10.351227333333332,0.008780218650550736,0.01384327688439192,0.4810948241295473,22.040146333333336,0.005684477246011738,0.055175637615304335,0.009623947086864473,0.0,0.0,12.080999999999998,38.885328,46.53290433333334,21.701493666666668,224.09271082589288,753.7617900000002,0.008130326974893227,11.00181066666667,17.46357666666666,0.004287548191842342,-61.445620845734126,0.6089008548070797,0.018041931666579896,32.29883666666666,753.7617900000002,0.35072645935814617,0.003564329288481378,NAN,0.0024561275316350344,24.820015333333334,0.00897649071169489,15.417688333333334,0.016955915139025116,0.004710434618770225,4.304932915638028,0.00430078684679103,3.5438074333333334,17.19174466666667,0.0018727590321016346,0.00022878750398060642,50.346906666666676,NAN,24.521395666666663,0.004257903712589103,15.104815666666667,0.0,0.35072645935814617,NAN,0.0,15.003754666666659,0.0,-1.0,14.414562666666665,15.533637,354.0901414434524,1.6360839415241135,33.296705333333335,0.0,0.004187014197973567,0.008164539050541505,15.218666666666673,6.9555359333333335,10.786386333333333,14.455585666666666,33.99544299999999,409.27539333333334,347.55006,NAN,0.014424326541111513,27.507984000000004,0.1902700863301209,114.50430710847651
2018-06-06 10:00:00,15.579000000000004,-1009.0,0.0013125222203306502,15.620837333333332,0.00500626557767221,20.334393999999996,70.31342857638889,14.899333333333333,1.4968617866666667,30.51083938050305,13.946730666666669,0.0,0.01076070739255626,-8.883411599702379,NAN,82.08378733333332,0.004893142381863744,0.0046211394001083135,28.976532666666674,0.9281625347236199,0.006021479800378974,0.3960019,0.0,0.006064493644127445,0.006405014483151748,12.027623999999994,0.007670423061376515,14.561666666666667,15.738080333333338,13.889666666666658,12.871979666666666,0.008250755918772872,15.59935595440721,372.14737053804714,10.348322,0.008344609890693688,0.013909624833886407,0.39111776234886386,22.034152999999993,0.006099427866022331,0.04574840332408637,0.009014170190916767,0.0,0.0,12.080333333333332,38.87413966666667,46.52343899999999,21.69800366666666,225.85451296626985,786.4611,0.007774284219300735,10.995243666666664,17.457270666666666,0.0021445673895196284,-64.33986470238095,0.5028034753540772,0.017911855088397967,32.29554366666667,786.4611,0.3322343919644395,0.003226113846342789,NAN,0.002739633835467032,24.810986333333332,0.009635040819994917,15.496080333333335,0.024488771697179116,0.005014824486568441,3.1047584862274835,0.0039753727078549505,3.5441787000000002,17.182844333333332,0.0018527982739481674,0.0001067587151667207,50.35020866666667,NAN,24.523599666666662,0.004927751277897265,15.099471666666659,0.0,0.3322343919644395,NAN,0.0,15.027261999999997,0.0,-1.0,14.412491333333332,15.605120000000001,364.54727487599206,1.2632801783617629,33.28240066666667,0.0,0.004490386924406132,0.008758879094243043,15.277000000000006,6.950518066666666,11.401796666666673,14.448250999999999,34.764667,409.7280633333333,341.34873,0.3915721,0.006626225007633049,27.90961533333333,0.12880520055393851,110.26741618635852
2018-06-06 10:30:00,15.662000000000004,-1009.0,0.002023573818558699,15.700259999999998,0.004521260577587734,22.98598766666667,178.15442281746036,14.908666666666676,1.6754008566666665,70.80459639744936,13.937448000000002,0.0,0.009432125294654817,-0.8979178696924605,NAN,73.826754,0.004771554168315068,0.004289041548452735,28.923586999999994,1.8957405830793785,0.006347111731796365,NAN,0.0,0.005313321061182956,0.00839144549914031,12.033945333333332,0.015634121541078135,14.553000000000004,15.835392333333333,13.889999999999992,12.875647666666671,0.007961241670076285,38.69127416336486,916.6349128848373,10.329834,0.009008960851323179,0.013135493219594377,0.8651619429588138,22.029929999999997,0.006696297551377842,0.0929559931449833,0.009501763282541003,0.0,0.0,12.081666666666665,38.852101333333316,46.51676700000001,21.67364866666667,613.8601526041668,1939.3352,0.008210920154702634,10.982038666666666,17.44485466666667,0.0048089303259240684,-95.82673633432537,1.3924533881134542,0.015159757707197977,32.277109,1939.3352,0.5048445365801618,0.004225192893101841,NAN,0.002698803613045202,24.772860333333334,0.010578986495000386,15.565559,0.04457480432723783,0.002931579428217009,8.40242281720475,0.0040487448638380965,3.545311266666668,18.923406,0.001962224284100223,0.00033441203788162494,50.34902366666666,NAN,24.522808000000005,0.004406151042604074,15.09976066666667,0.0,0.5048445365801618,NAN,0.0,15.054562666666666,0.0,-1.0,14.408549000000004,15.671167333333335,909.0644254216271,2.8488745561179587,33.26047433333333,0.0,0.0034335760242401553,0.006699907540416298,15.322999999999997,6.932816900000001,13.206036,14.437011666666669,80.355746,435.0102466666666,317.96039666666667,NAN,0.05286455556221711,28.50956,0.19344349199989053,115.10043128709083
2018-06-06 11:00:00,15.882333333333332,-1009.0,0.002009307335488344,15.842316333333335,0.0047218419002306965,24.377662,171.72904042658732,14.915000000000008,1.7813804333333332,25.084025550368718,13.91426666666667,0.0,0.010250977137267723,-4.683578746279761,NAN,70.68053633333332,0.0046079673936760485,0.004734726446155607,28.866304999999997,2.2335895054974197,0.005931852874563278,NAN,0.0,0.005771151231051655,0.007953100147058155,12.056347666666671,0.009458896238266035,14.544000000000008,16.05272166666667,13.88866666666666,12.876775000000004,0.007972991570101874,9.862100224883145,922.4356773794444,10.302728333333338,0.009613738239049072,0.01259604156539955,0.58463951734072,22.016678666666664,0.005688202731811323,0.07446230693616467,0.00888051259259726,0.0,0.0,12.086999999999998,38.81435766666666,46.49582966666666,21.631031333333333,608.030977688492,1971.0330666666664,0.008961668465193397,10.959411333333332,17.42359766666667,0.004384691078735666,-114.27948745039683,1.0422510027718068,0.016400354950802897,32.23105266666666,1971.0330666666664,0.4079229003162183,0.004001167543741372,NAN,0.0026748280134990237,24.726832333333327,0.00898844251070645,15.669473666666669,0.021933791586226298,0.004499126474994648,2.061735833600877,0.004782346601237792,3.546590033333334,19.291122000000005,0.0020981498380053276,0.0003993504686258992,50.34673733333334,NAN,24.521280666666662,0.004947640315465804,15.099996666666666,0.0,0.4079229003162183,NAN,0.0,15.083577999999997,0.0,-1.0,14.405376666666665,15.759516666666665,914.8947981150792,1.0438785271289839,33.218894,0.0,0.0035757500166012485,0.006982234762866869,15.390666666666668,6.905932566666667,20.80071433333332,14.415709999999994,79.01118766666667,438.57084666666674,303.4360666666666,NAN,0.08095564024196665,28.27079433333334,0.1731940243597762,23.082750851660638
2018-06-06 11:30:00,16.144666666666666,-1009.0,0.0024921728066893086,16.03524766666667,0.0051254127979693505,24.544670333333336,172.62449489087302,14.937666666666663,1.8915676133333332,151.61066156447612,13.889583,0.0,0.00903164033378703,-3.4688931894097226,NAN,70.01278266666667,0.005119082229077546,0.005776309986542601,28.828648333333337,2.1792418405545098,0.0062370803650380795,NAN,0.0,0.005080563443400581,0.007146182089402654,12.058586666666672,0.008517616412494166,14.547000000000004,16.340012333333338,13.889999999999992,12.875649000000001,0.009249042112911277,72.597463386903,937.0715920476632,10.286350666666667,0.010632193901727894,0.013207528604948077,1.1032920849909256,21.999464333333336,0.005751852875746104,0.09845928064110225,0.009338458436730963,0.0,0.0,12.087666666666669,38.76542733333333,46.46862366666666,21.618199,624.6693860912699,2000.5593666666666,0.009079843341749261,10.945838000000002,17.396059,0.0053579291953413846,-110.73856351686504,1.2966032459280938,0.018279361206619188,32.181972333333334,2000.5593666666666,0.49901539135697465,0.003592283834890055,NAN,0.0028491409735186034,24.715398333333336,0.00909123084329244,15.821029999999999,0.024189780506479144,0.005432039863334804,15.043651635029356,0.004917001163955503,3.5455850000000018,19.570717,0.002200720295381757,0.00029909445506891524,50.338868000000005,NAN,24.516024333333334,0.005180833115018365,15.103437999999999,0.0,0.49901539135697465,NAN,0.0,15.120558333333332,0.0,-1.0,14.395983666666673,15.891883,929.5603209821427,5.84465031348517,33.17175966666666,0.0,0.003769434626650306,0.00736683710444064,15.487333333333334,6.8829408,27.980512,14.391584,79.22415333333332,441.06794999999994,308.80151000000006,NAN,0.05448019811046836,27.87002933333334,0.1686610650821837,49.64565012627275
2018-06-06 12:00:00,16.394333333333336,-1009.0,0.0023099242468230642,16.233360666666663,0.004886032363237187,25.18315966666666,188.40558896329367,14.957333333333334,1.9871103566666661,16.436437845190543,13.86294833333333,0.0,0.0109196423045523,-2.313959683998016,NAN,69.78775300000001,0.005288557181127293,0.0047483828680502235,28.7912,2.294459795853203,0.005985337259594817,0.1917295,0.0,0.0061381961412631456,0.006757128643768431,12.05720666666667,0.007144590779247145,14.543000000000008,16.634782666666663,13.889999999999992,12.879708666666666,0.011308755563431437,10.521936420411144,1017.5925837496119,10.260121333333334,0.010519855511575029,0.013263353357357538,0.798175639875138,21.981777000000005,0.005764728309182267,0.09016424166610727,0.008962346104660714,0.0,0.0,12.093,38.71943366666667,46.440666,21.578126333333334,688.0723485863094,2170.4851666666664,0.00903060815903192,10.934310333333334,17.37019533333333,0.0036015338456152216,-110.69190870535714,1.0583134099743938,0.018320717283103454,32.128960666666664,2170.4851666666664,0.5350397189248888,0.0033936498705896185,NAN,0.0031998332243861867,24.679133333333336,0.009116032506048928,15.987848333333334,0.01797500186480571,0.004057084067509303,2.1746529654641806,0.005032544965504471,3.545029933333334,19.990133333333333,0.0024209723975037833,0.00028758054744718856,50.33548333333333,NAN,24.51376366666666,0.004813994318322043,15.10798833333334,0.0,0.5350397189248888,NAN,0.0,15.172451,0.0,-1.0,14.390391999999997,16.042888666666666,1010.1109208829365,0.7018225568696371,33.12031666666666,0.0,0.0033492380537555803,0.006551266787843704,15.602000000000004,6.854105333333333,32.541646,14.365272666666662,86.59539366666668,446.32378,312.69079666666664,0.2527587,0.039079728073504426,27.825987666666652,0.21694826759930766,234.57002757493592
2018-06-06 12:30:00,16.681,-1009.0,0.001754203961275028,16.445254000000002,0.005176279948847142,25.660770000000003,195.3214699558703,14.982333333333337,1.66492295,132.49243432839967,13.835679333333335,0.0,0.009953381514997042,-2.3417893352926593,NAN,66.86709233333333,0.004660917421097882,0.004963081162699136,28.76556,2.1599161979553085,0.005622021828432704,NAN,0.0,0.005590637530730993,0.006548045776529233,12.056409333333333,0.009551124660459102,14.543000000000005,16.94745566666667,13.889999999999992,12.884112999999997,0.006815674379830214,61.667167137132466,1030.5674147480327,10.233849000000001,0.008985245531508161,0.01250353099714673,1.2100060912778112,21.96474566666667,0.005632377919681778,0.09199266010520735,0.008420301564692952,0.0,0.0,12.093000000000002,38.670300999999995,46.41372533333333,21.559455333333336,709.2538138957307,2192.1745,0.007860053327415174,10.921389333333332,17.342586,0.004273766093643673,-98.13742279265874,1.5721856453872722,0.016489418127705067,32.074633666666664,2192.1745,0.4639290396541221,0.003285013803038561,NAN,0.0027044463776239617,24.658481999999996,0.008911025703656388,16.169676000000003,0.023555018847919485,0.0040844569494153235,13.08392828876598,0.004854474289927032,3.544759933333334,20.489694999999998,0.002133890962955687,0.00016434131552270923,50.329222,NAN,24.509583000000003,0.004862451060553909,15.118102333333331,0.0,0.4639290396541221,NAN,0.0,15.238788999999999,0.0,-1.0,14.389237000000003,16.20811133333334,1023.1148666102218,5.0731454505612925,33.06452033333333,0.0,0.0032934093202640026,0.006448903246086764,15.738333333333332,6.824793599999999,35.856071666666665,14.336763999999999,90.212673,449.1768666666667,331.05821333333336,NAN,0.023322782361475555,28.044105666666663,0.19630437439292261,48.99417188064823
2018-06-06 13:00:00,16.94066666666666,-1009.0,0.0010760530481261446,16.66510166666667,0.004795142629368814,26.294479,181.31324979707796,15.018666666666665,1.5770568699999998,209.7868751784591,13.812516666666665,0.0,0.011209352619133016,-4.333251440550596,NAN,66.14230466666669,0.004986894988346967,0.005339644926546427,28.741910333333337,2.4740483422625825,0.0052521678273330765,2.591482,0.0,0.006290346502630471,0.008047281331642559,12.055243999999998,0.012416354524828803,14.549000000000007,17.219891666666665,13.889999999999992,12.885241666666667,0.008844139287301968,121.06785661206044,943.0169918425825,10.212822333333333,0.010333317309632344,0.013304385429353438,1.8119220558575966,21.949393666666666,0.0064148238302407816,0.11300079783958941,0.007866390564040898,0.0,0.0,12.094666666666667,38.618610999999994,46.389433666666655,21.554883000000004,653.7586467464827,2133.1648333333333,0.008756212287331663,10.909461666666667,17.313563999999996,0.004819159396296478,-85.3955047296627,2.4983226058978056,0.020747256972764794,32.028447666666665,2133.1648333333333,0.4936085053311855,0.004033785255369668,NAN,0.0029561429083235866,24.647482999999998,0.010150734512795183,16.36145766666667,0.02752409802321302,0.0022325545861726203,23.84153495559119,0.004907771341642191,3.546672500000002,21.185133,0.0021817282698898066,0.00035338462306869456,50.32837533333334,NAN,24.509016999999997,0.004586658680597726,15.140018666666673,0.0,0.4936085053311855,NAN,0.0,15.318811,0.0,-1.0,14.389181999999996,16.387476333333332,935.5954874526516,8.249323532242842,33.010745333333325,0.0,0.0035085509198780392,0.0068762849100187425,15.883666666666668,6.795693566666667,36.85057199999999,14.309313333333334,90.68628766666667,450.56597,350.6139833333334,2.667665,0.009690804058017793,28.834516333333337,0.10872684364268809,38.597259303045526
2018-06-06 13:30:00,17.180000000000003,-1009.0,0.0023524045645731987,16.885061,0.005098868621118314,26.37127733333333,175.72510694444446,15.060666666666664,1.8218267999999997,49.03681062840078,13.787146333333332,0.0,0.009609108257602672,-6.4973106257936495,NAN,65.193265,0.0044622969381567495,0.0053858437329875495,28.745155,2.1670754216308072,0.005168740183021064,NAN,0.0,0.005387916403747,0.008392825101955355,12.053011000000001,0.010675209241391946,14.551333333333334,17.446937000000002,13.88866666666666,12.889676999999999,0.007570572686033606,25.437444568686264,911.8284564993069,10.188439333333331,0.00946316797466715,0.013952599065556676,0.9067726904540221,21.93120233333333,0.005528946865425735,0.10560311564207149,0.007740624955536423,0.0,0.0,12.098000000000003,38.56382733333333,46.360639333333324,21.538943000000007,614.858557951389,1933.3555,0.00920380261202517,10.899483666666669,17.28283433333333,0.004049205302292149,-98.83260057043653,1.7030512612264592,0.017630514814582807,31.977811333333328,1933.3555,0.5222029026360258,0.004203112853499301,NAN,0.0029070322935142805,24.641477333333334,0.008753213135465253,16.55835366666667,0.02777458320144828,0.0050495685300171594,5.577064170012761,0.004955685985308879,3.548202566666667,21.29902166666667,0.0021124042820374034,0.000226923125793362,50.328281333333344,NAN,24.508954999999997,0.006335558747368392,15.165546333333333,0.0,0.5222029026360258,NAN,0.0,15.407896666666666,0.0,-1.0,14.391147000000002,16.570813666666666,904.4356182291667,2.039435516498276,32.951831999999996,0.0,0.0029053594649804068,0.0057003199427625995,16.04266666666667,6.766792466666666,37.569849000000005,14.27927,84.55916633333337,448.36700333333334,334.51505000000003,NAN,0.016393979342047834,29.580295666666647,0.17503252709440284,73.84233645401339
2018-06-06 14:00:00,17.42066666666667,-1009.0,0.0012351970915237482,17.092886,0.004973086796460307,25.224322333333337,131.83811145833334,15.117999999999997,1.6928170333333332,105.09786907672967,13.766117333333332,0.0,0.010020702473068846,-10.536522522817462,NAN,72.61996566666666,0.00532691790058775,0.0051612475085837575,28.790559999999992,1.4683952895462926,0.004935114818152779,NAN,0.0,0.005613987710473153,0.007422676129855535,12.05322466666667,0.009118847085645934,14.565666666666663,17.658623999999996,13.88666666666666,12.886784333333333,0.009141884421404284,55.66779661774955,683.3792376853825,10.177499666666668,0.010258711280321828,0.012846223523485162,1.143676055023883,21.914597333333333,0.005527941414173408,0.07208193088354792,0.007391760751613833,0.0,0.0,12.10066666666667,38.51025666666668,46.334348,21.56202733333333,464.4262961557539,1456.1185,0.008786636578686807,10.900844666666664,17.25280666666667,0.0030943495151776967,-75.21601906001985,1.5613824069033542,0.01760372098705091,31.93580766666667,1456.1185,0.42565202589168505,0.0037147127668375472,NAN,0.002919954327542071,24.659727666666665,0.008754883627376713,16.74983133333333,0.022734921628440482,0.003917445824767373,12.05672936981179,0.004426864595659028,3.5485888666666665,20.562461666666668,0.0019109477792492399,0.00019596178111162222,50.31318333333333,NAN,24.498875333333334,0.005334817690113014,15.188594333333336,0.0,0.42565202589168505,NAN,0.0,15.49916866666667,0.0,-1.0,14.386255333333336,16.750250666666666,676.0160076140874,4.375968366331742,32.899037666666665,0.0,0.002534127270206951,0.004976926804122912,16.215999999999998,6.745316399999997,36.91984533333333,14.252374333333334,64.65819400000001,436.4379800000001,356.68638000000004,NAN,0.02547339005519387,29.561342666666654,0.14308588481052342,97.3717267907595
2018-06-06 14:30:00,17.541999999999998,-1009.0,0.001641332999042616,17.245762666666668,0.005165559118377867,24.391918666666665,125.38856902281745,15.176666666666666,1.6119361066666664,107.37954123011541,13.754681333333332,0.0,0.009341553668345383,-9.004448692460318,NAN,77.16676999999999,0.004681860021856686,0.005818917533360423,28.838393333333336,1.4950341187020946,0.005702925019787307,NAN,0.0,0.005230280422143017,0.007445990997654291,12.055437000000001,0.010213811642363164,14.571999999999994,17.781093666666663,13.889333333333324,12.887962666666672,0.008380630899901861,52.08916799724821,637.0787429041962,10.175739,0.008863368089641147,0.013007733572965974,1.0559806353461323,21.906125,0.0054012558818700715,0.10101597411706262,0.008542469870026962,0.0,0.0,12.103000000000005,38.47487766666667,46.32092833333334,21.58085433333333,426.0555086755952,1319.31536,0.009249396411530025,10.902444333333333,17.232991333333334,0.004726543079585415,-72.50752882936509,1.5543800480383936,0.017401694550331352,31.912950000000006,1319.31536,0.4967151423641868,0.0037249380598176405,NAN,0.002694497776903085,24.697999333333335,0.008555764457058374,16.90891733333333,0.023908825405512972,0.00490558713165921,11.80529683486437,0.004468800698926994,3.5482063000000013,20.03934433333334,0.00187720782533517,0.0002241273942361821,50.31538966666666,NAN,24.500346999999998,0.005876425467587518,15.222331333333333,0.0,0.4967151423641868,NAN,0.0,15.597703,0.0,-1.0,14.387862666666669,16.90807366666667,629.7451210317461,3.8667774603961025,32.86634566666667,0.0,0.002662256540851922,0.005231408432107831,16.355999999999998,6.729537033333334,33.594450333333334,14.235732333333335,62.22248100000001,433.32887333333326,355.02782999999994,NAN,0.033794159966588015,29.071799666666667,0.11983652017917848,291.0547906574297
2018-06-06 15:00:00,17.609666666666673,-1009.0,0.002322683355716052,17.355220000000006,0.00468522492252913,23.41603533333333,84.69113115823411,15.238333333333332,1.5617152333333333,94.32638311291625,13.745327999999997,0.0,0.009057947855550605,-11.591752901537697,NAN,79.18263166666667,0.005049678428861617,0.004472752888700244,28.863282,1.1161374976332932,0.006613681353576725,NAN,0.0,0.005068403255845908,0.00572339180028922,12.05785533333333,0.01209302438155857,14.580333333333328,17.84729266666667,13.888666666666659,12.898914666666663,0.009244420718178452,54.388697696875695,431.39479856943854,10.169689,0.009300512723602595,0.013482543435708969,0.8999435810859467,21.895274666666662,0.005159583013047494,0.05640358464015158,0.00990625242501598,0.0,0.0,12.109666666666675,38.43734733333334,46.30373799999999,21.58936599999999,275.5417104042659,898.1125233333332,0.008813315070278145,10.904971999999999,17.21198466666667,0.00481453315892251,-63.38129999503969,1.2772998418017714,0.015922797251831298,31.89424999999999,898.1125233333332,0.37410079248443057,0.002862102321584363,NAN,0.002613362157681134,24.715638000000002,0.008174832695497168,17.03100333333333,0.022978082103585096,0.004389236677339008,12.578786296585843,0.004615914853920379,3.547163766666668,19.484205999999997,0.002008506623126624,0.00030537559654384463,50.315151333333326,NAN,24.500189666666667,0.006576215994263648,15.26335433333333,0.0,0.37410079248443057,NAN,0.0,15.701044,0.0,-1.0,14.39094833333333,17.036139333333338,424.09078489583345,4.274593917974367,32.83731266666667,0.0,0.002527586654163308,0.004969572470469434,16.473333333333333,6.7151046999999995,30.160362666666668,14.220959666666667,43.07971466666665,424.3399933333333,360.48204999999996,NAN,0.03933239122778769,28.497548666666663,0.14505196396996028,56.80147003749372
2018-06-06 15:30:00,17.59366666666666,-1009.0,0.0015124355668747348,17.405029333333335,0.004758632685279498,22.744144,84.64395783978175,15.295999999999998,1.51988001,67.8499254575497,13.735854333333334,0.0,0.008458510443939759,-8.754888196626984,NAN,78.94038066666668,0.0051074654529765446,0.005602471383822024,28.893294,1.1076219512075896,0.006350150581178526,NAN,0.0,0.00473087644058024,0.005791419160567557,12.052108,0.016799980057413857,14.608333333333343,17.842218666666668,13.892999999999994,12.898431333333333,0.008855601460531807,45.94206597141701,425.4193782426174,10.168110666666665,0.009770528148754754,0.014773338400623495,0.9833818817829433,21.886458,0.0059844691630974054,0.06768345501598018,0.009514265659071259,0.0,0.0,12.103666666666673,38.406393,46.28975966666666,21.595759666666666,267.6055782614087,891.6119899999998,0.009771438651189793,10.904128000000002,17.194664999999997,0.004086963847317342,-62.19687036458333,1.125164603886856,0.01583774038023474,31.875302,891.6119899999998,0.3644922727774111,0.0028952245200843637,NAN,0.003167538341996231,24.746334,0.009484267562248962,17.106150666666665,0.019346132058341306,0.004069928562986088,10.713933438898236,0.0036039403980161035,3.5448275000000007,19.444293666666663,0.0018237458218917032,0.00024480559609633723,50.292824333333336,NAN,24.485285333333326,0.005126794771231865,15.306284999999999,0.0,0.3644922727774111,NAN,0.0,15.791545333333334,0.0,-1.0,14.391968,17.120553333333337,418.1449727678571,3.2268298027783135,32.813588666666654,0.0,0.0024194909700317067,0.004757818402441148,16.560333333333325,6.7067002333333345,26.083530999999997,14.208896000000001,42.752518333333335,423.87341000000004,357.9779733333333,NAN,0.03590456552279376,27.69894133333333,0.07181431875515948,82.0943244422053
2018-06-06 16:00:00,17.552000000000007,-1009.0,0.0017784873538709426,17.419758666666667,0.004804144342070524,23.825981666666664,164.15253747519847,15.354333333333336,2.2653470933333333,95.64619284714719,13.726178999999997,0.0,0.009186322637474474,2.3205040007440485,NAN,73.73393299999998,0.004558560165945598,0.004104401265728555,28.899332666666666,1.3872226202026703,0.006286263433802937,NAN,0.0,0.005135092687056865,0.005242985547447774,12.035691666666667,0.014747677274567793,14.613666666666672,17.811747000000008,13.890999999999991,12.902164,0.010987396815909144,46.05461336601189,763.922286338415,10.158511666666666,0.009431643347044674,0.013070795941865667,1.1559087369424874,21.879742,0.005641272219079712,0.06588166011196303,0.009421676145265255,0.0,0.0,12.107000000000005,38.377877000000005,46.27911566666666,21.583193333333334,492.7447082539683,1561.894326666666,0.010153438947923055,10.902851,17.178723666666667,0.005317888585169343,-78.60246820436508,1.4766063751724245,0.016414398190801788,31.855942666666667,1561.894326666666,0.42373265123847453,0.002619785361052657,NAN,0.0029561362063846843,24.735077000000008,0.008941475796960491,17.145320999999992,0.03601166030658355,0.004720468098774944,11.15593464758025,0.003512320259323553,3.544887500000001,20.537799333333336,0.0017615992837884133,0.00022875623414632152,50.27320566666665,NAN,24.472192333333336,0.006681489140321337,15.353660333333332,0.0,0.42373265123847453,NAN,0.0,15.874445333333332,0.0,-1.0,14.398025333333333,17.171901666666667,756.6774890625,4.872854556441577,32.79083333333334,0.0,0.002942885174929392,0.005790901169206275,16.62333333333333,6.690655733333334,23.91969733333333,14.197329999999996,77.924016,443.9414866666668,344.1612433333333,NAN,0.02206523484109324,28.640734000000005,0.22287420234192307,284.6637712279682
2018-06-06 16:30:00,17.587666666666664,-1009.0,0.001730038712202389,17.455733,0.004845849868319556,24.776463666666675,148.7823723214286,15.414666666666667,3.017781933333333,112.06597141105811,13.709643666666667,0.0,0.008304696942205259,-4.295592537996032,NAN,69.776516,0.004645768725093154,0.004896622582724215,28.874616,1.2822532711860903,0.006604659981505523,NAN,0.0,0.004639300321667446,0.006105035130626244,12.055141999999998,0.011791324694989532,14.634666666666657,17.843150333333334,13.88966666666666,12.905439999999993,0.011023379203606288,53.855389796597755,690.078543169332,10.137766000000001,0.00885244636018387,0.013620912836969817,0.9363683293378243,21.861211,0.005462179276746531,0.051003707391331636,0.009898880374234122,0.0,0.0,12.109000000000009,38.33677166666668,46.24974533333333,21.557798333333338,412.9014651041667,1395.6441599999996,0.011436458148047952,10.891367,17.155751000000002,0.005203494163507024,-102.57363790674601,1.2365014741357891,0.0149583795666966,31.822843999999993,1395.6441599999996,0.5619922280506081,0.003048772771178353,NAN,0.0027869031436634404,24.72840466666667,0.008660640515409431,17.182192333333337,0.02404205256873676,0.004781454056976745,13.184607580587283,0.0043488132773607255,3.5465001000000007,20.929122666666665,0.00190566258491011,0.0002801595166544404,50.273459999999986,NAN,24.472361666666675,0.005393168432096828,15.402824333333333,0.0,0.5619922280506081,NAN,0.0,15.944841,0.0,-1.0,14.407213,17.214973666666666,682.8633540922619,6.206213035033286,32.75279300000001,0.0,0.0030248921232392902,0.0059562953164411184,16.669,6.666812500000001,26.326995333333336,14.178004666666668,75.24760900000003,441.44112000000007,320.2616033333334,NAN,0.029554961661554642,28.73856,0.3376966994804535,247.98359472744448
2018-06-06 17:00:00,17.619666666666667,-1009.0,0.0017545066403716458,17.497338333333325,0.004862828551842772,23.458047000000004,64.09665926339285,15.46466666666667,2.3329842666666663,87.6610757376288,13.694999333333332,0.0,0.007640507813831317,-13.609530731894846,NAN,73.38923233333334,0.004695848411156857,0.004670082139149843,28.899971666666662,0.9883653215614315,0.005732566879765129,NAN,0.0,0.004265466382330378,0.005586799777696616,12.059899666666666,0.01608415953478401,14.664333333333335,17.867935666666668,13.889999999999992,12.908206666666665,0.011278389370237533,47.862075523601916,318.49735577901873,10.131949666666667,0.009534986904747913,0.011521880976391688,1.007059308305723,21.84585466666666,0.005909934417451903,0.04778201806639454,0.008593150322700006,0.0,0.0,12.109000000000007,38.299826666666675,46.225390666666655,21.568659666666672,167.37678230406746,657.4742600000001,0.011230955669642011,10.889894666666667,17.135116666666665,0.004182652562208708,-78.3593673859127,0.9991794385644172,0.016573950409893422,31.793514666666663,657.4742600000001,0.3674511419110601,0.00278861214664344,NAN,0.0027663641609535355,24.74881633333334,0.009374172372577129,17.228854000000002,0.021113758858914065,0.004399174956283054,12.088673911520559,0.0031480280263434758,3.5445537000000007,20.298849666666666,0.0020402749865808647,0.00022030873298483275,50.26061466666666,NAN,24.46378966666666,0.004464535183205511,15.446452333333339,0.0,0.3674511419110601,NAN,0.0,16.00215833333333,0.0,-1.0,14.41247433333333,17.262322999999995,311.3117749007937,5.248459630033,32.71905566666667,0.0,0.0027194681572996213,0.005357356284466818,16.71566666666667,6.6538203000000005,26.063155,14.160875000000003,35.037992333333335,422.10123333333337,342.2628999999999,NAN,0.02890406482085318,27.715834666666673,0.03377316419208492,56.713416131346825
2018-06-06 17:30:00,17.582333333333327,-1009.0,0.0018485268954765576,17.50423666666666,0.004666102748283207,23.33775266666667,64.31520183035715,15.516666666666655,1.4766675566666667,89.06365892171046,13.687795000000001,0.0,0.007744595421985265,-13.773234482415676,NAN,74.22103066666666,0.004840883504808353,0.004846621769855318,28.93346566666666,0.8218756667996747,0.0059912583933640715,0.0,0.0,0.004322039082345176,0.005663448464343575,12.038544666666667,0.010920182468425455,14.678333333333336,17.826214333333333,13.889999999999992,12.908037999999998,0.010288475542179206,49.34845763101341,286.51519507521357,10.12760566666667,0.008859934822466772,0.013240171439120487,0.8832301272364839,21.836042666666668,0.005428218307836578,0.05287901048627081,0.008981465778134903,0.0,0.0,12.110000000000008,38.269178333333336,46.209826666666665,21.57097066666666,172.2757105654762,552.3392366666667,0.009670862494780733,10.893749333333336,17.118008666666665,0.004884195491695317,-48.45883585069445,1.288630049527019,0.017293931918274028,31.779078000000002,552.3392366666667,0.40052757740336725,0.0028261769705652485,NAN,0.002787330106871311,24.751615666666666,0.008612973262064054,17.254426,0.024975931719104002,0.004103947306750709,13.423018210632256,0.003564518349395521,3.5433123999999996,20.362627333333332,0.0017262179792164973,0.0003674178684929821,50.251998666666665,NAN,24.458042333333335,0.005801361122087072,15.490226,0.0,0.40052757740336725,NAN,0.0,16.05655866666667,0.0,-1.0,14.422129333333327,17.29601533333333,279.35922239583334,5.810968884764927,32.69518899999999,0.0,0.0031647735610932475,0.006238867007985061,16.752999999999993,6.646661933333332,22.778490333333334,14.148761333333331,31.452502133333326,421.18678000000017,378.41847,0.0,0.028551712388681642,27.479530666666665,0.11166213354486228,80.62127730283177
2018-06-06 18:00:00,17.535,-1009.0,0.001455366563204519,17.494592000000004,0.0027836652192312207,22.20298933333334,35.21109047371032,15.555000000000001,1.5436189666666669,9.445754658278169,13.684599666666667,0.0,0.008002055280272147,-16.169041887400798,NAN,76.66041433333334,0.004986156969459923,0.0036773704651244573,28.960776000000003,0.694138638990234,0.006171364043982727,0.0,0.0,0.004463992330802272,0.006437328634426499,12.02848266666666,0.009232118453806075,14.707666666666663,17.772530000000003,13.891999999999992,12.911652333333334,0.009901852360480464,6.2824649113196145,179.11376356287647,10.129288666666667,0.008816094045976117,0.013038484746391094,0.6803028800030961,21.820810999999992,0.006061254204871317,0.023137534480140727,0.009251380131992538,0.0,0.0,12.110000000000008,38.25361,46.185655666666676,21.578232333333332,92.37907194196433,360.7274933333334,0.010004225386066467,10.893760333333336,17.109321666666673,0.004237307302850546,-52.175734499007945,0.33460609123160306,0.018291615696697953,31.772673333333337,360.7274933333334,0.323196700189923,0.003211717902927611,NAN,0.0026348824110085565,24.779232666666662,0.009620705269080978,17.262083666666665,0.015490167197660488,0.004179748725737889,1.839248252338398,0.003927597657782167,3.5439274000000003,19.345805333333328,0.0015221253140920365,0.00017674100452658026,50.25360333333332,NAN,24.459112666666673,0.004152817283308923,15.53546033333333,0.0,0.323196700189923,NAN,0.0,16.105787333333332,0.0,-1.0,14.433739000000001,17.315621999999998,171.98739908234128,0.6715857180124788,32.684998,0.0,0.0023983518955337435,0.004729015894711883,16.772333333333332,6.643282466666666,19.702302,14.14359333333333,18.798393666666662,411.5600533333333,367.1628166666666,0.0,0.038195771932286085,27.87345733333335,0.34851013424033983,31.38013909475916
