TIMESTAMP,TS_0.05,SWC_0.05,VPD,target
[units],[units],[units],[units],[units]
2020-07-01 00:15:00,20.7688886666667,29.1580286666667,367.577,
2020-07-01 00:45:00,20.4911113333333,29.146371,339.451,
2020-07-01 01:15:00,20.2261106666667,29.1169223333333,259.633,
2020-07-01 01:45:00,19.952778,29.091672,275.017,
2020-07-01 02:15:00,19.676667,29.0723726666667,225.99,
2020-07-01 02:45:00,19.3727783333333,29.061021,216.543,
2020-07-01 03:15:00,19.1355553333333,29.059199,212.423,
2020-07-01 03:45:00,18.8944443333333,29.054723,174.281,
2020-07-01 04:15:00,18.687222,29.0471726666667,168.828,
2020-07-01 04:45:00,18.4416663333333,29.0348953333333,158.62,
2020-07-01 05:15:00,18.3016666666667,29.023609,164.582,
2020-07-01 05:45:00,18.2,29.015724,159.227,
2020-07-01 06:15:00,18.198333,29.0278413333333,180.376,
2020-07-01 06:45:00,18.2266666666667,29.0348123333333,296.432,
2020-07-01 07:15:00,18.3244446666667,29.0350616666667,444.753,1.3523299999999998
2020-07-01 07:45:00,18.4422223333333,29.015558,586.976,1.323
2020-07-01 08:15:00,18.8394446666667,28.994968,673.685,0.919549
2020-07-01 08:45:00,19.6138883333333,28.994136,755.257,0.841932
2020-07-01 09:15:00,20.4761113333333,28.9940536666667,827.69,0.573021
2020-07-01 09:45:00,21.2833333333333,29.00211,928.295,0.6610389999999999
2020-07-01 10:15:00,22.431111,29.014728,1109.58,1.33766
2020-07-01 10:45:00,23.733334,29.025601,1277.17,0.758261
2020-07-01 11:15:00,24.9900003333333,29.0371356666667,1342.19,0.811172
2020-07-01 11:45:00,26.0161113333333,29.0401216666667,1490.36,0.723908
2020-07-01 12:15:00,27.126667,29.0416963333333,1645.75,0.5108940000000001
2020-07-01 12:45:00,28.168889,29.0426923333333,1683.41,0.682893
2020-07-01 13:15:00,29.064445,29.040451,1752.74,0.43724399999999997
2020-07-01 13:45:00,29.807778,29.0323226666667,1866.65,0.911113
2020-07-01 14:15:00,30.283889,29.017882,1735.31,0.705447
2020-07-01 14:45:00,30.1244443333333,28.9701996666667,1523.93,0.727694
2020-07-01 15:15:00,29.5294443333333,28.8968796666667,1538.25,0.8335830000000001
2020-07-01 15:45:00,28.9394443333333,28.820644,1509.16,0.614301
2020-07-01 16:15:00,29.0205556666667,28.782712,1551.78,0.582767
2020-07-01 16:45:00,29.17,28.7427223333333,1557.6,0.565971
2020-07-01 17:15:00,29.2300003333334,28.7072086666667,1555.09,0.576381
2020-07-01 17:45:00,29.0205556666667,28.6566363333333,1546.85,0.463046
2020-07-01 18:15:00,28.6211106666667,28.5937996666667,1633.6,0.813053
2020-07-01 18:45:00,28.1038886666667,28.541031,1674.71,1.1267099999999999
2020-07-01 19:15:00,27.4516666666667,28.4827846666667,1457.78,1.37542
2020-07-01 19:45:00,26.7738893333333,28.4211316666667,1396.2,1.1729500000000002
2020-07-01 20:15:00,26.0672216666667,28.361742,1071.11,
2020-07-01 20:45:00,25.4033336666667,28.3139463333333,975.75,0.6109629999999999
2020-07-01 21:15:00,24.8049993333333,28.276191,926.834,0.901509
2020-07-01 21:45:00,24.2977773333333,28.2473133333333,830.808,0.902065
2020-07-01 22:15:00,23.6305556666667,28.2305363333333,546.631,1.2461900000000001
2020-07-01 22:45:00,23.0022226666667,28.2729646666667,330.213,0.52498
2020-07-01 23:15:00,22.612222,28.2632833333333,273.963,0.518263
2020-07-01 23:45:00,22.3599996666667,28.266595,223.035,
2020-07-02 00:15:00,22.1133333333333,28.274664,199.381,0.657977
2020-07-02 00:45:00,21.8377776666667,28.2817963333333,187.14,0.7761699999999999
2020-07-02 01:15:00,21.5399996666667,28.2869763333333,178.026,
2020-07-02 01:45:00,21.213889,28.2938466666667,183.5,
2020-07-02 02:15:00,20.895555,28.3018216666667,151.02,1.16183
2020-07-02 02:45:00,20.607222,28.3101326666667,170.241,
2020-07-02 03:15:00,20.3827776666667,28.3295483333333,146.478,
2020-07-02 03:45:00,20.171111,28.346583,134.778,
2020-07-02 04:15:00,19.9922226666667,28.3603893333333,150.715,
2020-07-02 04:45:00,19.888333,28.370466,145.487,
2020-07-02 05:15:00,19.8083333333333,28.3794403333333,128.986,
2020-07-02 05:45:00,19.820556,28.386462,95.4508,
2020-07-02 06:15:00,19.9,28.3898446666667,45.5048,0.90275
2020-07-02 06:45:00,19.9227783333333,28.3912833333333,18.9864,0.863245
2020-07-02 07:15:00,20.0538886666667,28.392722,94.9395,0.91924
2020-07-02 07:45:00,20.3311113333333,28.3931453333333,190.371,1.0367600000000001
2020-07-02 08:15:00,20.5877776666667,28.398563,242.043,0.918201
2020-07-02 08:45:00,21.0305556666667,28.4111633333333,333.399,0.892632
2020-07-02 09:15:00,21.5572223333333,28.432042,425.889,1.01017
2020-07-02 09:45:00,22.2711113333333,28.4659906666667,562.956,0.58798
2020-07-02 10:15:00,23.2833333333333,28.4962856666667,746.026,0.859075
2020-07-02 10:45:00,24.1711113333333,28.5123053333333,862.275,0.670969
2020-07-02 11:15:00,24.4494446666667,28.5069113333333,762.719,0.6247940000000001
2020-07-02 11:45:00,24.8905556666667,28.525198,906.198,0.723197
2020-07-02 12:15:00,25.5800003333333,28.558297,1050.26,0.6512650000000001
2020-07-02 12:45:00,26.1250006666667,28.5606556666667,1131.52,0.616642
2020-07-02 13:15:00,26.2844443333333,28.5461763333333,1162.96,0.674616
2020-07-02 13:45:00,26.5188883333333,28.536404,1212.47,0.580679
2020-07-02 14:15:00,26.8111116666667,28.531518,1287.16,0.6623650000000001
2020-07-02 14:45:00,26.792778,28.4988973333333,1265.95,0.9164340000000001
2020-07-02 15:15:00,26.355,28.4540856666667,1313.76,0.754597
2020-07-02 15:45:00,25.8427776666667,28.3973726666667,1364.04,0.514218
2020-07-02 16:15:00,25.528334,28.3524253333333,1371.82,0.580984
2020-07-02 16:45:00,25.1355556666667,28.3033446666667,1326.68,0.737006
2020-07-02 17:15:00,24.5899993333333,28.260651,1287.72,0.787155
2020-07-02 17:45:00,24.141111,28.2271666666667,1226.94,0.853086
2020-07-02 18:15:00,23.806111,28.1917786666667,1187.26,0.735727
2020-07-02 18:45:00,23.4038893333333,28.159334,1095.19,0.527175
2020-07-02 19:15:00,23.0644446666667,28.1405,975.589,0.66164
2020-07-02 19:45:00,22.7516666666667,28.1115043333333,893.61,
2020-07-02 20:15:00,22.4400003333333,28.0822276666667,904.553,
2020-07-02 20:45:00,22.1794443333333,28.0661723333333,703.055,
2020-07-02 21:15:00,21.942778,28.0533533333333,633.516,
2020-07-02 21:45:00,21.708889,28.0470286666667,563.672,
2020-07-02 22:15:00,21.5416666666667,28.0405303333333,507.433,
2020-07-02 22:45:00,21.3444443333333,28.0387343333333,528.272,
2020-07-02 23:15:00,21.1966666666667,28.033858,642.785,2.27102
2020-07-02 23:45:00,20.9700006666667,28.0275286666667,792.576,0.695467
2020-07-03 00:15:00,20.702222,28.017008,796.848,0.68545
2020-07-03 00:45:00,20.4316673333333,27.9932143333333,793.225,0.876941
2020-07-03 01:15:00,20.2122223333333,27.9723143333333,780.581,0.8306159999999999
2020-07-03 01:45:00,20.0344443333333,27.9540623333333,640.467,0.744986
2020-07-03 02:15:00,19.8683333333333,27.9425746666667,553.018,1.28813
2020-07-03 02:45:00,19.7338883333333,27.9343426666667,516.805,0.806732
2020-07-03 03:15:00,19.66,27.932713,644.83,0.7202829999999999
2020-07-03 03:45:00,19.505555,27.932541,710.159,0.745763
2020-07-03 04:15:00,19.3333333333333,27.9249053333333,603.439,
2020-07-03 04:45:00,19.2033336666667,27.9213036666667,419.18,
2020-07-03 05:15:00,19.1422223333333,27.9206153333333,600.714,0.656221
2020-07-03 05:45:00,19.0344443333333,27.9152966666667,497.679,
2020-07-03 06:15:00,19.0,27.904737,455.284,
2020-07-03 06:45:00,19.017778,27.8974393333333,473.398,0.6714340000000001
2020-07-03 07:15:00,19.1355553333333,27.901732,484.923,0.5167900000000001
2020-07-03 07:45:00,19.2566666666667,27.903621,477.429,0.5282359999999999
2020-07-03 08:15:00,19.4205556666667,27.9065393333333,494.837,0.38576499999999997
2020-07-03 08:45:00,19.6266666666667,27.9092023333333,540.779,
2020-07-03 09:15:00,19.945556,27.9164983333333,602.128,0.687221
2020-07-03 09:45:00,20.5199996666667,27.9219886666667,699.279,
2020-07-03 10:15:00,21.1816666666667,27.9277376666667,816.812,0.922439
2020-07-03 10:45:00,22.121111,27.9401716666667,979.1,0.43449899999999997
2020-07-03 11:15:00,23.5516666666667,27.97951,1060.93,0.632987
2020-07-03 11:45:00,24.1449996666667,27.9747986666667,1031.38,0.481505
2020-07-03 12:15:00,23.7905556666667,27.9384566666667,952.977,0.720329
2020-07-03 12:45:00,23.283889,27.911517,875.581,0.5790339999999999
2020-07-03 13:15:00,22.839444,27.8791453333333,823.254,0.526604
2020-07-03 13:45:00,22.561667,27.8541366666667,865.842,0.637312
2020-07-03 14:15:00,22.6572226666667,27.840983,1034.28,0.633229
2020-07-03 14:45:00,23.095,27.84193,1046.52,0.550921
2020-07-03 15:15:00,23.4827776666667,27.8427033333333,1054.9,0.729735
2020-07-03 15:45:00,23.7750003333333,27.8346143333333,1029.93,0.560871
2020-07-03 16:15:00,23.7988886666667,27.8202476666667,975.119,0.535786
2020-07-03 16:45:00,23.7938883333333,27.8096606666667,948.119,0.737241
2020-07-03 17:15:00,23.713333,27.795969,951.68,0.7127060000000001
2020-07-03 17:45:00,23.506667,27.7683103333333,945.97,0.771792
2020-07-03 18:15:00,23.2833333333333,27.7334716666667,947.026,0.862995
2020-07-03 18:45:00,23.0627786666667,27.704123,952.847,0.6807920000000001
2020-07-03 19:15:00,22.8238886666667,27.6862426666667,867.434,0.400828
2020-07-03 19:45:00,22.465,27.6526133333333,797.42,
2020-07-03 20:15:00,22.0427776666667,27.6098643333333,693.612,
2020-07-03 20:45:00,21.5577773333333,27.579803,461.305,
2020-07-03 21:15:00,21.006666,27.5419003333333,407.776,
2020-07-03 21:45:00,20.455,27.4969313333333,339.714,
2020-07-03 22:15:00,19.9488886666667,27.470945,314.657,
2020-07-03 22:45:00,19.4800006666667,27.461814,289.075,
2020-07-03 23:15:00,19.0705556666667,27.4431063333333,247.047,
2020-07-03 23:45:00,18.7066666666667,27.400008,192.224,
2020-07-04 00:15:00,18.3566663333333,27.3715066666667,191.105,
2020-07-04 00:45:00,18.061667,27.3577283333333,166.155,
2020-07-04 01:15:00,17.778889,27.352928,155.985,
2020-07-04 01:45:00,17.5277776666667,27.3473436666667,145.064,
2020-07-04 02:15:00,17.36,27.3432433333333,139.72,
2020-07-04 02:45:00,17.2711113333333,27.3371313333333,124.621,
2020-07-04 03:15:00,17.2,27.3309326666667,129.546,
2020-07-04 03:45:00,17.2,27.325607,118.832,
2020-07-04 04:15:00,17.172778,27.3170473333333,125.526,
2020-07-04 04:45:00,17.1005556666667,27.3139026666667,116.746,0.605603
2020-07-04 05:15:00,17.1,27.3094473333333,135.952,
2020-07-04 05:45:00,17.1016666666667,27.3028086666667,119.097,
2020-07-04 06:15:00,17.196111,27.2936356666667,122.493,
2020-07-04 06:45:00,17.2727783333333,27.3034196666667,140.361,
2020-07-04 07:15:00,17.401667,27.3106723333333,287.208,0.459096
2020-07-04 07:45:00,17.5005556666667,27.3153016666667,447.656,
2020-07-04 08:15:00,17.688889,27.311632,598.979,0.6978340000000001
2020-07-04 08:45:00,18.112222,27.3145143333333,747.552,0.607311
2020-07-04 09:15:00,18.7105556666667,27.328051,910.422,
2020-07-04 09:45:00,19.2094443333333,27.3386156666667,1032.84,0.465976
2020-07-04 10:15:00,19.941111,27.34586,1207.14,0.546537
2020-07-04 10:45:00,20.8772223333333,27.3593853333333,1161.09,0.760509
2020-07-04 11:15:00,22.1794443333333,27.394866,1074.94,
2020-07-04 11:45:00,22.8416663333333,27.4096796666667,1078.87,0.6645279999999999
2020-07-04 12:15:00,23.7255556666667,27.4348393333333,1229.31,0.600507
2020-07-04 12:45:00,24.4194443333333,27.441629,1121.38,0.529554
2020-07-04 13:15:00,24.8783336666667,27.443282,1210.04,0.324208
2020-07-04 13:45:00,25.6305553333333,27.447546,1324.17,0.530305
2020-07-04 14:15:00,26.679444,27.480506,1376.0,0.677655
2020-07-04 14:45:00,27.3944446666667,27.490154,1463.46,0.625359
2020-07-04 15:15:00,27.1344443333333,27.4442343333333,1499.31,0.635628
2020-07-04 15:45:00,26.541667,27.3919036666667,1530.8,0.473554
2020-07-04 16:15:00,26.7966666666667,27.375781,1542.05,
2020-07-04 16:45:00,27.1772226666667,27.3721186666667,1539.69,0.48631800000000003
2020-07-04 17:15:00,27.2922223333333,27.3504833333333,1511.21,0.692158
2020-07-04 17:45:00,27.04,27.3115443333333,1450.05,0.747593
2020-07-04 18:15:00,26.518888,27.2462286666667,1408.73,0.5263610000000001
2020-07-04 18:45:00,25.8805556666667,27.1840353333333,1310.7,0.47955600000000004
2020-07-04 19:15:00,25.2327776666667,27.126213,1209.87,
2020-07-04 19:45:00,24.594444,27.083241,1251.42,0.49970699999999996
2020-07-04 20:15:00,23.946667,27.0215443333333,837.414,
2020-07-04 20:45:00,23.295,26.974654,695.832,
2020-07-04 21:15:00,22.7199996666667,26.9315813333333,571.538,
2020-07-04 21:45:00,22.2111113333333,26.8882816666666,525.384,
2020-07-04 22:15:00,21.7461113333333,26.8655546666667,434.448,
2020-07-04 22:45:00,21.2927776666667,26.844662,386.961,
2020-07-04 23:15:00,20.8677776666667,26.8061296666667,336.708,
2020-07-04 23:45:00,20.476667,26.7685303333333,317.274,
2020-07-05 00:15:00,20.1166666666667,26.752291,281.185,
2020-07-05 00:45:00,19.7800003333333,26.7395933333333,253.353,
2020-07-05 01:15:00,19.4477776666667,26.7242276666667,227.365,
2020-07-05 01:45:00,19.1477773333333,26.692228,224.25,
2020-07-05 02:15:00,18.9005553333333,26.663767,204.878,
2020-07-05 02:45:00,18.667222,26.6470286666667,218.859,
2020-07-05 03:15:00,18.3944446666667,26.6356343333333,199.986,
2020-07-05 03:45:00,18.201111,26.6271713333333,194.19,
2020-07-05 04:15:00,17.9872223333333,26.624055,182.743,
2020-07-05 04:45:00,17.803333,26.619956,165.557,
2020-07-05 05:15:00,17.5977776666667,26.609528,165.904,
2020-07-05 05:45:00,17.5,26.5977613333333,193.716,
2020-07-05 06:15:00,17.5,26.6008816666667,238.144,
2020-07-05 06:45:00,17.5355553333333,26.599544,391.363,
2020-07-05 07:15:00,17.6,26.6042686666667,510.295,
2020-07-05 07:45:00,17.7355553333333,26.6004356666667,654.53,0.686033
2020-07-05 08:15:00,17.9877776666667,26.600703,775.442,1.74719
2020-07-05 08:45:00,18.3700003333333,26.6048926666667,873.309,
2020-07-05 09:15:00,18.937222,26.6192433333333,981.751,0.690427
2020-07-05 09:45:00,19.681667,26.6261916666667,1067.94,0.6963269999999999
2020-07-05 10:15:00,20.6638886666667,26.6455163333333,1175.04,0.44522300000000004
2020-07-05 10:45:00,21.7188893333333,26.676219,1209.81,0.6724600000000001
2020-07-05 11:15:00,23.0999996666667,26.7311553333333,1263.73,0.47037
2020-07-05 11:45:00,24.729445,26.796903,1358.75,0.56443
2020-07-05 12:15:00,26.375556,26.8694386666667,1400.78,0.39126299999999997
2020-07-05 12:45:00,27.838889,26.930785,1486.55,0.339588
2020-07-05 13:15:00,28.9616666666667,26.968125,1541.75,0.393876
2020-07-05 13:45:00,29.8950003333333,26.9984606666667,1600.94,0.49529399999999996
2020-07-05 14:15:00,30.6227776666667,27.0145886666667,1687.18,0.33052
2020-07-05 14:45:00,31.013333,27.0128243333333,1813.15,0.7589950000000001
2020-07-05 15:15:00,30.487778,26.9462313333333,1845.26,0.464107
2020-07-05 15:45:00,29.6394443333333,26.859794,1868.33,0.53723
2020-07-05 16:15:00,29.6744446666667,26.8407646666667,1893.14,0.518316
2020-07-05 16:45:00,29.7727776666666,26.8216356666667,1887.15,0.5351899999999999
2020-07-05 17:15:00,29.736666,26.7860023333333,1909.3,0.613497
2020-07-05 17:45:00,29.427222,26.7191556666667,1872.04,0.657326
2020-07-05 18:15:00,28.8872216666667,26.641145,1760.11,0.7722939999999999
2020-07-05 18:45:00,28.1705556666667,26.567696,1749.25,0.780199
2020-07-05 19:15:00,27.457222,26.485776,1609.38,0.580136
2020-07-05 19:45:00,26.7605556666667,26.4114623333333,1424.51,0.437595
2020-07-05 20:15:00,25.9966663333333,26.3481316666667,1236.34,
2020-07-05 20:45:00,25.2577776666667,26.278476,964.167,
2020-07-05 21:15:00,24.5672216666667,26.220137,789.264,
2020-07-05 21:45:00,23.9127773333333,26.1640456666667,680.042,
2020-07-05 22:15:00,23.2805556666667,26.125131,560.329,
2020-07-05 22:45:00,22.7738893333333,26.1010886666667,562.692,0.316692
2020-07-05 23:15:00,22.3372223333333,26.0612883333333,496.421,0.441696
2020-07-05 23:45:00,21.9611113333333,26.026517,560.849,0.55037
2020-07-06 00:15:00,21.607222,26.0070316666667,474.41,0.585413
2020-07-06 00:45:00,21.2866663333333,25.9925253333333,447.877,0.333674
2020-07-06 01:15:00,21.003889,25.9724793333333,480.867,0.35523299999999997
2020-07-06 01:45:00,20.7716666666667,25.947338,453.178,
2020-07-06 02:15:00,20.5205556666667,25.9225426666667,397.83,
2020-07-06 02:45:00,20.2966666666667,25.902552,338.975,
2020-07-06 03:15:00,20.051111,25.887998,302.394,
2020-07-06 03:45:00,19.803333,25.881267,272.158,
2020-07-06 04:15:00,19.5744446666667,25.876359,279.724,0.35649400000000003
2020-07-06 04:45:00,19.313889,25.871264,260.346,0.6936680000000001
2020-07-06 05:15:00,19.112778,25.864803,362.409,0.56442
2020-07-06 05:45:00,18.9655556666667,25.8601616666667,384.169,0.685033
2020-07-06 06:15:00,18.9011113333333,25.855975,416.546,0.9137149999999999
2020-07-06 06:45:00,18.9222226666667,25.8442296666667,484.273,2.0489100000000002
2020-07-06 07:15:00,19.031111,25.8483276666667,588.128,1.7046400000000002
2020-07-06 07:45:00,19.1616666666667,25.8446846666667,691.096,1.03723
2020-07-06 08:15:00,19.5394443333333,25.853336,762.444,
2020-07-06 08:45:00,20.01,25.864439,724.422,1.3284
2020-07-06 09:15:00,20.4444446666667,25.87654,745.542,1.29572
2020-07-06 09:45:00,21.0455556666667,25.8839956666667,821.843,0.665655
2020-07-06 10:15:00,21.5777776666667,25.8974606666667,835.436,0.7987
2020-07-06 10:45:00,21.877222,25.903643,805.4,0.7131299999999999
2020-07-06 11:15:00,22.0661113333333,25.907185,822.793,1.19634
2020-07-06 11:45:00,22.1005556666667,25.9014623333333,768.265,1.04327
2020-07-06 12:15:00,22.2011113333333,25.903643,787.093,0.6542520000000001
2020-07-06 12:45:00,22.7166666666667,25.940618,954.638,0.582491
2020-07-06 13:15:00,23.9650003333333,25.9821846666667,1142.36,0.526823
2020-07-06 13:45:00,24.548889,25.991256,1274.59,0.524378
2020-07-06 14:15:00,24.7077776666667,25.9808263333333,1396.43,0.55999
2020-07-06 14:45:00,24.9977776666667,25.9743856666667,1468.23,0.74179
2020-07-06 15:15:00,25.1183336666667,25.9576876666667,1367.14,1.29792
2020-07-06 15:45:00,24.9272223333333,25.923723,1378.52,1.07966
2020-07-06 16:15:00,24.9755556666667,25.8976406666667,1475.79,1.21392
2020-07-06 16:45:00,25.1933333333333,25.883451,1435.3,1.17617
2020-07-06 17:15:00,25.0827773333333,25.8531513333333,1378.43,0.991795
2020-07-06 17:45:00,24.913889,25.804598,1333.61,1.3549499999999999
2020-07-06 18:15:00,24.661111,25.752967,1277.38,1.7938699999999999
2020-07-06 18:45:00,24.29,25.7048283333333,1217.5,1.5271
2020-07-06 19:15:00,23.8249996666667,25.639047,1162.67,1.76647
2020-07-06 19:45:00,23.204444,25.5744333333333,1090.43,1.58196
2020-07-06 20:15:00,22.543889,25.50824,1012.89,0.841191
2020-07-06 20:45:00,21.8927776666667,25.4650186666667,877.136,0.8323659999999999
2020-07-06 21:15:00,21.2450003333333,25.3930013333333,770.057,0.675539
2020-07-06 21:45:00,20.6477776666667,25.3526973333333,637.908,
2020-07-06 22:15:00,20.1,25.2948733333333,546.71,
2020-07-06 22:45:00,19.6183336666667,25.246599,434.166,
2020-07-06 23:15:00,19.198889,25.2315116666667,445.452,0.625361
2020-07-06 23:45:00,18.8461113333333,25.2042786666667,438.224,0.641163
2020-07-07 00:15:00,18.4850003333333,25.1649703333333,420.331,
2020-07-07 00:45:00,18.2122223333333,25.131378,381.709,
2020-07-07 01:15:00,18.0366666666667,25.1209776666667,301.657,1.12322
2020-07-07 01:45:00,17.8788886666667,25.1142923333333,264.437,0.740404
2020-07-07 02:15:00,17.6172216666667,25.1059343333333,240.02,
2020-07-07 02:45:00,17.3355556666667,25.101755,235.194,
2020-07-07 03:15:00,17.042778,25.085394,211.612,
2020-07-07 03:45:00,16.7666666666667,25.0533996666667,197.623,0.580019
2020-07-07 04:15:00,16.49,25.0067623333333,179.933,
2020-07-07 04:45:00,16.2511106666667,24.9864486666667,162.574,0.786555
2020-07-07 05:15:00,16.0244443333333,24.9815103333333,173.983,0.796034
2020-07-07 05:45:00,15.9005556666667,24.979086,180.185,
2020-07-07 06:15:00,15.8783323333333,24.982907,206.639,1.22901
2020-07-07 06:45:00,15.8994443333333,24.9831873333333,325.745,2.22323
2020-07-07 07:15:00,15.9294443333333,24.9816956666667,499.465,1.2508000000000001
2020-07-07 07:45:00,16.0294443333333,24.9834676666667,635.748,1.11788
2020-07-07 08:15:00,16.1938886666667,24.9857963333333,772.227,1.40317
2020-07-07 08:45:00,16.4488883333333,24.9894323333333,916.735,0.936516
2020-07-07 09:15:00,16.8694443333333,25.0083463333333,989.403,1.5910600000000001
2020-07-07 09:45:00,17.28,25.0400953333333,1069.02,0.913135
2020-07-07 10:15:00,17.9255563333333,25.0707013333333,1044.66,1.39858
2020-07-07 10:45:00,18.9588886666667,25.1038893333333,1035.2,1.09345
2020-07-07 11:15:00,20.2477783333333,25.1399136666667,1121.62,0.9471879999999999
2020-07-07 11:45:00,21.1999996666667,25.2021473333333,1216.98,0.995382
2020-07-07 12:15:00,22.331112,25.2440043333333,1291.73,1.2362
2020-07-07 12:45:00,23.822778,25.324349,1348.45,1.04212
2020-07-07 13:15:00,25.2700003333333,25.392814,1393.96,0.898529
2020-07-07 13:45:00,26.7094446666667,25.4697093333333,1444.26,0.915165
2020-07-07 14:15:00,27.985556,25.5451606666667,1492.8,1.3960000000000001
2020-07-07 14:45:00,28.86,25.5918646666667,1541.44,0.986654
2020-07-07 15:15:00,28.6527776666667,25.561222,1568.4,1.0594599999999998
2020-07-07 15:45:00,27.9222223333333,25.485714,1574.28,1.5862800000000001
2020-07-07 16:15:00,28.0950003333333,25.4781753333333,1596.12,1.1972
2020-07-07 16:45:00,28.425555,25.478358,1612.41,0.996193
2020-07-07 17:15:00,28.510555,25.4664913333333,1605.22,1.22346
2020-07-07 17:45:00,28.280555,25.42986,1536.27,1.1846700000000001
2020-07-07 18:15:00,27.765,25.3751096666667,1488.24,1.2911599999999999
2020-07-07 18:45:00,27.0527773333333,25.3083673333333,1393.34,1.43652
2020-07-07 19:15:00,26.181666,25.225764,1263.1,0.6596660000000001
2020-07-07 19:45:00,25.2427776666667,25.143253,1156.31,
2020-07-07 20:15:00,24.2927776666667,25.069582,925.748,
2020-07-07 20:45:00,23.3661116666667,24.983461,784.71,
2020-07-07 21:15:00,22.5488886666667,24.9130206666667,635.808,
2020-07-07 21:45:00,21.83,24.84891,561.268,
2020-07-07 22:15:00,21.2044443333333,24.8129713333333,479.808,
2020-07-07 22:45:00,20.652222,24.7488653333333,398.015,
2020-07-07 23:15:00,20.1661113333333,24.7119923333333,385.282,
2020-07-07 23:45:00,19.7049996666667,24.6903903333333,321.123,
2020-07-08 00:15:00,19.2305553333333,24.6466773333333,274.341,
2020-07-08 00:45:00,18.847778,24.5979313333333,246.382,
2020-07-08 01:15:00,18.481666,24.5754196666667,224.576,
2020-07-08 01:45:00,18.171667,24.559206,217.448,
2020-07-08 02:15:00,17.9438886666667,24.529594,200.92,
2020-07-08 02:45:00,17.702222,24.4912726666667,185.453,
2020-07-08 03:15:00,17.4344443333333,24.4584903333333,175.321,
2020-07-08 03:45:00,17.1483333333333,24.4453523333333,154.291,
2020-07-08 04:15:00,16.891667,24.440815,135.967,
2020-07-08 04:45:00,16.6388886666667,24.430977,131.032,
2020-07-08 05:15:00,16.4011113333333,24.417162,153.891,
2020-07-08 05:45:00,16.2738893333333,24.4031536666667,160.842,
2020-07-08 06:15:00,16.2,24.3909413333333,204.075,
2020-07-08 06:45:00,16.250556,24.38791,345.362,
2020-07-08 07:15:00,16.3294443333333,24.402871,483.961,
2020-07-08 07:45:00,16.4555553333333,24.4202853333333,614.864,0.809426
2020-07-08 08:15:00,16.6611113333333,24.432868,719.789,0.876555
2020-07-08 08:45:00,16.8683336666667,24.4382606666667,817.32,1.0027599999999999
2020-07-08 09:15:00,17.255,24.4439336666667,820.816,0.679502
2020-07-08 09:45:00,17.6672223333333,24.446109,973.804,0.854374
2020-07-08 10:15:00,18.2749996666667,24.4628376666667,1124.75,1.00822
2020-07-08 10:45:00,19.027223,24.5130776666667,1187.89,0.667667
2020-07-08 11:15:00,19.8011113333333,24.556945,1331.88,0.9858569999999999
2020-07-08 11:45:00,20.7244453333333,24.5820116666667,1444.77,0.8475429999999999
2020-07-08 12:15:00,22.288334,24.6699893333333,1564.6,0.757588
2020-07-08 12:45:00,23.8416666666667,24.758895,1697.5,0.9869180000000001
2020-07-08 13:15:00,25.4572223333333,24.853206,1721.91,
2020-07-08 13:45:00,26.9666673333333,24.9404686666667,1740.07,0.908906
2020-07-08 14:15:00,27.9483333333333,25.0007006666667,1833.26,0.9676100000000001
2020-07-08 14:45:00,28.8166666666667,25.054054,1892.36,0.721156
2020-07-08 15:15:00,28.6911103333333,25.0241686666667,1940.22,0.939998
2020-07-08 15:45:00,28.0516663333333,24.940938,1949.16,
2020-07-08 16:15:00,28.3199996666667,24.93702,2088.36,1.2094099999999999
2020-07-08 16:45:00,28.7094443333333,24.9384196666667,2096.14,1.1156899999999998
2020-07-08 17:15:00,28.7822216666667,24.920403,2093.44,1.28191
2020-07-08 17:45:00,28.5438893333333,24.87322,1991.84,0.829769
2020-07-08 18:15:00,27.9866666666667,24.8006993333333,1978.95,1.6427
2020-07-08 18:45:00,27.216666,24.7205183333333,1828.16,1.69206
2020-07-08 19:15:00,26.4049996666667,24.6288926666667,1599.27,1.48661
2020-07-08 19:45:00,25.698333,24.551849,1273.64,
2020-07-08 20:15:00,25.0294443333333,24.4817283333333,1130.95,
2020-07-08 20:45:00,24.2961113333333,24.4151723333333,832.241,
2020-07-08 21:15:00,23.547778,24.3458413333333,744.272,
2020-07-08 21:45:00,22.8927773333333,24.2962313333333,635.606,
2020-07-08 22:15:00,22.3144446666667,24.2499713333333,530.316,
2020-07-08 22:45:00,21.8205556666667,24.1960523333333,471.449,
2020-07-08 23:15:00,21.3783326666667,24.1621566666667,461.156,
2020-07-08 23:45:00,20.9694443333333,24.1351863333333,407.839,
2020-07-09 00:15:00,20.59,24.0915023333333,335.63,
2020-07-09 00:45:00,20.2427776666667,24.0521696666667,323.728,
2020-07-09 01:15:00,19.925,24.0330593333333,300.267,
2020-07-09 01:45:00,19.6133326666667,24.0232123333333,244.021,
2020-07-09 02:15:00,19.2816663333333,24.0103956666667,247.529,
2020-07-09 02:45:00,19.027778,23.988588,208.2,
2020-07-09 03:15:00,18.800556,23.9604493333333,211.093,
2020-07-09 03:45:00,18.6422226666667,23.9369793333333,194.597,
2020-07-09 04:15:00,18.402778,23.9183873333333,182.548,
2020-07-09 04:45:00,18.2083333333333,23.9022796666667,182.698,
2020-07-09 05:15:00,17.9916666666667,23.896332,190.736,
2020-07-09 05:45:00,17.863889,23.8938366666667,178.252,
2020-07-09 06:15:00,17.7683336666667,23.8895206666667,182.939,1.58589
2020-07-09 06:45:00,17.745556,23.8897133333333,257.327,2.13156
2020-07-09 07:15:00,17.8194443333333,23.8987303333333,424.023,
2020-07-09 07:45:00,17.933889,23.9103346666667,621.336,2.1388599999999998
2020-07-09 08:15:00,18.1127776666667,23.921743,816.477,1.40238
2020-07-09 08:45:00,18.376111,23.9473256666667,1006.07,1.3066200000000001
2020-07-09 09:15:00,18.7911113333333,23.9863876666667,1174.97,1.052
2020-07-09 09:45:00,19.2361113333333,24.0137443333333,1299.85,0.959319
2020-07-09 10:15:00,19.9744443333333,24.0289476666667,1441.53,0.917864
2020-07-09 10:45:00,20.7672226666667,24.061814,1406.56,1.43298
2020-07-09 11:15:00,21.467778,24.1147813333333,1339.93,0.756277
2020-07-09 11:45:00,22.279445,24.162439,1564.13,0.8146899999999999
2020-07-09 12:15:00,23.6188893333333,24.2465446666667,1768.66,1.03892
2020-07-09 12:45:00,25.072778,24.3281053333333,1935.83,0.8371099999999999
2020-07-09 13:15:00,26.603888,24.426139,2181.59,0.9975719999999999
2020-07-09 13:45:00,28.1349996666667,24.529303,2300.57,0.7717849999999999
2020-07-09 14:15:00,29.3872226666667,24.6197626666667,2362.12,0.608752
2020-07-09 14:45:00,30.2433333333333,24.6656743333333,2360.0,0.8707600000000001
2020-07-09 15:15:00,29.9388883333333,24.6086456666667,2474.38,0.646711
2020-07-09 15:45:00,29.105556,24.509965,2532.02,0.9944789999999999
2020-07-09 16:15:00,29.2122223333333,24.4992046666667,2612.17,1.19587
2020-07-09 16:45:00,29.5349996666667,24.4980723333333,2628.64,1.4025
2020-07-09 17:15:00,29.666667,24.4851346666667,2589.37,1.06496
2020-07-09 17:45:00,29.520555,24.4461963333333,2593.66,0.7065389999999999
2020-07-09 18:15:00,29.1827776666667,24.403815,2513.66,0.7368750000000001
2020-07-09 18:45:00,28.6811113333333,24.355604,2417.26,0.455654
2020-07-09 19:15:00,28.0044446666667,24.283598,2450.89,0.20199899999999998
2020-07-09 19:45:00,27.1866666666667,24.196991,2322.63,0.436689
2020-07-09 20:15:00,26.346667,24.1045686666667,1374.91,
2020-07-09 20:45:00,25.5238886666667,24.024545,1029.77,
2020-07-09 21:15:00,24.7994443333333,23.9636996666667,845.822,
2020-07-09 21:45:00,24.1566663333333,23.8908606666667,764.123,
2020-07-09 22:15:00,23.56,23.8437303333333,690.704,
2020-07-09 22:45:00,23.0383333333333,23.785099,607.312,
2020-07-09 23:15:00,22.5938886666667,23.75017,536.83,
2020-07-09 23:45:00,22.176111,23.7246443333333,452.153,
2020-07-10 00:15:00,21.798333,23.6788553333333,393.348,
2020-07-10 00:45:00,21.455,23.6361986666667,387.221,
2020-07-10 01:15:00,21.1477776666667,23.612632,375.554,
2020-07-10 01:45:00,20.8527773333333,23.5964933333333,326.977,
2020-07-10 02:15:00,20.575,23.573094,305.927,
2020-07-10 02:45:00,20.3133326666667,23.534775,264.022,
2020-07-10 03:15:00,20.072222,23.5034943333333,290.313,
2020-07-10 03:45:00,19.8455553333333,23.4837236666667,258.8,
2020-07-10 04:15:00,19.6366663333333,23.471991,260.514,
2020-07-10 04:45:00,19.3755553333333,23.4621993333333,259.566,
2020-07-10 05:15:00,19.1833333333333,23.4591923333333,244.864,
2020-07-10 05:45:00,19.091111,23.4525936666667,250.711,
2020-07-10 06:15:00,19.009445,23.4477406666667,278.739,
2020-07-10 06:45:00,19.094445,23.4520116666667,449.706,
2020-07-10 07:15:00,19.196667,23.4595816666667,602.918,2.27366
2020-07-10 07:45:00,19.3627776666667,23.4653013333333,799.789,1.51203
2020-07-10 08:15:00,19.6199996666667,23.4778096666667,1030.76,1.22761
2020-07-10 08:45:00,19.851111,23.48799,1189.42,0.98249
2020-07-10 09:15:00,20.250556,23.515794,1428.5,1.4166999999999998
2020-07-10 09:45:00,20.665,23.5557783333333,1623.21,0.599425
2020-07-10 10:15:00,21.241667,23.5882763333333,1697.18,0.912007
2020-07-10 10:45:00,21.7700003333333,23.6053853333333,1783.91,0.7680220000000001
2020-07-10 11:15:00,22.4922226666667,23.6628336666667,1898.32,0.861158
2020-07-10 11:45:00,23.6783333333333,23.7373576666667,2023.23,1.09317
2020-07-10 12:15:00,25.0661106666667,23.7999056666667,1803.91,0.680115
2020-07-10 12:45:00,26.0561113333333,23.8548716666667,1759.38,0.962729
2020-07-10 13:15:00,26.651111,23.8791583333333,1852.53,0.813702
2020-07-10 13:45:00,27.402222,23.9231756666667,1920.13,0.7944239999999999
2020-07-10 14:15:00,28.282778,23.9736583333333,1937.51,0.8222010000000001
2020-07-10 14:45:00,28.5627776666667,23.9731806666667,1820.07,1.09985
2020-07-10 15:15:00,28.2283333333333,23.932186,1974.54,1.0506300000000002
2020-07-10 15:45:00,27.9488886666667,23.8794456666667,1922.49,0.855594
2020-07-10 16:15:00,27.7933333333334,23.8434416666667,1938.71,0.968875
2020-07-10 16:45:00,27.624444,23.8105846666667,1953.75,1.0674599999999999
2020-07-10 17:15:00,27.8416663333333,23.8100083333333,1919.34,1.37308
2020-07-10 17:45:00,27.8716663333333,23.786638,1911.93,1.6195300000000001
2020-07-10 18:15:00,27.6333333333333,23.734852,1791.55,1.1473900000000001
2020-07-10 18:45:00,27.2105556666667,23.6777903333333,1789.99,0.797525
2020-07-10 19:15:00,26.7305553333333,23.6072146666667,1588.93,
2020-07-10 19:45:00,26.0983326666667,23.530703,1341.12,2.1836699999999998
2020-07-10 20:15:00,25.5005553333333,23.4560813333333,1179.44,3.36876
2020-07-10 20:45:00,24.997222,23.4029843333333,1055.83,1.82105
2020-07-10 21:15:00,24.5494446666667,23.3864613333333,748.161,1.13785
2020-07-10 21:45:00,23.9688893333333,23.4394856666667,299.769,0.6707339999999999
2020-07-10 22:15:00,23.2933333333333,23.4285223333333,224.515,0.44406399999999996
2020-07-10 22:45:00,22.8016666666667,23.4720856666667,199.566,0.548691
2020-07-10 23:15:00,22.422222,23.6257416666667,172.738,
2020-07-10 23:45:00,22.0472226666667,24.7236943333333,176.158,
2020-07-11 00:15:00,21.6494443333333,29.438827,156.385,
2020-07-11 00:45:00,21.3627776666667,30.3610066666667,162.903,0.409979
2020-07-11 01:15:00,21.1655553333333,30.3062103333333,163.818,0.62051
2020-07-11 01:45:00,21.015555,30.4949483333333,151.897,0.8237760000000001
2020-07-11 02:15:00,20.8722223333333,30.899317,147.337,
2020-07-11 02:45:00,20.719444,31.359878,145.159,0.6110920000000001
2020-07-11 03:15:00,20.5338886666667,31.6719813333333,137.153,0.581845
2020-07-11 03:45:00,20.390555,31.4407026666667,140.824,
2020-07-11 04:15:00,20.2727773333333,31.368693,150.23,
2020-07-11 04:45:00,20.184444,31.3762173333333,136.094,
2020-07-11 05:15:00,20.1,31.4179843333333,130.781,
2020-07-11 05:45:00,20.1,31.372849,131.133,0.39618200000000003
2020-07-11 06:15:00,20.0994443333333,31.3322826666667,121.022,
2020-07-11 06:45:00,20.1,31.3082366666667,126.133,1.22275
2020-07-11 07:15:00,20.1,31.25228,136.082,1.20491
2020-07-11 07:45:00,20.112222,31.2193593333333,101.06,1.02709
2020-07-11 08:15:00,20.312222,31.1929723333333,75.6689,1.00701
2020-07-11 08:45:00,20.607222,31.1765556666667,110.944,1.0891
2020-07-11 09:15:00,20.7838886666667,31.5249396666667,139.081,0.925838
2020-07-11 09:45:00,20.8,31.5251806666667,158.001,0.845159
2020-07-11 10:15:00,20.8,31.494851,144.211,0.7628440000000001
2020-07-11 10:45:00,20.83,31.4432423333333,121.925,
2020-07-11 11:15:00,21.0244446666667,31.402917,163.34,1.43289
2020-07-11 11:45:00,21.432778,31.3325103333333,288.194,2.0403000000000002
2020-07-11 12:15:00,22.026667,31.2715086666667,615.931,1.89197
2020-07-11 12:45:00,23.0205556666667,31.165927,848.109,2.64872
2020-07-11 13:15:00,24.4711116666667,31.0373583333333,900.167,1.85514
2020-07-11 13:45:00,25.46,30.922539,1073.09,1.6257400000000002
2020-07-11 14:15:00,26.3616663333333,30.812454,1205.51,2.03528
2020-07-11 14:45:00,26.9605556666667,30.7058966666667,1254.45,2.3006200000000003
2020-07-11 15:15:00,26.6461113333333,30.61136,1354.45,2.6946600000000003
2020-07-11 15:45:00,26.192778,30.5327536666667,1405.86,2.2698699999999996
2020-07-11 16:15:00,26.505556,30.4752686666667,1457.07,1.82089
2020-07-11 16:45:00,26.9727773333333,30.401544,1441.9,1.9147299999999998
2020-07-11 17:15:00,26.896666,30.314586,1498.29,2.43617
2020-07-11 17:45:00,26.6005553333333,30.2298583333333,1499.95,3.07773
2020-07-11 18:15:00,26.077777,30.1432943333333,1459.13,2.66019
2020-07-11 18:45:00,25.4344446666667,30.062277,1420.94,2.67256
2020-07-11 19:15:00,24.7261113333333,29.9882893333333,1345.87,1.4223599999999998
2020-07-11 19:45:00,23.921111,29.9117133333333,1187.81,1.0806
2020-07-11 20:15:00,23.1149993333333,29.8392363333333,968.286,1.0195200000000002
2020-07-11 20:45:00,22.4338893333333,29.801761,908.518,2.07852
2020-07-11 21:15:00,21.8916666666667,29.760505,1071.76,1.9673999999999998
2020-07-11 21:45:00,21.537222,29.729517,1038.7,2.3791900000000004
2020-07-11 22:15:00,21.218889,29.7161203333333,804.785,1.9082999999999999
2020-07-11 22:45:00,20.8933333333333,29.7015773333333,564.688,1.67782
2020-07-11 23:15:00,20.571667,29.6740976666667,446.252,1.47556
2020-07-11 23:45:00,20.2766666666667,29.6512396666667,370.07,1.2114999999999998
2020-07-12 00:15:00,19.9855553333333,29.6247033333333,293.475,1.28756
2020-07-12 00:45:00,19.6838893333333,29.6154993333333,250.995,0.805159
2020-07-12 01:15:00,19.3294443333333,29.609712,226.971,0.9226679999999999
2020-07-12 01:45:00,19.058333,29.607431,238.959,0.936213
2020-07-12 02:15:00,18.8027773333333,29.6043336666667,218.863,0.931784
2020-07-12 02:45:00,18.597222,29.6022146666667,209.195,1.36117
2020-07-12 03:15:00,18.3744446666667,29.593981,211.342,1.7113099999999999
2020-07-12 03:45:00,18.2094446666667,29.5900656666667,197.527,2.0923000000000003
2020-07-12 04:15:00,18.0222223333333,29.5877826666667,199.312,3.162
2020-07-12 04:45:00,17.8583333333333,29.580362,225.272,1.4834
2020-07-12 05:15:00,17.6561113333333,29.5779146666667,278.997,1.53806
2020-07-12 05:45:00,17.5083333333333,29.5703266666667,306.137,1.7485899999999999
2020-07-12 06:15:00,17.3744446666667,29.5614336666667,349.694,2.20405
2020-07-12 06:45:00,17.265,29.5531093333333,471.421,1.8634700000000002
2020-07-12 07:15:00,17.2,29.5451883333333,553.54,1.5915300000000001
2020-07-12 07:45:00,17.222222,29.538655,600.315,2.32646
2020-07-12 08:15:00,17.3477776666667,29.5324486666667,650.532,1.7342499999999998
2020-07-12 08:45:00,17.5161116666667,29.52861,711.775,2.30114
2020-07-12 09:15:00,17.7377776666667,29.5226483333333,794.891,2.1386600000000002
2020-07-12 09:45:00,18.0355553333333,29.5185633333333,879.622,1.81814
2020-07-12 10:15:00,18.4772223333333,29.5092426666667,991.089,1.68364
2020-07-12 10:45:00,19.0844443333333,29.5023753333334,1098.25,1.38494
2020-07-12 11:15:00,19.685556,29.499594,1204.46,1.51841
2020-07-12 11:45:00,20.4094446666667,29.495749,1322.91,0.988467
2020-07-12 12:15:00,21.4444443333333,29.4856083333333,1359.69,1.03772
2020-07-12 12:45:00,22.6022223333333,29.4742343333333,1413.07,1.13608
2020-07-12 13:15:00,24.101111,29.465968,1418.16,0.9054059999999999
2020-07-12 13:45:00,25.5805553333333,29.455816,1472.93,1.1417000000000002
2020-07-12 14:15:00,26.772222,29.4466453333333,1570.28,1.48063
2020-07-12 14:45:00,27.5338886666667,29.4278816666667,1583.84,1.1228799999999999
2020-07-12 15:15:00,27.3727776666667,29.3576473333333,1653.7,1.40774
2020-07-12 15:45:00,26.7738886666667,29.285457,1560.12,1.09555
2020-07-12 16:15:00,27.063889,29.2460836666667,1537.65,1.18351
2020-07-12 16:45:00,27.445,29.2057536666667,1525.66,0.929303
2020-07-12 17:15:00,27.5066673333333,29.1562036666667,1539.47,1.16172
2020-07-12 17:45:00,27.3077776666667,29.089761,1508.88,1.44845
2020-07-12 18:15:00,26.8205563333333,29.0114853333333,1479.84,1.0739400000000001
2020-07-12 18:45:00,26.1533333333333,28.9383456666667,1424.5,1.56498
2020-07-12 19:15:00,25.3988893333333,28.853609,1308.07,1.22886
2020-07-12 19:45:00,24.617222,28.7737566666667,1121.56,1.0865
2020-07-12 20:15:00,23.7861113333333,28.705448,1035.08,1.11455
2020-07-12 20:45:00,22.9966663333333,28.6307776666666,765.922,0.854314
2020-07-12 21:15:00,22.2961106666667,28.5767226666667,744.744,0.914738
2020-07-12 21:45:00,21.6894443333333,28.5156746666667,646.536,0.71435
2020-07-12 22:15:00,21.1305553333333,28.4873443333333,548.23,
2020-07-12 22:45:00,20.6366663333333,28.444541,570.593,1.11441
2020-07-12 23:15:00,20.215,28.3986446666667,427.957,0.890348
2020-07-12 23:45:00,19.8205556666667,28.3868,417.943,0.97546
2020-07-13 00:15:00,19.4349996666667,28.3512386666667,424.328,1.9424299999999999
2020-07-13 00:45:00,19.1250003333333,28.3141163333333,464.81,1.01578
2020-07-13 01:15:00,18.8616666666667,28.288504,333.063,
2020-07-13 01:45:00,18.58,28.2767016666667,328.406,
2020-07-13 02:15:00,18.3233333333333,28.2673603333333,323.236,
2020-07-13 02:45:00,18.0633333333333,28.2487583333333,289.853,
2020-07-13 03:15:00,17.8255556666667,28.2150063333333,260.887,
2020-07-13 03:45:00,17.5833333333333,28.1885443333333,233.575,
2020-07-13 04:15:00,17.384444,28.174155,204.052,
2020-07-13 04:45:00,17.1616666666667,28.1647006666667,218.362,0.679266
2020-07-13 05:15:00,16.9994443333333,28.1621473333333,208.667,0.770285
2020-07-13 05:45:00,16.858889,28.157461,244.957,1.16063
2020-07-13 06:15:00,16.8,28.150218,270.928,1.02623
2020-07-13 06:45:00,16.8,28.1435696666667,389.348,1.85796
2020-07-13 07:15:00,16.9038893333333,28.144934,565.252,1.59562
2020-07-13 07:45:00,17.0622223333333,28.1424616666667,756.472,0.913909
2020-07-13 08:15:00,17.2472226666667,28.1372583333333,865.888,0.941103
2020-07-13 08:45:00,17.4894443333333,28.1346156666667,945.219,0.637059
2020-07-13 09:15:00,17.7694446666667,28.1309496666667,984.225,0.608784
2020-07-13 09:45:00,18.0894443333333,28.1082116666667,1070.31,0.701398
2020-07-13 10:15:00,18.5600003333333,27.9049093333333,1125.8,0.458997
2020-07-13 10:45:00,19.1883333333333,27.9122923333333,1229.5,
2020-07-13 11:15:00,19.822777,27.9158126666667,1312.79,0.429477
2020-07-13 11:45:00,20.6955556666667,27.9198453333333,1434.22,0.495785
2020-07-13 12:15:00,21.6922226666667,27.923362,1325.54,0.49517300000000003
2020-07-13 12:45:00,22.6705556666667,27.920016,1313.38,0.5853740000000001
2020-07-13 13:15:00,23.962778,27.9426586666667,1341.49,0.474892
2020-07-13 13:45:00,24.868889,27.953375,1404.51,0.648067
2020-07-13 14:15:00,25.976111,27.9861916666667,1514.55,0.438677
2020-07-13 14:45:00,26.8905553333333,27.9960413333333,1468.51,0.844725
2020-07-13 15:15:00,26.7750003333333,27.961514,1562.1,0.492739
2020-07-13 15:45:00,26.3149996666667,27.914694,1629.48,0.6234689999999999
2020-07-13 16:15:00,26.620555,27.902934,1735.58,0.782575
2020-07-13 16:45:00,27.0644446666667,27.8962373333333,1781.99,0.701682
2020-07-13 17:15:00,27.2827776666667,27.8763083333333,1765.17,0.273184
2020-07-13 17:45:00,27.1394446666667,27.8387406666667,1754.57,0.358494
2020-07-13 18:15:00,26.7505553333333,27.7862306666667,1610.61,
2020-07-13 18:45:00,25.9355553333333,27.7073113333333,1493.63,0.584991
2020-07-13 19:15:00,25.133889,27.6369523333333,1483.07,
2020-07-13 19:45:00,24.3916663333333,27.5655813333333,1307.45,
2020-07-13 20:15:00,23.582222,27.4985773333333,1184.83,
2020-07-13 20:45:00,22.81,27.443018,761.744,
2020-07-13 21:15:00,22.1244446666667,27.379526,627.337,
2020-07-13 21:45:00,21.508889,27.3399253333333,576.722,
2020-07-13 22:15:00,20.962778,27.2908333333333,457.425,
2020-07-13 22:45:00,20.4744443333333,27.2408956666667,438.527,
2020-07-13 23:15:00,20.0250003333333,27.2158506666667,380.637,
2020-07-13 23:45:00,19.643889,27.1697423333333,366.063,
2020-07-14 00:15:00,19.2583333333333,27.128061,305.311,
2020-07-14 00:45:00,18.9783336666667,27.1113703333333,305.879,
2020-07-14 01:15:00,18.7033333333333,27.0995066666667,264.464,
2020-07-14 01:45:00,18.382778,27.073918,252.086,
2020-07-14 02:15:00,18.106111,27.0214576666667,236.452,
2020-07-14 02:45:00,17.8794443333333,26.993795,205.585,
2020-07-14 03:15:00,17.616667,26.9793276666667,189.875,
2020-07-14 03:45:00,17.3944446666667,26.952771,179.502,
2020-07-14 04:15:00,17.1549996666667,26.9128536666667,136.506,
2020-07-14 04:45:00,16.9205553333333,26.8856306666666,161.323,
2020-07-14 05:15:00,16.7344443333333,26.8744873333333,124.96,
2020-07-14 05:45:00,16.611111,26.867147,136.542,
2020-07-14 06:15:00,16.5788876666667,26.8616596666667,101.184,
2020-07-14 06:45:00,16.5927776666667,26.852986,154.681,
2020-07-14 07:15:00,16.6266666666667,26.8436006666667,243.083,
2020-07-14 07:45:00,16.7444446666667,26.8409436666667,349.781,0.599549
2020-07-14 08:15:00,16.9305556666667,26.8319993333333,561.93,0.652764
2020-07-14 08:45:00,17.152222,26.834744,802.995,0.5265730000000001
2020-07-14 09:15:00,17.4227776666667,26.846964,1007.32,0.578835
2020-07-14 09:45:00,17.7405556666667,26.8556426666667,1164.9,
2020-07-14 10:15:00,18.3261113333333,26.85874,1092.26,
2020-07-14 10:45:00,18.8483333333333,26.8643156666667,1285.9,
2020-07-14 11:15:00,19.3072226666667,26.8654656666667,1497.72,0.372807
2020-07-14 11:45:00,20.02,26.8684746666667,1569.46,0.43561300000000003
2020-07-14 12:15:00,20.7133336666667,26.8762563333333,1562.96,0.313047
2020-07-14 12:45:00,21.763334,26.900304,1660.44,0.5103179999999999
2020-07-14 13:15:00,23.1716673333333,26.9538286666667,1818.35,0.379174
2020-07-14 13:45:00,24.6677776666667,27.0158196666667,1799.32,0.4184
2020-07-14 14:15:00,25.228333,27.023837,1880.83,0.31332499999999996
2020-07-14 14:45:00,25.7550003333333,27.029122,1822.4,0.273938
2020-07-14 15:15:00,25.8266666666667,27.0116796666667,1929.11,0.337175
2020-07-14 15:45:00,25.4861116666667,26.9660966666667,1805.03,0.420693
2020-07-14 16:15:00,25.6533333333333,26.949949,1890.73,0.46974099999999996
2020-07-14 16:45:00,25.832778,26.937763,2103.57,0.625204
2020-07-14 17:15:00,25.9561103333333,26.9150636666667,2064.19,0.534428
2020-07-14 17:45:00,25.617778,26.867673,1935.74,0.491666
2020-07-14 18:15:00,25.0894443333333,26.815253,1795.93,0.498216
2020-07-14 18:45:00,24.4833333333333,26.7504226666667,1378.51,
2020-07-14 19:15:00,23.8705553333333,26.7037863333333,988.19,
2020-07-14 19:45:00,23.2955556666667,26.63643,836.986,
2020-07-14 20:15:00,22.8305553333333,26.5907153333333,762.784,
2020-07-14 20:45:00,22.351111,26.5360096666667,640.835,
2020-07-14 21:15:00,21.853333,26.500269,596.575,
2020-07-14 21:45:00,21.432222,26.4722716666667,643.079,
2020-07-14 22:15:00,21.1105553333333,26.4260733333333,601.439,
2020-07-14 22:45:00,20.84,26.393631,638.938,
2020-07-14 23:15:00,20.6055556666667,26.377485,677.86,
2020-07-14 23:45:00,20.3944443333333,26.3633056666667,584.883,
2020-07-15 00:15:00,20.1894446666667,26.3297246666667,464.494,
2020-07-15 00:45:00,20.008889,26.2953926666667,424.07,
2020-07-15 01:15:00,19.8161113333333,26.26832,430.114,
2020-07-15 01:45:00,19.6527776666667,26.25491,390.275,
2020-07-15 02:15:00,19.4261106666667,26.2460826666667,319.877,
2020-07-15 02:45:00,19.2044443333333,26.2250046666667,339.038,
2020-07-15 03:15:00,19.014445,26.1906606666667,312.469,
2020-07-15 03:45:00,18.8216663333333,26.160439,294.004,
2020-07-15 04:15:00,18.711111,26.1442823333333,332.662,
2020-07-15 04:45:00,18.638333,26.1356116666667,253.364,
2020-07-15 05:15:00,18.5594443333333,26.1273026666667,258.436,
2020-07-15 05:45:00,18.4250003333333,26.1231453333333,274.929,
2020-07-15 06:15:00,18.401667,26.1180823333333,290.762,
2020-07-15 06:45:00,18.413889,26.1211566666667,296.508,
2020-07-15 07:15:00,18.548333,26.1225123333333,304.82,0.275213
2020-07-15 07:45:00,18.6505556666667,26.115371,329.911,0.139574
2020-07-15 08:15:00,18.745556,26.1103093333333,374.755,
2020-07-15 08:45:00,18.9594443333333,26.0912333333333,509.582,
2020-07-15 09:15:00,19.2822216666667,26.102264,615.976,
2020-07-15 09:45:00,19.6861113333333,26.1131106666667,758.759,0.390189
2020-07-15 10:15:00,19.9888886666667,26.120433,804.125,
2020-07-15 10:45:00,20.46,26.1274833333333,914.055,0.290895
2020-07-15 11:15:00,20.9566666666667,26.137239,994.441,0.405391
2020-07-15 11:45:00,21.2966663333333,26.1426576666667,1018.37,0.511821
2020-07-15 12:15:00,21.33,26.136426,934.304,0.363198
2020-07-15 12:45:00,21.141111,26.1235073333333,801.679,0.38070600000000004
2020-07-15 13:15:00,20.9966663333333,26.1122986666667,683.439,0.476917
2020-07-15 13:45:00,20.9,26.0918666666667,597.939,0.462854
2020-07-15 14:15:00,20.9777783333333,26.0708833333333,557.312,0.32860799999999996
2020-07-15 14:45:00,21.1527776666667,26.0607453333333,569.841,0.26222799999999996
2020-07-15 15:15:00,21.2,26.0513323333333,577.94,0.18640400000000001
2020-07-15 15:45:00,21.2033336666667,26.0502453333333,638.646,0.263431
2020-07-15 16:15:00,21.2094446666667,26.0420966666667,692.601,0.39979000000000003
2020-07-15 16:45:00,21.0516663333333,26.027336,705.828,0.35082199999999997
2020-07-15 17:15:00,20.835,26.0015926666667,441.06,0.41985100000000003
2020-07-15 17:45:00,20.61,25.9918903333333,337.264,0.323868
2020-07-15 18:15:00,20.4605553333333,25.983093,303.538,0.234399
2020-07-15 18:45:00,20.3394446666667,25.9738423333333,302.101,0.20006200000000002
2020-07-15 19:15:00,20.25,25.9624076666667,309.439,0.175752
2020-07-15 19:45:00,20.1294443333333,25.948155,298.646,0.222813
2020-07-15 20:15:00,19.9705556666667,25.9311736666667,285.458,0.26826099999999997
2020-07-15 20:45:00,19.772777,25.9126383333333,269.808,
2020-07-15 21:15:00,19.606111,25.89928,233.674,0.155659
2020-07-15 21:45:00,19.3688886666667,25.889272,219.523,0.137513
2020-07-15 22:15:00,19.2144446666667,25.8824476666667,217.474,0.263321
2020-07-15 22:45:00,19.1183333333333,25.8801766666667,208.921,0.184561
2020-07-15 23:15:00,19.0155553333333,25.8798133333333,213.629,0.351782
2020-07-15 23:45:00,18.9299996666667,25.879903,197.592,
2020-07-16 00:15:00,18.8138886666667,25.8792683333333,175.919,
2020-07-16 00:45:00,18.767222,25.8785413333333,166.823,
2020-07-16 01:15:00,18.7,25.8791776666667,160.921,
2020-07-16 01:45:00,18.6155556666667,25.8741756666667,156.808,
2020-07-16 02:15:00,18.5111116666667,25.872174,154.009,
2020-07-16 02:45:00,18.3955556666667,25.8715363333333,143.646,
2020-07-16 03:15:00,18.251111,25.915064,141.524,0.37739300000000003
2020-07-16 03:45:00,18.0588886666667,26.1495066666667,143.938,0.136049
2020-07-16 04:15:00,17.9611113333333,26.411768,144.423,0.281763
2020-07-16 04:45:00,17.9,26.590152,147.669,0.23611300000000002
2020-07-16 05:15:00,17.8261113333333,26.7251913333333,142.78,0.356218
2020-07-16 05:45:00,17.741111,26.8166596666667,142.655,0.126803
2020-07-16 06:15:00,17.698889,26.8768746666667,141.196,0.37061700000000003
2020-07-16 06:45:00,17.6205553333333,26.9488793333333,136.496,
2020-07-16 07:15:00,17.6005556666667,27.000226,135.373,0.311121
2020-07-16 07:45:00,17.727222,27.071276,128.049,0.5141819999999999
2020-07-16 08:15:00,17.9255556666667,27.1070653333333,149.389,0.29387
2020-07-16 08:45:00,18.1816666666667,27.125865,180.899,0.332575
2020-07-16 09:15:00,18.486111,27.1630756666667,238.09,0.26108400000000004
2020-07-16 09:45:00,18.8166666666667,27.204811,268.587,0.29992
2020-07-16 10:15:00,19.1861113333333,27.2246093333333,356.304,0.306796
2020-07-16 10:45:00,19.5866663333333,27.238444,482.414,0.25839100000000004
2020-07-16 11:15:00,19.9850003333333,27.2532346666667,599.541,0.276927
2020-07-16 11:45:00,20.3772226666667,27.2664453333333,660.798,0.31558600000000003
2020-07-16 12:15:00,20.6166663333333,27.2718686666667,673.861,0.37092499999999995
2020-07-16 12:45:00,20.7416663333333,27.2696806666667,732.056,0.27452899999999997
2020-07-16 13:15:00,20.8749996666667,27.2665343333333,790.644,0.37794
2020-07-16 13:45:00,20.902222,27.2565593333333,813.638,0.402132
2020-07-16 14:15:00,20.7855553333333,27.241247,803.794,0.458648
2020-07-16 14:45:00,20.6927776666667,27.231529,812.982,0.475085
2020-07-16 15:15:00,20.7655556666667,27.2303913333333,822.492,0.355096
2020-07-16 15:45:00,20.8588886666667,27.2268,825.293,-0.09662190000000001
2020-07-16 16:15:00,20.848889,27.217076,809.722,
2020-07-16 16:45:00,20.6466663333333,27.1942933333333,787.311,0.309359
2020-07-16 17:15:00,20.397222,27.1614093333333,733.69,0.247873
2020-07-16 17:45:00,20.1322223333333,27.1332413333333,707.941,0.312317
2020-07-16 18:15:00,19.923889,27.119453,691.684,0.409229
2020-07-16 18:45:00,19.732778,27.108735,656.323,0.356488
2020-07-16 19:15:00,19.5138883333333,27.1018806666667,606.027,0.409321
2020-07-16 19:45:00,19.251111,27.0835916666667,551.627,0.20819100000000001
2020-07-16 20:15:00,19.0705556666667,27.056676,502.069,
2020-07-16 20:45:00,18.9016673333333,27.0292096666667,458.628,
2020-07-16 21:15:00,18.788334,27.0085096666667,356.668,
2020-07-16 21:45:00,18.6983333333333,26.9956443333333,351.055,
2020-07-16 22:15:00,18.603889,26.986474,296.588,
2020-07-16 22:45:00,18.4894446666667,26.9727993333333,244.216,
2020-07-16 23:15:00,18.4,26.9730656666667,218.524,
2020-07-16 23:45:00,18.3605553333333,26.9718306666667,206.409,
2020-07-17 00:15:00,18.2744446666667,26.975888,192.753,0.383013
2020-07-17 00:45:00,18.166111,26.975534,189.614,0.12791699999999998
2020-07-17 01:15:00,18.0594446666667,26.98118,177.132,
2020-07-17 01:45:00,18.0,26.987887,167.257,
2020-07-17 02:15:00,17.9444443333333,26.990446,160.693,
2020-07-17 02:45:00,17.9,26.9942363333333,153.5,
2020-07-17 03:15:00,17.855,27.001021,153.918,
2020-07-17 03:45:00,17.8,27.0067483333333,151.744,
2020-07-17 04:15:00,17.76,27.015118,140.409,
2020-07-17 04:45:00,17.7,27.021635,140.944,0.29492100000000004
2020-07-17 05:15:00,17.686111,27.0361673333333,132.01,
2020-07-17 05:45:00,17.6005556666667,27.040305,124.696,0.727038
2020-07-17 06:15:00,17.6,27.0654706666667,116.668,0.266341
2020-07-17 06:45:00,17.6127776666667,27.0890453333333,116.521,0.224747
2020-07-17 07:15:00,17.7061113333333,27.0997696666667,105.382,0.26487299999999997
2020-07-17 07:45:00,17.8283333333333,27.106362,114.063,0.20388
2020-07-17 08:15:00,17.9400003333333,27.112689,131.933,0.198128
2020-07-17 08:45:00,18.0394446666667,27.1198926666667,155.157,0.22750700000000001
2020-07-17 09:15:00,18.282778,27.127886,169.193,0.378041
2020-07-17 09:45:00,18.5583336666667,27.149566,251.283,0.341249
2020-07-17 10:15:00,18.887222,27.1769343333333,315.9,0.431334
2020-07-17 10:45:00,19.3288886666667,27.2077903333333,384.654,-0.225717
2020-07-17 11:15:00,19.9744446666667,27.2266253333333,493.016,
2020-07-17 11:45:00,20.4366663333333,27.2355563333333,546.287,0.178261
2020-07-17 12:15:00,20.7222223333333,27.2469346666667,591.013,0.270855
2020-07-17 12:45:00,20.9394443333333,27.25481,635.296,0.175792
2020-07-17 13:15:00,21.4844443333333,27.277463,753.724,-0.29107900000000003
2020-07-17 13:45:00,22.3572223333333,27.312942,799.648,0.17297600000000002
2020-07-17 14:15:00,22.9122223333333,27.3259596666667,806.715,0.21552100000000002
2020-07-17 14:45:00,23.0616663333333,27.322202,794.48,0.412866
2020-07-17 15:15:00,22.8233336666667,27.304469,771.738,0.252557
2020-07-17 15:45:00,22.526667,27.2697686666667,775.838,0.313555
2020-07-17 16:15:00,22.2922223333334,27.243871,782.934,0.353289
2020-07-17 16:45:00,22.123889,27.22645,793.786,0.360655
2020-07-17 17:15:00,22.2111116666667,27.2204066666667,824.232,0.25310900000000003
2020-07-17 17:45:00,22.3722223333333,27.215151,854.193,0.25147499999999995
2020-07-17 18:15:00,22.256111,27.1988516666667,738.463,0.13975500000000002
2020-07-17 18:45:00,21.8816666666667,27.16141,757.262,0.249318
2020-07-17 19:15:00,21.6333333333333,27.1318363333333,771.348,0.314792
2020-07-17 19:45:00,21.3249996666667,27.1151483333333,678.098,0.19942700000000002
2020-07-17 20:15:00,20.9744443333333,27.0990676666667,618.402,0.24588000000000002
2020-07-17 20:45:00,20.6549996666667,27.0798123333333,617.386,0.29196
2020-07-17 21:15:00,20.3777773333333,27.043825,578.914,0.33988300000000005
2020-07-17 21:45:00,20.110556,27.011241,552.279,0.321004
2020-07-17 22:15:00,19.8722226666667,26.99009,438.425,
2020-07-17 22:45:00,19.6277776666667,26.978711,327.621,
2020-07-17 23:15:00,19.2727773333333,26.960891,286.289,
2020-07-17 23:45:00,18.9205556666667,26.933522,247.623,
2020-07-18 00:15:00,18.5427776666667,26.900041,210.604,
2020-07-18 00:45:00,18.2277776666667,26.881296,192.958,
2020-07-18 01:15:00,17.9172223333333,26.8703313333334,170.266,
2020-07-18 01:45:00,17.6266663333333,26.8649343333333,153.778,
2020-07-18 02:15:00,17.3788886666667,26.85334,131.791,
2020-07-18 02:45:00,17.1466666666667,26.8267736666667,135.191,0.445705
2020-07-18 03:15:00,16.9538886666667,26.8023213333333,131.527,
2020-07-18 03:45:00,16.7583333333333,26.7815706666667,119.209,
2020-07-18 04:15:00,16.5805556666667,26.7662236666667,104.3,
2020-07-18 04:45:00,16.3777776666667,26.7555746666667,104.365,
2020-07-18 05:15:00,16.2244446666667,26.7546876666667,111.013,
2020-07-18 05:45:00,16.0566666666667,26.7537996666667,106.227,
2020-07-18 06:15:00,16.0,26.7482963333333,78.0634,
2020-07-18 06:45:00,16.0016666666667,26.7450996666667,41.182,
2020-07-18 07:15:00,16.1244446666667,26.7452776666667,142.357,
2020-07-18 07:45:00,16.2661113333333,26.746432,286.868,0.394208
2020-07-18 08:15:00,16.4316666666667,26.7482973333333,418.875,0.36562500000000003
2020-07-18 08:45:00,16.678333,26.750693,540.973,-0.358855
2020-07-18 09:15:00,16.95,26.7526456666667,676.568,-0.326715
2020-07-18 09:45:00,17.2733333333333,26.7546876666667,835.068,-0.721963
2020-07-18 10:15:00,17.7883333333333,26.7636493333333,988.349,
2020-07-18 10:45:00,18.3627776666667,26.7907946666667,1164.67,-0.643873
2020-07-18 11:15:00,18.834445,26.796381,1216.27,-0.46087500000000003
2020-07-18 11:45:00,19.208889,26.8205726666667,1338.99,-0.766491
2020-07-18 12:15:00,19.8238893333333,26.8375786666667,1407.5,-1.1237300000000001
2020-07-18 12:45:00,20.8744446666667,26.8591823333334,1496.0,-0.8939199999999999
2020-07-18 13:15:00,22.3883336666667,26.907281,1530.63,-0.844098
2020-07-18 13:45:00,24.1,26.986023,1577.52,-0.510755
2020-07-18 14:15:00,25.5111113333333,27.0610733333333,1625.99,-0.7743789999999999
2020-07-18 14:45:00,26.385,27.0851766666667,1658.99,-0.613598
2020-07-18 15:15:00,26.355556,27.0730393333333,1682.53,-0.8437
2020-07-18 15:45:00,25.8105553333333,27.0172283333333,1702.5,0.61859
2020-07-18 16:15:00,26.015,27.0005793333333,1731.84,-0.491131
2020-07-18 16:45:00,26.4744436666667,27.002693,1722.82,-0.44751300000000005
2020-07-18 17:15:00,26.6744436666667,26.983032,1598.12,-0.37620200000000004
2020-07-18 17:45:00,26.597778,26.9590363333333,1580.26,-0.374992
2020-07-18 18:15:00,26.26,26.9108193333333,1557.49,0.300628
2020-07-18 18:45:00,25.6877776666667,26.8559033333333,1478.52,0.28684499999999996
2020-07-18 19:15:00,24.9099993333333,26.787591,1371.01,0.362993
2020-07-18 19:45:00,24.052222,26.701917,1109.67,
2020-07-18 20:15:00,23.1216663333333,26.6256523333333,1029.2,
2020-07-18 20:45:00,22.2733333333333,26.562342,744.932,
2020-07-18 21:15:00,21.523333,26.4997306666667,640.461,
2020-07-18 21:45:00,20.8572216666667,26.4455053333333,531.734,
2020-07-18 22:15:00,20.2666663333333,26.3878003333333,445.301,
2020-07-18 22:45:00,19.73,26.3582783333333,388.226,
2020-07-18 23:15:00,19.2172226666667,26.300334,317.103,
2020-07-18 23:45:00,18.8044443333333,26.2580596666667,255.752,
2020-07-19 00:15:00,18.4116666666667,26.23077,237.005,
2020-07-19 00:45:00,18.0644443333333,26.17731,202.558,
2020-07-19 01:15:00,17.7577773333333,26.1420253333333,197.395,
2020-07-19 01:45:00,17.4833333333333,26.1281146666667,188.171,
2020-07-19 02:15:00,17.2022223333333,26.1103093333333,162.939,
2020-07-19 02:45:00,16.9494443333333,26.075222,153.133,
2020-07-19 03:15:00,16.7072216666667,26.032408,138.14,
2020-07-19 03:45:00,16.4711113333333,26.0140106666667,150.13,
2020-07-19 04:15:00,16.273889,26.0052183333333,114.513,
2020-07-19 04:45:00,16.041667,25.9902586666667,117.624,
2020-07-19 05:15:00,15.8477773333333,25.9599553333333,125.956,
2020-07-19 05:45:00,15.656111,25.9272653333333,136.273,
2020-07-19 06:15:00,15.6,25.90028,75.6488,
2020-07-19 06:45:00,15.6,25.890546,137.122,
2020-07-19 07:15:00,15.6755556666667,25.886906,238.859,0.528569
2020-07-19 07:45:00,15.845555,25.8839036666667,373.449,0.771469
2020-07-19 08:15:00,16.0172223333333,25.8835396666667,565.238,
2020-07-19 08:45:00,16.2711106666667,25.883994,772.247,-0.29575100000000004
2020-07-19 09:15:00,16.5744443333333,25.889272,921.742,0.831342
2020-07-19 09:45:00,16.966667,25.8985523333333,1091.07,-0.400962
2020-07-19 10:15:00,17.531667,25.9199063333333,1227.15,
2020-07-19 10:45:00,18.146111,25.9636763333333,1343.66,
2020-07-19 11:15:00,18.651111,25.9915283333333,1489.98,
2020-07-19 11:45:00,19.1111116666667,26.00105,1621.98,-0.627762
2020-07-19 12:15:00,19.7711106666667,26.0122883333333,1676.36,-0.6308149999999999
2020-07-19 12:45:00,20.9955553333333,26.059652,1576.24,-0.534821
2020-07-19 13:15:00,22.8277783333333,26.1370476666667,1594.83,-0.390179
2020-07-19 13:45:00,24.7844446666667,26.245887,1803.57,-0.52783
2020-07-19 14:15:00,26.3777783333333,26.352348,1869.83,-0.343815
2020-07-19 14:45:00,27.4083333333333,26.4149633333333,1929.76,0.185312
2020-07-19 15:15:00,27.4738886666667,26.4099416666667,2050.83,-0.311488
2020-07-19 15:45:00,26.980555,26.3604316666667,2218.87,-0.31494599999999995
2020-07-19 16:15:00,27.2500003333333,26.3622266666667,2299.62,0.18502300000000002
2020-07-19 16:45:00,27.8083333333333,26.3855576666667,2269.22,
2020-07-19 17:15:00,28.0988896666667,26.3729956666667,2239.96,0.286755
2020-07-19 17:45:00,28.0,26.3452603333333,2118.17,
2020-07-19 18:15:00,27.5566663333333,26.2866613333333,2076.83,0.305794
2020-07-19 18:45:00,26.8388886666667,26.2061636666667,1834.46,
2020-07-19 19:15:00,25.9600006666667,26.1243116666667,1411.83,
2020-07-19 19:45:00,25.163889,26.0654463333333,1331.31,
2020-07-19 20:15:00,24.420555,25.9962403333333,1062.65,
2020-07-19 20:45:00,23.6322223333333,25.9227186666667,759.194,
2020-07-19 21:15:00,22.8883336666667,25.8655276666667,619.073,
2020-07-19 21:45:00,22.250555,25.805598,534.126,
2020-07-19 22:15:00,21.6766666666667,25.757533,450.671,
2020-07-19 22:45:00,21.1644443333333,25.7159763333333,403.921,
2020-07-19 23:15:00,20.699444,25.6454573333334,340.3,
2020-07-19 23:45:00,20.271111,25.6093713333333,292.854,
2020-07-20 00:15:00,19.8644446666667,25.5646196666667,271.936,
2020-07-20 00:45:00,19.47,25.5181656666667,234.459,
2020-07-20 01:15:00,19.1111116666667,25.4979456666667,244.276,
2020-07-20 01:45:00,18.811111,25.4822226666667,207.937,
2020-07-20 02:15:00,18.5222223333333,25.44726,204.761,
2020-07-20 02:45:00,18.2705556666667,25.4031433333333,170.226,
2020-07-20 03:15:00,17.9877773333333,25.3790816666667,161.014,
2020-07-20 03:45:00,17.7311113333333,25.3665363333333,152.797,
2020-07-20 04:15:00,17.4972223333333,25.3536206666667,135.505,
2020-07-20 04:45:00,17.2605553333333,25.327681,134.831,
2020-07-20 05:15:00,17.0783333333333,25.2861876666667,150.428,
2020-07-20 05:45:00,16.9250003333333,25.253538,125.147,
2020-07-20 06:15:00,16.8094443333333,25.2399356666667,93.3937,0.31478799999999996
2020-07-20 06:45:00,16.8277773333333,25.237899,188.378,
2020-07-20 07:15:00,16.9377776666667,25.2364186666667,304.938,
2020-07-20 07:45:00,17.0622223333333,25.235771,486.943,
2020-07-20 08:15:00,17.2233333333333,25.235679,730.611,0.26478199999999996
2020-07-20 08:45:00,17.4594443333333,25.2361406666667,910.968,-0.385995
2020-07-20 09:15:00,17.7400003333333,25.2394736666667,1104.04,0.330434
2020-07-20 09:45:00,18.075556,25.2483583333333,1291.58,-0.293329
2020-07-20 10:15:00,18.628889,25.268526,1488.54,
2020-07-20 10:45:00,19.179444,25.3075416666667,1657.36,
2020-07-20 11:15:00,19.7183333333333,25.3375616666667,1650.15,-0.46283799999999997
2020-07-20 11:45:00,20.172778,25.352697,1644.8,-0.5006010000000001
2020-07-20 12:15:00,21.0122223333333,25.3723483333333,1841.79,-0.516225
2020-07-20 12:45:00,22.438333,25.4456853333333,2006.22,-0.51373
2020-07-20 13:15:00,24.4238893333333,25.5424886666667,2123.78,-0.631974
2020-07-20 13:45:00,26.320556,25.663017,2219.4,-0.5603859999999999
2020-07-20 14:15:00,27.8033336666667,25.769476,2349.36,-0.446722
2020-07-20 14:45:00,28.7805553333333,25.8428616666667,2450.36,-0.387347
2020-07-20 15:15:00,28.815555,25.831839,2558.64,-0.548891
2020-07-20 15:45:00,28.239445,25.7571623333333,2613.52,-0.404956
2020-07-20 16:15:00,28.4472213333333,25.7437483333333,2655.96,-0.200144
2020-07-20 16:45:00,28.9072223333333,25.7629153333333,2667.6,0.178046
2020-07-20 17:15:00,29.0916666666667,25.7459376666667,2525.77,-0.202663
2020-07-20 17:45:00,28.9949993333333,25.7165273333333,2403.86,-0.164275
2020-07-20 18:15:00,28.6333336666667,25.668429,2372.54,-0.134464
2020-07-20 18:45:00,28.0466666666667,25.593509,2071.48,-0.0578585
2020-07-20 19:15:00,27.2305556666667,25.515216,1917.61,
2020-07-20 19:45:00,26.3788883333333,25.4355643333333,1383.54,
2020-07-20 20:15:00,25.5538886666667,25.362935,986.581,
2020-07-20 20:45:00,24.806111,25.2932106666667,852.354,
2020-07-20 21:15:00,24.123889,25.2130773333333,738.05,
2020-07-20 21:45:00,23.47,25.145575,617.991,
2020-07-20 22:15:00,22.8944443333333,25.098499,514.253,
2020-07-20 22:45:00,22.392778,25.054702,524.059,
2020-07-20 23:15:00,21.947222,24.9901763333333,415.416,
2020-07-20 23:45:00,21.5955556666667,24.9494313333333,432.159,
2020-07-21 00:15:00,21.2611113333333,24.898734,439.022,
2020-07-21 00:45:00,20.9283336666667,24.8559266666667,337.995,
2020-07-21 01:15:00,20.613333,24.8330993333333,315.71,
2020-07-21 01:45:00,20.313333,24.80932,294.996,
2020-07-21 02:15:00,20.0566666666667,24.7645286666667,269.742,
2020-07-21 02:45:00,19.8588886666667,24.7237246666667,261.265,0.464934
2020-07-21 03:15:00,19.6944443333333,24.70326,242.935,
2020-07-21 03:45:00,19.5472216666667,24.6854093333333,283.901,
2020-07-21 04:15:00,19.4016666666667,24.6161973333333,226.521,0.632192
2020-07-21 04:45:00,19.398889,24.613091,214.263,
2020-07-21 05:15:00,19.3288893333333,24.606313,208.629,
2020-07-21 05:45:00,19.2966663333333,24.6029223333333,197.484,
2020-07-21 06:15:00,19.2,24.594542,206.901,
2020-07-21 06:45:00,19.2700003333333,24.5885146666667,228.11,0.341262
2020-07-21 07:15:00,19.3805556666667,24.590964,233.45,0.23941199999999999
2020-07-21 07:45:00,19.5338886666667,24.5965206666667,243.669,
2020-07-21 08:15:00,19.736111,24.610173,365.535,0.229818
2020-07-21 08:45:00,20.0444443333333,24.6461126666667,591.011,0.274782
2020-07-21 09:15:00,20.4527773333333,24.682781,723.65,-0.125637
2020-07-21 09:45:00,20.7977776666667,24.696685,794.747,-0.160913
2020-07-21 10:15:00,21.132778,24.706452,880.586,-0.15570499999999998
2020-07-21 10:45:00,21.451667,24.7275713333333,1016.02,-0.179773
2020-07-21 11:15:00,21.7599996666667,24.7495266666667,1166.71,-0.25123700000000004
2020-07-21 11:45:00,22.1077783333333,24.7825256666667,1371.16,
2020-07-21 12:15:00,22.79,24.8257046666667,1512.19,-0.453625
2020-07-21 12:45:00,23.7,24.8701373333333,1623.5,-0.30036
2020-07-21 13:15:00,24.911111,24.9534343333333,1789.04,-0.450399
2020-07-21 13:45:00,26.156667,25.0477183333333,1975.54,-0.39740400000000003
2020-07-21 14:15:00,27.052222,25.107325,1832.25,0.14784
2020-07-21 14:45:00,26.751667,25.0664203333333,1197.49,0.303752
2020-07-21 15:15:00,25.946111,24.9649043333333,683.284,0.321878
2020-07-21 15:45:00,25.318889,24.904247,586.193,0.095767
2020-07-21 16:15:00,24.8349996666667,24.8541466666667,579.777,
2020-07-21 16:45:00,24.3522216666667,24.8035126666667,488.222,
2020-07-21 17:15:00,23.936111,24.7716543333333,380.601,
2020-07-21 17:45:00,23.9472226666667,24.7817753333333,485.368,0.106891
2020-07-21 18:15:00,24.3883333333333,24.8175626666667,843.015,
2020-07-21 18:45:00,24.5272216666667,24.824114,912.596,0.09961930000000001
2020-07-21 19:15:00,24.3511113333333,24.8101653333333,927.374,
2020-07-21 19:45:00,24.0805553333333,24.789367,707.595,
2020-07-21 20:15:00,23.659444,24.7487746666667,541.442,
2020-07-21 20:45:00,23.1977776666667,24.709363,390.992,
2020-07-21 21:15:00,22.772222,24.6809006666667,314.372,
2020-07-21 21:45:00,22.3877776666667,24.6425393333333,274.378,
2020-07-21 22:15:00,22.0566666666667,24.605749,280.212,
2020-07-21 22:45:00,21.7766666666667,24.5809776666667,234.454,
2020-07-21 23:15:00,21.56,24.566088,234.921,
2020-07-21 23:45:00,21.368333,24.557511,209.092,
2020-07-22 00:15:00,21.2638886666667,24.550534,215.086,
2020-07-22 00:45:00,21.1661113333333,24.5342193333333,228.299,0.7129080000000001
2020-07-22 01:15:00,21.0622223333333,24.5174216666667,262.352,
2020-07-22 01:45:00,20.937222,24.5039243333333,257.071,
2020-07-22 02:15:00,20.8644443333333,24.4918406666667,235.33,
2020-07-22 02:45:00,20.7449993333333,24.4789973333333,216.021,
2020-07-22 03:15:00,20.651111,24.465295,215.788,
2020-07-22 03:45:00,20.568889,24.4583963333333,205.23,
2020-07-22 04:15:00,20.4955553333333,24.449888,198.728,
2020-07-22 04:45:00,20.3894443333333,24.4461086666667,199.978,
2020-07-22 05:15:00,20.2927773333333,24.444123,162.67,
2020-07-22 05:45:00,20.1844436666667,24.436463,172.344,
2020-07-22 06:15:00,20.1005556666667,24.4329626666667,169.918,
2020-07-22 06:45:00,20.1133333333333,24.434666,154.781,
2020-07-22 07:15:00,20.208333,24.437787,160.82,
2020-07-22 07:45:00,20.3533326666667,24.4450683333333,233.998,
2020-07-22 08:15:00,20.464444,24.4498883333333,442.999,
2020-07-22 08:45:00,20.707222,24.4600026666667,525.135,
2020-07-22 09:15:00,20.8616663333333,24.466524,487.142,
2020-07-22 09:45:00,20.9949996666667,24.4822076666667,614.219,
2020-07-22 10:15:00,21.3816666666667,24.525253,807.162,-0.307363
2020-07-22 10:45:00,21.7722223333333,24.5585473333333,1026.31,
2020-07-22 11:15:00,22.0044446666667,24.5691043333333,1131.53,-0.290582
2020-07-22 11:45:00,22.2616666666667,24.5822013333333,1229.51,-0.443059
2020-07-22 12:15:00,22.8222226666667,24.615251,1385.87,
2020-07-22 12:45:00,23.948889,24.6948913333333,1520.76,-0.49032800000000004
2020-07-22 13:15:00,25.169444,24.7879553333333,1669.05,-0.595465
2020-07-22 13:45:00,26.402222,24.8757436666667,1631.5,-0.307675
2020-07-22 14:15:00,26.622778,24.8601243333333,1280.16,
2020-07-22 14:45:00,26.136111,24.7976113333333,755.548,0.0418958
2020-07-22 15:15:00,25.681667,24.7614336666667,821.014,
2020-07-22 15:45:00,25.2327773333333,24.6888836666667,542.825,0.295317
2020-07-22 16:15:00,24.8344446666667,24.660128,425.226,0.06659860000000001
2020-07-22 16:45:00,24.860555,24.6632313333333,458.368,0.18153399999999997
2020-07-22 17:15:00,24.5955556666667,24.646021,375.032,0.319307
2020-07-22 17:45:00,24.1849996666667,24.656555,261.338,0.0531246
2020-07-22 18:15:00,23.9822223333333,24.6856896666667,232.673,0.040111999999999995
2020-07-22 18:45:00,24.0522216666667,24.7632106666667,270.991,0.137676
2020-07-22 19:15:00,24.081111,24.8284193333333,333.182,
2020-07-22 19:45:00,23.920556,24.8689226666667,351.814,
2020-07-22 20:15:00,23.505,24.8910763333333,477.499,
2020-07-22 20:45:00,23.0427776666667,24.90182,420.353,0.291653
2020-07-22 21:15:00,22.6027776666667,24.909573,314.12,
2020-07-22 21:45:00,22.1911113333333,24.925353,281.322,
2020-07-22 22:15:00,21.793889,24.93814,219.609,
2020-07-22 22:45:00,21.4294443333333,24.9432733333333,214.809,
2020-07-22 23:15:00,21.0344443333333,24.949899,261.573,
2020-07-22 23:45:00,20.825,24.9558686666667,269.976,0.5770299999999999
2020-07-23 00:15:00,20.611667,24.9633303333333,283.515,0.328615
2020-07-23 00:45:00,20.4183333333333,24.9669683333333,235.64,
2020-07-23 01:15:00,20.2038883333333,24.9730283333333,241.276,
2020-07-23 01:45:00,19.9988883333333,24.9743323333333,193.238,
2020-07-23 02:15:00,19.7844446666667,24.9772226666667,191.39,
2020-07-23 02:45:00,19.617778,24.982256,173.749,
2020-07-23 03:15:00,19.4016663333333,24.9870086666667,198.071,
2020-07-23 03:45:00,19.237778,24.9898056666667,174.965,
2020-07-23 04:15:00,19.1138886666667,25.0017346666667,141.189,
2020-07-23 04:45:00,18.9311113333333,25.002853,140.698,
2020-07-23 05:15:00,18.7644443333333,25.0086266666667,156.911,
2020-07-23 05:45:00,18.6961106666667,25.014494,112.061,-0.185308
2020-07-23 06:15:00,18.6961106666667,25.0277153333333,105.731,
2020-07-23 06:45:00,18.7,25.0481916666667,74.7393,
2020-07-23 07:15:00,18.8194446666667,25.07777,116.615,
2020-07-23 07:45:00,19.0505553333333,25.0962696666667,199.024,
2020-07-23 08:15:00,19.215,25.103799,294.425,
2020-07-23 08:45:00,19.4016666666667,25.1128063333333,425.629,
2020-07-23 09:15:00,19.6472223333333,25.1258063333333,543.496,0.322494
2020-07-23 09:45:00,19.8977776666667,25.147713,676.653,
2020-07-23 10:15:00,20.3011106666667,25.193899,845.501,0.186327
2020-07-23 10:45:00,20.6927776666667,25.234289,1041.94,
2020-07-23 11:15:00,21.0522223333333,25.268064,1403.17,
2020-07-23 11:45:00,21.2816666666667,25.302089,1639.44,-0.453199
2020-07-23 12:15:00,21.6022223333333,25.3322063333333,1705.88,-0.456337
2020-07-23 12:45:00,22.6305556666667,25.3750183333333,1863.71,
2020-07-23 13:15:00,24.3416666666667,25.4766956666667,1998.34,-0.513775
2020-07-23 13:45:00,25.7272216666667,25.577366,1934.09,-1.28848
2020-07-23 14:15:00,26.8400003333333,25.6681523333333,2041.2,-0.54343
2020-07-23 14:45:00,27.4133326666667,25.7120503333333,1992.48,-0.7000529999999999
2020-07-23 15:15:00,27.192222,25.700533,1992.35,-0.7260030000000001
2020-07-23 15:45:00,26.8099996666667,25.6707233333333,2217.67,-0.37514200000000003
2020-07-23 16:15:00,27.0738893333333,25.6786816666667,2098.47,-0.31970099999999996
2020-07-23 16:45:00,27.3838886666666,25.6914853333333,1980.55,0.22218
2020-07-23 17:15:00,27.479444,25.6833473333333,1927.52,-0.232795
2020-07-23 17:45:00,27.4572223333333,25.6660556666667,1969.77,0.45260199999999995
2020-07-23 18:15:00,27.2027776666667,25.6226556666667,2002.29,-0.283011
2020-07-23 18:45:00,26.7166666666667,25.5672806666667,1983.81,0.27473
2020-07-23 19:15:00,25.9938886666667,25.495276,1682.07,-0.16629000000000002
2020-07-23 19:45:00,25.2599996666667,25.4251586666667,1421.69,
2020-07-23 20:15:00,24.5394443333333,25.3595233333333,1078.88,
2020-07-23 20:45:00,23.8961116666667,25.2960753333333,1020.51,
2020-07-23 21:15:00,23.3149996666667,25.2335446666667,844.374,
2020-07-23 21:45:00,22.865555,25.1843503333333,752.628,
2020-07-23 22:15:00,22.4722223333333,25.1328623333333,615.587,
2020-07-23 22:45:00,22.106111,25.0990563333333,616.411,
2020-07-23 23:15:00,21.785,25.072657,507.846,
2020-07-23 23:45:00,21.5866666666667,25.0229623333333,487.658,
2020-07-24 00:15:00,21.3477776666667,24.976756,375.24,
2020-07-24 00:45:00,21.1127776666667,24.9535366666667,285.721,
2020-07-24 01:15:00,20.8711113333333,24.926005,294.813,
2020-07-24 01:45:00,20.682222,24.890795,260.388,
2020-07-24 02:15:00,20.495,24.8602296666667,223.061,
2020-07-24 02:45:00,20.341111,24.84386,215.852,
2020-07-24 03:15:00,20.1977773333333,24.8333813333333,227.305,
2020-07-24 03:45:00,20.0783333333333,24.8209313333333,235.765,
2020-07-24 04:15:00,19.9372216666667,24.7983623333333,241.099,
2020-07-24 04:45:00,19.757222,24.768843,217.001,
2020-07-24 05:15:00,19.604445,24.7412716666667,204.406,
2020-07-24 05:45:00,19.4166666666667,24.722598,202.61,
2020-07-24 06:15:00,19.3583343333333,24.712933,201.044,
2020-07-24 06:45:00,19.3955553333333,24.7053256666667,202.729,
2020-07-24 07:15:00,19.4172226666667,24.707204,271.04,0.435757
2020-07-24 07:45:00,19.6344443333333,24.7099276666667,365.352,
2020-07-24 08:15:00,19.8233336666667,24.7138716666667,413.988,
2020-07-24 08:45:00,19.928333,24.710023,352.109,
2020-07-24 09:15:00,20.0105553333333,24.707861,333.481,
2020-07-24 09:45:00,20.0966663333333,24.7088013333333,481.761,0.0906711
2020-07-24 10:15:00,20.1,24.7099286666667,520.823,-0.186388
2020-07-24 10:45:00,20.2661113333333,24.7180936666667,566.499,0.18188300000000002
2020-07-24 11:15:00,20.6877776666667,24.7478356666667,878.57,
2020-07-24 11:45:00,21.1388886666667,24.7850566666667,1235.97,
2020-07-24 12:15:00,21.6472226666667,24.816812,1264.38,
2020-07-24 12:45:00,22.0355553333333,24.8311366666667,1289.41,-0.201288
2020-07-24 13:15:00,21.731111,24.8339406666667,748.199,
2020-07-24 13:45:00,21.0611113333333,24.90337,459.94,0.242618
2020-07-24 14:15:00,21.0155553333333,25.117403,528.982,0.117842
2020-07-24 14:45:00,21.0472223333333,25.3327113333333,522.747,0.176057
2020-07-24 15:15:00,21.0144443333333,25.5144596666667,591.044,
2020-07-24 15:45:00,21.28,25.6875156666667,590.024,-0.24975000000000003
2020-07-24 16:15:00,21.977223,25.862404,607.367,-0.259448
2020-07-24 16:45:00,22.7977776666667,26.0058446666667,566.517,-0.08151499999999999
2020-07-24 17:15:00,22.7227773333333,26.082096,510.74,0.273968
2020-07-24 17:45:00,22.1561113333333,26.113021,461.544,0.349239
2020-07-24 18:15:00,21.6449996666667,26.1333523333333,423.075,
2020-07-24 18:45:00,21.4772223333333,26.182629,487.083,
2020-07-24 19:15:00,21.2805553333333,26.2389683333333,448.445,
2020-07-24 19:45:00,21.0338886666667,26.2665186666667,353.041,0.2301
2020-07-24 20:15:00,20.723889,26.2976393333333,296.544,
2020-07-24 20:45:00,20.3622223333333,26.334219,275.535,
2020-07-24 21:15:00,20.0083333333333,26.3607916666667,236.164,
2020-07-24 21:45:00,19.673889,26.3751513333333,217.866,-0.117942
2020-07-24 22:15:00,19.3988893333333,26.3832283333333,210.774,
2020-07-24 22:45:00,19.215556,26.393093,194.346,
2020-07-24 23:15:00,19.1050003333333,26.4105746666667,187.064,
2020-07-24 23:45:00,18.9038886666667,26.434853,178.193,
2020-07-25 00:15:00,18.7072216666667,26.4602813333333,184.305,
2020-07-25 00:45:00,18.4672226666667,26.4793413333333,194.172,
2020-07-25 01:15:00,18.321111,26.4911476666667,160.831,
2020-07-25 01:45:00,18.148889,26.496514,161.862,
2020-07-25 02:15:00,18.0138886666667,26.499643,151.088,
2020-07-25 02:45:00,17.9133333333333,26.5029516666667,129.648,
2020-07-25 03:15:00,17.73,26.5075116666667,131.405,
2020-07-25 03:45:00,17.5483333333333,26.509568,125.465,
2020-07-25 04:15:00,17.371111,26.5146606666667,144.522,
2020-07-25 04:45:00,17.2172223333333,26.5196636666667,137.921,
2020-07-25 05:15:00,17.105,26.5243986666667,143.186,
2020-07-25 05:45:00,17.0233333333333,26.529135,102.519,
2020-07-25 06:15:00,17.0,26.540658,69.7405,
2020-07-25 06:45:00,17.072222,26.5569933333333,79.4948,
2020-07-25 07:15:00,17.1,26.574571,56.3644,
2020-07-25 07:45:00,17.1227773333333,26.5897373333333,201.751,
2020-07-25 08:15:00,17.2283333333333,26.6038226666667,266.246,
2020-07-25 08:45:00,17.4122223333333,26.6155,380.752,
2020-07-25 09:15:00,17.6294443333333,26.6225386666667,468.533,
2020-07-25 09:45:00,17.9383333333333,26.6283303333333,585.364,-0.563431
2020-07-25 10:15:00,18.366667,26.644715,702.76,-0.15795199999999998
2020-07-25 10:45:00,18.76,26.6964056666667,846.191,-0.40514700000000003
2020-07-25 11:15:00,19.1444443333333,26.731423,964.557,-0.5136729999999999
2020-07-25 11:45:00,19.5049993333333,26.7405706666667,1186.77,-0.448551
2020-07-25 12:15:00,20.0683336666667,26.7466096666667,1463.32,-0.523879
2020-07-25 12:45:00,21.3066666666667,26.788659,1664.16,-0.7850440000000001
2020-07-25 13:15:00,23.0711116666667,26.8623633333333,1870.94,-0.6454650000000001
2020-07-25 13:45:00,24.4722223333333,26.9116153333333,1815.32,-0.6292679999999999
2020-07-25 14:15:00,25.3916663333333,26.9452686666666,1901.34,-0.39653099999999997
2020-07-25 14:45:00,25.9483333333333,26.9583326666667,2027.38,-0.399559
2020-07-25 15:15:00,25.7144446666667,26.9353773333333,2163.09,-0.380586
2020-07-25 15:45:00,25.0944443333333,26.8761653333333,2145.61,0.310729
2020-07-25 16:15:00,25.3166663333333,26.8656423333333,2089.73,-0.467546
2020-07-25 16:45:00,25.65,26.862102,2080.74,
2020-07-25 17:15:00,25.6505556666667,26.8378416666667,2030.34,
2020-07-25 17:45:00,25.2838893333333,26.7890163333333,1926.09,-0.22842500000000002
2020-07-25 18:15:00,24.942778,26.7391486666667,1931.01,-0.204856
2020-07-25 18:45:00,24.56,26.6909836666667,1785.43,
2020-07-25 19:15:00,24.0661106666667,26.629037,1469.85,
2020-07-25 19:45:00,23.5211106666667,26.58251,964.112,
2020-07-25 20:15:00,22.9761113333333,26.5268096666667,792.275,
2020-07-25 20:45:00,22.454444,26.4864076666667,639.269,
2020-07-25 21:15:00,21.98,26.449537,521.357,
2020-07-25 21:45:00,21.5794446666667,26.4095873333333,457.102,
2020-07-25 22:15:00,21.2138886666667,26.3769446666667,437.029,
2020-07-25 22:45:00,20.8522216666667,26.3501106666667,334.99,
2020-07-25 23:15:00,20.5366666666667,26.301595,296.844,
2020-07-25 23:45:00,20.2416663333333,26.2738046666667,268.374,
2020-07-26 00:15:00,19.9794436666667,26.248426,266.682,
2020-07-26 00:45:00,19.7416666666667,26.2276176666667,237.264,
2020-07-26 01:15:00,19.558334,26.1905706666667,252.52,
2020-07-26 01:45:00,19.373889,26.1635986666667,249.189,
2020-07-26 02:15:00,19.2405556666667,26.1429276666667,227.651,
2020-07-26 02:45:00,19.148889,26.12947,217.396,
2020-07-26 03:15:00,19.0349996666667,26.123778,217.484,
2020-07-26 03:45:00,18.9705556666667,26.1102183333333,243.453,
2020-07-26 04:15:00,18.885556,26.0877973333333,341.426,
2020-07-26 04:45:00,18.8011113333333,26.0402843333333,359.843,
2020-07-26 05:15:00,18.8,26.0251623333333,222.839,
2020-07-26 05:45:00,18.7449996666667,26.017728,227.782,
2020-07-26 06:15:00,18.7,26.0129226666667,221.98,
2020-07-26 06:45:00,18.7,26.011472,208.83,0.406856
2020-07-26 07:15:00,18.7,26.0099313333333,288.598,0.39703900000000003
2020-07-26 07:45:00,18.7494446666667,26.0110186666667,551.606,
2020-07-26 08:15:00,18.943333,26.0119253333333,762.631,
2020-07-26 08:45:00,19.188889,26.017456,944.897,
2020-07-26 09:15:00,19.4850003333333,26.030597,1053.94,0.323077
2020-07-26 09:45:00,19.7511113333333,26.04083,1248.18,0.36058500000000004
2020-07-26 10:15:00,20.0455556666667,26.0581226666667,1394.12,-0.720219
2020-07-26 10:45:00,20.3655556666667,26.0766716666667,1606.7,-0.842527
2020-07-26 11:15:00,20.6683333333333,26.0783006666667,1729.22,-0.7160960000000001
2020-07-26 11:45:00,21.376111,26.0962963333333,1817.81,-0.795071
2020-07-26 12:15:00,22.2811113333333,26.1188056666667,1896.95,
2020-07-26 12:45:00,23.368889,26.145541,1701.14,-0.910914
2020-07-26 13:15:00,24.0761116666667,26.1765906666667,1749.34,-0.87276
2020-07-26 13:45:00,24.6155556666667,26.1885843333333,1886.74,-0.935111
2020-07-26 14:15:00,25.4994443333333,26.224192,1961.83,-1.16799
2020-07-26 14:45:00,26.2972216666667,26.243291,1978.01,-0.972902
2020-07-26 15:15:00,26.3038886666667,26.224281,2098.35,-1.01211
2020-07-26 15:45:00,26.0233333333333,26.1881356666667,2124.99,-0.895397
2020-07-26 16:15:00,26.1944443333333,26.1586333333333,2077.73,-0.636751
2020-07-26 16:45:00,26.403333,26.1473473333333,2137.46,0.603287
2020-07-26 17:15:00,26.4061113333333,26.1116636666667,2132.72,0.629513
2020-07-26 17:45:00,26.265555,26.070698,1972.79,-0.719708
2020-07-26 18:15:00,26.033889,26.01872,1939.43,-0.23593799999999998
2020-07-26 18:45:00,25.590556,25.9545046666667,1678.42,0.141007
2020-07-26 19:15:00,25.0311106666667,25.8884503333333,1296.13,0.232895
2020-07-26 19:45:00,24.4361113333333,25.8200866666667,1064.92,0.327006
2020-07-26 20:15:00,23.8694443333333,25.741554,756.422,
2020-07-26 20:45:00,23.3105553333333,25.6841653333333,740.567,
2020-07-26 21:15:00,22.821111,25.6252196666667,614.65,0.24486100000000002
2020-07-26 21:45:00,22.3966666666667,25.575629,556.427,
2020-07-26 22:15:00,22.0150003333333,25.518715,447.078,
2020-07-26 22:45:00,21.641111,25.482222,404.981,0.134092
2020-07-26 23:15:00,21.3038886666667,25.4402633333333,370.819,
2020-07-26 23:45:00,20.9927776666667,25.3931886666667,396.238,0.254031
2020-07-27 00:15:00,20.7144443333333,25.367553,308.184,
2020-07-27 00:45:00,20.4349996666667,25.346975,273.781,
2020-07-27 01:15:00,20.1627773333333,25.3014403333333,251.899,
2020-07-27 01:45:00,19.8933333333333,25.2541863333333,196.149,
2020-07-27 02:15:00,19.6355556666667,25.232253,202.581,
2020-07-27 02:45:00,19.3405556666667,25.2107646666667,176.222,
2020-07-27 03:15:00,19.132222,25.1681246666667,162.299,
2020-07-27 03:45:00,18.9022223333333,25.128684,153.362,
2020-07-27 04:15:00,18.7099996666667,25.1100203333333,140.539,
2020-07-27 04:45:00,18.4783333333333,25.1011036666667,135.401,
2020-07-27 05:15:00,18.328889,25.0811193333333,135.638,
2020-07-27 05:45:00,18.1633336666667,25.0460506666667,134.129,
2020-07-27 06:15:00,18.0411113333333,25.0143066666667,111.037,
2020-07-27 06:45:00,18.0005556666667,24.9944653333333,25.6571,
2020-07-27 07:15:00,18.0755553333333,24.9843996666667,139.071,
2020-07-27 07:45:00,18.1772223333333,24.9815096666667,364.762,
2020-07-27 08:15:00,18.3233336666667,24.981789,513.856,
2020-07-27 08:45:00,18.4700003333333,24.9836543333333,706.676,
2020-07-27 09:15:00,18.7072223333333,24.9898053333333,917.182,-0.227483
2020-07-27 09:45:00,18.9333333333333,25.005925,1025.28,
2020-07-27 10:15:00,19.2772223333333,25.0212896666667,1236.75,-0.235833
2020-07-27 10:45:00,19.7027773333333,25.062426,1448.97,-0.48945200000000005
2020-07-27 11:15:00,20.1011106666667,25.0813976666667,1730.07,-0.526919
2020-07-27 11:45:00,20.4366663333333,25.0880906666667,1808.56,-0.6185080000000001
2020-07-27 12:15:00,21.3000003333333,25.1109456666667,1920.47,-0.472275
2020-07-27 12:45:00,23.050556,25.203523,2080.24,-0.942209
2020-07-27 13:15:00,24.9844453333333,25.331361,2201.32,-0.750703
2020-07-27 13:45:00,26.490555,25.4217486666667,2242.72,-0.883336
2020-07-27 14:15:00,27.6222226666667,25.490863,2366.68,-1.1526399999999999
2020-07-27 14:45:00,28.3872223333333,25.5377286666667,2434.93,-0.766853
2020-07-27 15:15:00,28.232778,25.500421,2559.61,-1.00183
2020-07-27 15:45:00,27.5333333333333,25.4313316666667,2720.49,-0.7425440000000001
2020-07-27 16:15:00,27.647222,25.4103323333333,2819.28,-0.751077
2020-07-27 16:45:00,28.084444,25.4142936666667,2799.28,-0.73928
2020-07-27 17:15:00,28.2255563333333,25.394661,2890.71,-0.49634500000000004
2020-07-27 17:45:00,28.171667,25.351126,2887.04,-0.5965159999999999
2020-07-27 18:15:00,27.9027776666667,25.2996823333333,2806.32,-0.22861299999999998
2020-07-27 18:45:00,27.4255553333333,25.2221516666667,2628.11,-0.202689
2020-07-27 19:15:00,26.8027773333333,25.1484506666667,2490.5,0.156156
2020-07-27 19:45:00,26.14,25.0721876666667,1691.59,
2020-07-27 20:15:00,25.480556,24.990913,1258.16,
2020-07-27 20:45:00,24.8183333333333,24.9060176666667,991.941,
2020-07-27 21:15:00,24.216111,24.8356226666667,795.85,
2020-07-27 21:45:00,23.6538883333333,24.769119,682.059,
2020-07-27 22:15:00,23.1344443333333,24.7031613333333,731.64,
2020-07-27 22:45:00,22.7138883333333,24.648745,609.558,
2020-07-27 23:15:00,22.3288886666667,24.5898296666667,625.519,
2020-07-27 23:45:00,21.99,24.5509106666667,542.589,
2020-07-28 00:15:00,21.7077776666667,24.508265,505.21,
2020-07-28 00:45:00,21.5083333333333,24.466996,494.034,
2020-07-28 01:15:00,21.2983333333333,24.441285,453.585,
2020-07-28 01:45:00,21.1361106666667,24.4219886666667,448.704,
2020-07-28 02:15:00,20.9549996666667,24.40145,515.196,2.6002400000000003
2020-07-28 02:45:00,20.8266663333333,24.3678303333333,489.215,
2020-07-28 03:15:00,20.658889,24.3366503333333,523.664,0.930382
2020-07-28 03:45:00,20.5166663333333,24.318819,453.671,
2020-07-28 04:15:00,20.3933333333333,24.30487,560.312,
2020-07-28 04:45:00,20.2783336666667,24.293859,500.917,
2020-07-28 05:15:00,20.1355553333333,24.28332,426.001,
2020-07-28 05:45:00,20.0311116666667,24.2660326666667,438.178,
2020-07-28 06:15:00,19.9350003333333,24.2493106666667,581.212,0.23828
2020-07-28 06:45:00,19.910556,24.2355273333333,848.362,0.363059
2020-07-28 07:15:00,20.0194446666667,24.2355286666667,1166.79,
2020-07-28 07:45:00,20.1583336666667,24.2393303333333,1286.47,-0.195458
2020-07-28 08:15:00,20.3633333333333,24.248075,1492.39,-0.30603899999999995
2020-07-28 08:45:00,20.6,24.2600493333333,1682.9,0.26999100000000004
2020-07-28 09:15:00,20.8733333333333,24.2738203333333,1916.27,-0.454714
2020-07-28 09:45:00,21.1988886666667,24.28199,2127.03,-0.5627479999999999
2020-07-28 10:15:00,21.675,24.2957586666667,2161.31,-0.66543
2020-07-28 10:45:00,22.1122226666667,24.3149293333333,2252.96,-0.701381
2020-07-28 11:15:00,22.6572223333333,24.352761,2071.13,-0.460273
2020-07-28 11:45:00,23.317222,24.4325846666666,2086.72,-0.702001
2020-07-28 12:15:00,24.0622233333333,24.4731366666667,2145.77,-0.74905
2020-07-28 12:45:00,25.2061116666667,24.547881,2407.9,-1.03883
2020-07-28 13:15:00,26.4472216666667,24.6418803333333,2225.87,-0.590627
2020-07-28 13:45:00,26.723333,24.6494993333333,1287.67,-0.46680400000000005
2020-07-28 14:15:00,26.673888,24.627019,1304.74,-0.276197
2020-07-28 14:45:00,26.78,24.6262653333333,1254.34,1.61688
2020-07-28 15:15:00,27.2105556666667,24.646019,1116.74,1.5202499999999999
2020-07-28 15:45:00,27.269444,24.635765,1120.13,0.40804300000000004
2020-07-28 16:15:00,27.2944443333333,24.6243836666667,1189.72,
2020-07-28 16:45:00,27.333889,24.6131823333333,1135.96,
2020-07-28 17:15:00,27.0416666666667,24.5681593333333,1132.05,-0.24465599999999998
2020-07-28 17:45:00,26.728333,24.533176,1138.9,0.36588099999999996
2020-07-28 18:15:00,26.3555553333333,24.4887216666667,1105.26,
2020-07-28 18:45:00,25.9511106666667,24.441092,1104.43,
2020-07-28 19:15:00,25.6111116666667,24.400598,1290.45,
2020-07-28 19:45:00,25.2927776666667,24.365083,1307.42,0.19069
2020-07-28 20:15:00,24.9522223333333,24.325836,1286.87,0.220198
2020-07-28 20:45:00,24.5838886666667,24.284553,1221.47,0.293764
2020-07-28 21:15:00,24.206111,24.2482626666667,1146.54,
2020-07-28 21:45:00,23.9211113333333,24.2045196666667,915.411,
2020-07-28 22:15:00,23.704444,24.1641563333333,907.359,
2020-07-28 22:45:00,23.4500003333333,24.136425,1048.34,0.268281
2020-07-28 23:15:00,23.2394446666667,24.107438,979.727,
2020-07-28 23:45:00,23.0194443333333,24.072415,977.476,0.11118399999999999
2020-07-29 00:15:00,22.8022223333334,24.0424243333333,943.475,
2020-07-29 00:45:00,22.57,24.0186216666667,796.545,
2020-07-29 01:15:00,22.3661113333333,23.9996863333333,823.125,
2020-07-29 01:45:00,22.168889,23.973276,719.671,
2020-07-29 02:15:00,22.001111,23.9391833333333,632.19,
2020-07-29 02:45:00,21.7922223333333,23.9061146666667,583.119,0.873195
2020-07-29 03:15:00,21.621111,23.88482,529.732,
2020-07-29 03:45:00,21.4411113333333,23.86524,490.908,
2020-07-29 04:15:00,21.238889,23.8345103333333,558.682,-0.157573
2020-07-29 04:45:00,21.0438886666667,23.7992383333333,554.733,
2020-07-29 05:15:00,20.8349996666667,23.7735573333333,457.475,
2020-07-29 05:45:00,20.5933333333333,23.755176,424.876,
2020-07-29 06:15:00,20.3905553333333,23.740541,399.937,
2020-07-29 06:45:00,20.2561113333333,23.726091,458.273,
2020-07-29 07:15:00,20.2,23.7054676666667,722.566,0.357492
2020-07-29 07:45:00,20.2455553333333,23.695057,895.816,
2020-07-29 08:15:00,20.3555553333333,23.691008,1031.48,-0.300084
2020-07-29 08:45:00,20.479445,23.691394,1184.11,-0.261299
2020-07-29 09:15:00,20.627778,23.699105,1333.5,-0.361621
2020-07-29 09:45:00,20.7977776666667,23.712023,1201.02,-0.42699699999999996
2020-07-29 10:15:00,21.1316666666667,23.7286923333333,1250.79,-0.522594
2020-07-29 10:45:00,21.5094446666667,23.7424676666667,1399.3,-0.42526400000000003
2020-07-29 11:15:00,21.8788893333333,23.7584493333333,1459.58,-0.470948
2020-07-29 11:45:00,22.1622223333333,23.7733643333333,1638.7,-0.411223
2020-07-29 12:15:00,22.6072223333333,23.7995236666667,1781.99,-0.36984
2020-07-29 12:45:00,24.007223,23.905521,1787.43,-0.432834
2020-07-29 13:15:00,25.647778,24.0307436666667,1777.59,-0.623757
2020-07-29 13:45:00,27.2383333333333,24.1606173333333,1724.92,-0.507294
2020-07-29 14:15:00,28.2750006666667,24.2525326666667,1808.69,-0.442163
2020-07-29 14:45:00,29.3866666666667,24.3519043333333,2031.19,-0.46072799999999997
2020-07-29 15:15:00,29.679444,24.3610063333333,2157.26,-0.492516
2020-07-29 15:45:00,29.2394446666667,24.297178,2249.06,
2020-07-29 16:15:00,29.5511113333333,24.3049613333333,2210.4,-0.322823
2020-07-29 16:45:00,30.0683336666667,24.33532,2279.68,
2020-07-29 17:15:00,30.288332,24.3331393333333,2400.97,
2020-07-29 17:45:00,30.1977776666667,24.3027786666667,2155.12,
2020-07-29 18:15:00,29.857778,24.2527256666667,1871.77,-0.288536
2020-07-29 18:45:00,29.16,24.165477,1724.73,0.325231
2020-07-29 19:15:00,28.3422223333333,24.073073,1583.2,0.218344
2020-07-29 19:45:00,27.5138886666667,23.980352,1412.32,0.17658100000000002
2020-07-29 20:15:00,26.7577776666667,23.8970876666667,1036.25,
2020-07-29 20:45:00,26.0105553333333,23.8144236666667,814.994,
2020-07-29 21:15:00,25.3316666666667,23.7387043333333,727.261,
2020-07-29 21:45:00,24.7361113333333,23.6709406666667,736.577,
2020-07-29 22:15:00,24.2,23.6008396666667,703.81,
2020-07-29 22:45:00,23.7211106666667,23.541935,688.51,
2020-07-29 23:15:00,23.265556,23.4813953333333,732.411,
2020-07-29 23:45:00,22.8794443333333,23.4375506666667,681.357,
2020-07-30 00:15:00,22.5288886666667,23.3844256666667,624.252,
2020-07-30 00:45:00,22.2027776666667,23.3392106666667,521.194,
2020-07-30 01:15:00,21.9077776666667,23.3093316666667,499.854,
2020-07-30 01:45:00,21.611111,23.272897,416.778,
2020-07-30 02:15:00,21.3194443333333,23.226185,361.328,
2020-07-30 02:45:00,21.0366666666667,23.193095,335.716,
2020-07-30 03:15:00,20.7655553333333,23.1730726666667,297.019,
2020-07-30 03:45:00,20.493333,23.1435543333333,256.796,
2020-07-30 04:15:00,20.2394443333333,23.0984496666667,239.839,
2020-07-30 04:45:00,20.0166666666667,23.063294,216.426,
2020-07-30 05:15:00,19.7861113333333,23.040264,212.472,
2020-07-30 05:45:00,19.5950003333333,23.0249686666667,202.222,
2020-07-30 06:15:00,19.3994443333333,23.0017173333333,188.61,
2020-07-30 06:45:00,19.303334,22.966372,221.214,
2020-07-30 07:15:00,19.3044446666667,22.946333,459.986,
2020-07-30 07:45:00,19.3961113333333,22.9404393333333,770.482,
2020-07-30 08:15:00,19.5594446666667,22.939947,1073.28,1.39372
2020-07-30 08:45:00,19.731111,22.9474123333333,1283.29,-0.34302900000000003
2020-07-30 09:15:00,19.9583326666667,22.957926,1407.95,-0.258864
2020-07-30 09:45:00,20.216667,22.9882676666667,1370.48,
2020-07-30 10:15:00,20.601111,23.019573,1483.87,-0.503814
2020-07-30 10:45:00,20.9855553333333,23.0372243333333,1596.59,-0.544726
2020-07-30 11:15:00,21.421111,23.0596676666667,1688.03,
2020-07-30 11:45:00,21.8116666666667,23.0929696666667,1825.0,
2020-07-30 12:15:00,22.4111113333333,23.1435496666667,1952.0,-0.49856900000000004
2020-07-30 12:45:00,23.8088893333333,23.238659,2141.37,-0.7417009999999999
2020-07-30 13:15:00,25.4677776666667,23.3737113333333,2365.98,-0.455349
2020-07-30 13:45:00,27.251667,23.537458,2718.25,-0.5589689999999999
2020-07-30 14:15:00,28.8322233333333,23.6894476666667,2674.84,-0.548627
2020-07-30 14:45:00,30.0777776666667,23.8069226666667,2826.61,-0.412441
2020-07-30 15:15:00,30.4427776666667,23.830957,2931.19,-0.522159
2020-07-30 15:45:00,30.092778,23.7734573333333,3006.71,
2020-07-30 16:15:00,30.3466666666667,23.7849076666667,2715.98,
2020-07-30 16:45:00,30.8027773333333,23.8172166666667,2742.84,-0.31857100000000005
2020-07-30 17:15:00,31.0111116666667,23.8172176666667,2731.49,-0.205367
2020-07-30 17:45:00,30.9227776666667,23.778941,2540.35,-0.192094
2020-07-30 18:15:00,30.5505556666667,23.7172213333333,2296.31,-0.248739
2020-07-30 18:45:00,29.917223,23.631552,2026.68,-0.232315
2020-07-30 19:15:00,29.1555556666667,23.5408666666667,1853.98,-0.0857283
2020-07-30 19:45:00,28.3977776666667,23.445406,1653.45,
2020-07-30 20:15:00,27.668889,23.367605,1229.87,
2020-07-30 20:45:00,27.017778,23.2879,1053.51,
2020-07-30 21:15:00,26.4333333333333,23.224329,927.774,
2020-07-30 21:45:00,25.885555,23.163591,814.581,
2020-07-30 22:15:00,25.4122223333333,23.1107823333333,716.724,
2020-07-30 22:45:00,24.993889,23.047025,649.829,
2020-07-30 23:15:00,24.631111,23.0035813333333,630.126,
2020-07-30 23:45:00,24.2977776666667,22.9595936666667,504.391,
2020-07-31 00:15:00,23.9833336666667,22.9212673333333,437.865,
2020-07-31 00:45:00,23.6799996666667,22.8908733333333,412.385,
2020-07-31 01:15:00,23.38,22.864395,341.945,
2020-07-31 01:45:00,23.125,22.8302093333333,333.615,
2020-07-31 02:15:00,22.8888886666667,22.7878103333333,287.49,
2020-07-31 02:45:00,22.6949996666667,22.754651,277.928,
2020-07-31 03:15:00,22.4955553333333,22.7327283333333,244.27,
2020-07-31 03:45:00,22.318333,22.709598,235.779,
2020-07-31 04:15:00,22.123889,22.6760773333333,229.236,
2020-07-31 04:45:00,21.9438886666667,22.6432206666667,200.726,
2020-07-31 05:15:00,21.736111,22.6192523333333,217.135,
2020-07-31 05:45:00,21.6261113333333,22.6047826666667,188.454,
2020-07-31 06:15:00,21.518333,22.593782,185.279,
2020-07-31 06:45:00,21.5,22.5874363333333,214.072,
2020-07-31 07:15:00,21.5,22.5834706666667,460.837,0.831558
2020-07-31 07:45:00,21.5644443333333,22.5834706666667,770.852,
2020-07-31 08:15:00,21.663333,22.5887256666667,1024.13,
2020-07-31 08:45:00,21.7900003333333,22.5932856666667,1294.13,-0.37557999999999997
2020-07-31 09:15:00,22.005,22.600421,1508.54,-0.362137
2020-07-31 09:45:00,22.2527776666667,22.6136056666667,1718.51,-0.562047
2020-07-31 10:15:00,22.6116663333333,22.631929,2026.19,-0.55765
2020-07-31 10:45:00,22.9555556666667,22.6565853333333,2322.13,-0.7306819999999999
2020-07-31 11:15:00,23.362778,22.6923953333333,2277.11,-0.571903
2020-07-31 11:45:00,23.7911116666667,22.7200763333333,2586.23,-0.713532
2020-07-31 12:15:00,24.7400003333333,22.805645,2756.58,-0.903308
2020-07-31 12:45:00,26.491667,22.954561,3126.37,
2020-07-31 13:15:00,28.3211113333333,23.1231823333333,3433.87,-0.7797890000000001
2020-07-31 13:45:00,29.9766666666667,23.2758023333333,3567.98,-0.7097450000000001
2020-07-31 14:15:00,31.361111,23.4084113333333,3786.12,-0.611461
2020-07-31 14:45:00,32.403334,23.5102673333333,3916.37,-0.68723
2020-07-31 15:15:00,32.5588886666667,23.506294,3919.91,-0.598936
2020-07-31 15:45:00,31.9138893333333,23.4165823333333,3964.84,-0.578982
2020-07-31 16:15:00,32.113889,23.4154196666667,3987.71,-0.408148
2020-07-31 16:45:00,32.5072233333333,23.4352246666667,3994.2,-0.352303
2020-07-31 17:15:00,32.662777,23.42882,3965.37,-0.277637
2020-07-31 17:45:00,32.5144433333333,23.3956016666667,3794.4,-0.20468
2020-07-31 18:15:00,32.092778,23.3310306666667,3699.45,-0.232217
2020-07-31 18:45:00,31.3988886666667,23.2487116666667,3551.6,-0.29497300000000004
2020-07-31 19:15:00,30.5883333333333,23.1497033333333,2392.17,-0.192662
2020-07-31 19:45:00,29.7877783333333,23.048189,1835.6,
2020-07-31 20:15:00,28.994444,22.9564413333333,1309.95,
2020-07-31 20:45:00,28.240556,22.8650776666667,1103.5,
2020-07-31 21:15:00,27.5666666666667,22.7782296666667,1006.64,
2020-07-31 21:45:00,26.9727776666667,22.6956523333333,809.112,
2020-07-31 22:15:00,26.4611106666667,22.6267746666667,760.597,
2020-07-31 22:45:00,25.9705553333333,22.5653173333333,692.059,
2020-07-31 23:15:00,25.5411106666667,22.5023723333333,705.986,
2020-07-31 23:45:00,25.1438886666667,22.4408243333333,564.876,
